<?xml version="1.0" encoding="UTF-8" standalone="no"?>
<svg
   xmlns:dc="http://purl.org/dc/elements/1.1/"
   xmlns:cc="http://creativecommons.org/ns#"
   xmlns:rdf="http://www.w3.org/1999/02/22-rdf-syntax-ns#"
   xmlns:svg="http://www.w3.org/2000/svg"
   xmlns="http://www.w3.org/2000/svg"
   xmlns:sodipodi="http://sodipodi.sourceforge.net/DTD/sodipodi-0.dtd"
   xmlns:inkscape="http://www.inkscape.org/namespaces/inkscape"
   version="1.1"
   width="27cm"
   height="19cm"
   viewBox="0 0 11700 8267 "
   id="svg2"
   sodipodi:version="0.32"
   inkscape:version="0.46"
   sodipodi:docname="drenador-abierto.svg"
   inkscape:output_extension="org.inkscape.output.svg.inkscape">
  <metadata
     id="metadata8177">
    <rdf:RDF>
      <cc:Work
         rdf:about="">
        <dc:format>image/svg+xml</dc:format>
        <dc:type
           rdf:resource="http://purl.org/dc/dcmitype/StillImage" />
      </cc:Work>
    </rdf:RDF>
  </metadata>
  <defs
     id="defs8175">
    <inkscape:perspective
       sodipodi:type="inkscape:persp3d"
       inkscape:vp_x="0 : 336.61417 : 1"
       inkscape:vp_y="0 : 1000 : 0"
       inkscape:vp_z="956.69293 : 336.61417 : 1"
       inkscape:persp3d-origin="478.34647 : 224.40944 : 1"
       id="perspective8179" />
  </defs>
  <sodipodi:namedview
     inkscape:window-height="974"
     inkscape:window-width="1680"
     inkscape:pageshadow="2"
     inkscape:pageopacity="0.0"
     guidetolerance="10.0"
     gridtolerance="10.0"
     objecttolerance="10.0"
     borderopacity="1.0"
     bordercolor="#666666"
     pagecolor="#ffffff"
     id="base"
     showgrid="false"
     inkscape:zoom="1.1288889"
     inkscape:cx="437.12558"
     inkscape:cy="190.60825"
     inkscape:window-x="0"
     inkscape:window-y="24"
     inkscape:current-layer="svg2" />
  <title
     id="title4">SVG Picture created as freeleds.svg </title>
  <desc
     id="desc6">Picture generated by wxSVG v0101 </desc>
  <g
     style="fill:black; stroke:black; stroke-width:1"
     id="g8" />
  <g
     style="fill:#a00000;fill-opacity:1;stroke:#a00000;stroke-width:0.29010743;stroke-linecap:round;stroke-linejoin:round;stroke-opacity:1"
     transform="matrix(3.4476622,0,0,3.4463359,-19681.806,-7193.0662)"
     id="g832"
     inkscape:export-filename="/home/juan/desarrollo/curso-pic/pic16-dibujos/drenador-abierto.png"
     inkscape:export-xdpi="90"
     inkscape:export-ydpi="90">
    <polygon
       style="fill-rule:evenodd;stroke-width:0.29010743"
       points="7600,4050 7700,4100 7600,4150 7600,4050 "
       id="polygon834" />
  </g>
  <g
     style="fill:#a00000;fill-opacity:0;stroke:#a00000;stroke-width:3.56241417;stroke-linecap:round;stroke-linejoin:round;stroke-miterlimit:4;stroke-dasharray:none;stroke-opacity:1"
     transform="matrix(3.4476622,0,0,3.4463359,-19681.806,-7193.0662)"
     id="g836"
     inkscape:export-filename="/home/juan/desarrollo/curso-pic/pic16-dibujos/drenador-abierto.png"
     inkscape:export-xdpi="90"
     inkscape:export-ydpi="90">
    <path
       d="M 7700,4050 L 7700,4150"
       id="path838"
       style="stroke-width:3.56241417;stroke-miterlimit:4;stroke-dasharray:none" />
  </g>
  <g
     style="fill:#a00000;fill-opacity:0;stroke:#a00000;stroke-width:3.56241417;stroke-linecap:round;stroke-linejoin:round;stroke-miterlimit:4;stroke-dasharray:none;stroke-opacity:1"
     transform="matrix(3.4476622,0,0,3.4463359,-19681.806,-7193.0662)"
     id="g840"
     inkscape:export-filename="/home/juan/desarrollo/curso-pic/pic16-dibujos/drenador-abierto.png"
     inkscape:export-xdpi="90"
     inkscape:export-ydpi="90">
    <path
       d="M 7730,4125 L 7775,4165"
       id="path842"
       style="stroke-width:3.56241417;stroke-miterlimit:4;stroke-dasharray:none" />
    <path
       d="M 7775,4165 L 7770,4140"
       id="path844"
       style="stroke-width:3.56241417;stroke-miterlimit:4;stroke-dasharray:none" />
  </g>
  <g
     style="fill:#a00000;fill-opacity:0;stroke:#a00000;stroke-width:3.56241417;stroke-linecap:round;stroke-linejoin:round;stroke-miterlimit:4;stroke-dasharray:none;stroke-opacity:1"
     transform="matrix(3.4476622,0,0,3.4463359,-19681.806,-7193.0662)"
     id="g846"
     inkscape:export-filename="/home/juan/desarrollo/curso-pic/pic16-dibujos/drenador-abierto.png"
     inkscape:export-xdpi="90"
     inkscape:export-ydpi="90">
    <path
       d="M 7715,4140 L 7760,4180"
       id="path848"
       style="stroke-width:3.56241417;stroke-miterlimit:4;stroke-dasharray:none" />
    <path
       d="M 7760,4180 L 7755,4155"
       id="path850"
       style="stroke-width:3.56241417;stroke-miterlimit:4;stroke-dasharray:none" />
    <path
       d="M 7700,4100 L 7850,4100"
       id="path852"
       style="stroke-width:3.56241417;stroke-miterlimit:4;stroke-dasharray:none" />
    <path
       d="M 7450,4100 L 7600,4100"
       id="path854"
       style="stroke-width:3.56241417;stroke-miterlimit:4;stroke-dasharray:none" />
  </g>
  <g
     style="fill:#a00000;fill-opacity:1;stroke:#a00000;stroke-width:0.29010743;stroke-linecap:round;stroke-linejoin:round;stroke-opacity:1"
     transform="matrix(-3.4476622,0,0,3.4463359,33067.426,-7704.3149)"
     id="g878"
     inkscape:export-filename="/home/juan/desarrollo/curso-pic/pic16-dibujos/drenador-abierto.png"
     inkscape:export-xdpi="90"
     inkscape:export-ydpi="90">
    <polygon
       style="fill-rule:evenodd;stroke-width:0.29010743"
       points="7600,3800 7700,3850 7600,3900 7600,3800 "
       id="polygon880" />
  </g>
  <g
     style="fill:#a00000;fill-opacity:0;stroke:#a00000;stroke-width:3.56241417;stroke-linecap:round;stroke-linejoin:round;stroke-miterlimit:4;stroke-dasharray:none;stroke-opacity:1"
     transform="matrix(-3.4476622,0,0,3.4463359,33067.426,-7704.3149)"
     id="g882"
     inkscape:export-filename="/home/juan/desarrollo/curso-pic/pic16-dibujos/drenador-abierto.png"
     inkscape:export-xdpi="90"
     inkscape:export-ydpi="90">
    <path
       d="M 7700,3800 L 7700,3900"
       id="path884"
       style="stroke-width:3.56241417;stroke-miterlimit:4;stroke-dasharray:none" />
  </g>
  <g
     style="fill:#a00000;fill-opacity:0;stroke:#a00000;stroke-width:3.56241417;stroke-linecap:round;stroke-linejoin:round;stroke-miterlimit:4;stroke-dasharray:none;stroke-opacity:1"
     transform="matrix(-3.4476622,0,0,3.4463359,33067.426,-7704.3149)"
     id="g886"
     inkscape:export-filename="/home/juan/desarrollo/curso-pic/pic16-dibujos/drenador-abierto.png"
     inkscape:export-xdpi="90"
     inkscape:export-ydpi="90">
    <path
       d="M 7730,3875 L 7775,3915"
       id="path888"
       style="stroke-width:3.56241417;stroke-miterlimit:4;stroke-dasharray:none" />
    <path
       d="M 7775,3915 L 7770,3890"
       id="path890"
       style="stroke-width:3.56241417;stroke-miterlimit:4;stroke-dasharray:none" />
  </g>
  <g
     style="fill:#a00000;fill-opacity:0;stroke:#a00000;stroke-width:3.56241417;stroke-linecap:round;stroke-linejoin:round;stroke-miterlimit:4;stroke-dasharray:none;stroke-opacity:1"
     transform="matrix(-3.4476622,0,0,3.4463359,33067.426,-7704.3149)"
     id="g892"
     inkscape:export-filename="/home/juan/desarrollo/curso-pic/pic16-dibujos/drenador-abierto.png"
     inkscape:export-xdpi="90"
     inkscape:export-ydpi="90">
    <path
       d="M 7715,3890 L 7760,3930"
       id="path894"
       style="stroke-width:3.56241417;stroke-miterlimit:4;stroke-dasharray:none" />
    <path
       d="M 7760,3930 L 7755,3905"
       id="path896"
       style="stroke-width:3.56241417;stroke-miterlimit:4;stroke-dasharray:none" />
    <path
       d="M 7700,3850 L 7850,3850"
       id="path898"
       style="stroke-width:3.56241417;stroke-miterlimit:4;stroke-dasharray:none" />
    <path
       d="M 7450,3850 L 7600,3850"
       id="path900"
       style="stroke-width:3.56241417;stroke-miterlimit:4;stroke-dasharray:none" />
  </g>
  <g
     style="fill:#a00000;fill-opacity:0;stroke:#a00000;stroke-width:3.56241417;stroke-linecap:round;stroke-linejoin:round;stroke-miterlimit:4;stroke-dasharray:none;stroke-opacity:1"
     transform="matrix(3.4476622,0,0,3.4463359,-19681.806,-7704.3149)"
     id="g1284"
     inkscape:export-filename="/home/juan/desarrollo/curso-pic/pic16-dibujos/drenador-abierto.png"
     inkscape:export-xdpi="90"
     inkscape:export-ydpi="90">
    <path
       d="M 7250,3850 L 7230,3810"
       id="path1286"
       style="stroke-width:3.56241417;stroke-miterlimit:4;stroke-dasharray:none" />
    <path
       d="M 7230,3810 L 7210,3890"
       id="path1288"
       style="stroke-width:3.56241417;stroke-miterlimit:4;stroke-dasharray:none" />
    <path
       d="M 7210,3890 L 7190,3810"
       id="path1290"
       style="stroke-width:3.56241417;stroke-miterlimit:4;stroke-dasharray:none" />
    <path
       d="M 7190,3810 L 7170,3890"
       id="path1292"
       style="stroke-width:3.56241417;stroke-miterlimit:4;stroke-dasharray:none" />
    <path
       d="M 7170,3890 L 7150,3810"
       id="path1294"
       style="stroke-width:3.56241417;stroke-miterlimit:4;stroke-dasharray:none" />
    <path
       d="M 7150,3810 L 7130,3890"
       id="path1296"
       style="stroke-width:3.56241417;stroke-miterlimit:4;stroke-dasharray:none" />
    <path
       d="M 7130,3890 L 7110,3810"
       id="path1298"
       style="stroke-width:3.56241417;stroke-miterlimit:4;stroke-dasharray:none" />
    <path
       d="M 7110,3810 L 7090,3890"
       id="path1300"
       style="stroke-width:3.56241417;stroke-miterlimit:4;stroke-dasharray:none" />
    <path
       d="M 7090,3890 L 7070,3810"
       id="path1302"
       style="stroke-width:3.56241417;stroke-miterlimit:4;stroke-dasharray:none" />
    <path
       d="M 7070,3810 L 7050,3890"
       id="path1304"
       style="stroke-width:3.56241417;stroke-miterlimit:4;stroke-dasharray:none" />
    <path
       d="M 7050,3890 L 7030,3810"
       id="path1306"
       style="stroke-width:3.56241417;stroke-miterlimit:4;stroke-dasharray:none" />
    <path
       d="M 7030,3810 L 7010,3890"
       id="path1308"
       style="stroke-width:3.56241417;stroke-miterlimit:4;stroke-dasharray:none" />
    <path
       d="M 7010,3890 L 6990,3810"
       id="path1310"
       style="stroke-width:3.56241417;stroke-miterlimit:4;stroke-dasharray:none" />
    <path
       d="M 6990,3810 L 6970,3890"
       id="path1312"
       style="stroke-width:3.56241417;stroke-miterlimit:4;stroke-dasharray:none" />
    <path
       d="M 6970,3890 L 6950,3850"
       id="path1314"
       style="stroke-width:3.56241417;stroke-miterlimit:4;stroke-dasharray:none" />
    <path
       d="M 6950,3850 L 6950,3850"
       id="path1316"
       style="stroke-width:3.56241417;stroke-miterlimit:4;stroke-dasharray:none" />
    <path
       d="M 6850,3850 L 6950,3850"
       id="path1318"
       style="stroke-width:3.56241417;stroke-miterlimit:4;stroke-dasharray:none" />
    <path
       d="M 7250,3850 L 7350,3850"
       id="path1320"
       style="stroke-width:3.56241417;stroke-miterlimit:4;stroke-dasharray:none" />
  </g>
  <g
     style="fill:#a00000;fill-opacity:0;stroke:#a00000;stroke-width:3.56241417;stroke-linecap:round;stroke-linejoin:round;stroke-miterlimit:4;stroke-dasharray:none;stroke-opacity:1"
     transform="matrix(3.4476622,0,0,3.4463359,-19681.806,-7193.0662)"
     id="g1814"
     inkscape:export-filename="/home/juan/desarrollo/curso-pic/pic16-dibujos/drenador-abierto.png"
     inkscape:export-xdpi="90"
     inkscape:export-ydpi="90">
    <path
       d="M 7250,4100 L 7230,4060"
       id="path1816"
       style="stroke-width:3.56241417;stroke-miterlimit:4;stroke-dasharray:none" />
    <path
       d="M 7230,4060 L 7210,4140"
       id="path1818"
       style="stroke-width:3.56241417;stroke-miterlimit:4;stroke-dasharray:none" />
    <path
       d="M 7210,4140 L 7190,4060"
       id="path1820"
       style="stroke-width:3.56241417;stroke-miterlimit:4;stroke-dasharray:none" />
    <path
       d="M 7190,4060 L 7170,4140"
       id="path1822"
       style="stroke-width:3.56241417;stroke-miterlimit:4;stroke-dasharray:none" />
    <path
       d="M 7170,4140 L 7150,4060"
       id="path1824"
       style="stroke-width:3.56241417;stroke-miterlimit:4;stroke-dasharray:none" />
    <path
       d="M 7150,4060 L 7130,4140"
       id="path1826"
       style="stroke-width:3.56241417;stroke-miterlimit:4;stroke-dasharray:none" />
    <path
       d="M 7130,4140 L 7110,4060"
       id="path1828"
       style="stroke-width:3.56241417;stroke-miterlimit:4;stroke-dasharray:none" />
    <path
       d="M 7110,4060 L 7090,4140"
       id="path1830"
       style="stroke-width:3.56241417;stroke-miterlimit:4;stroke-dasharray:none" />
    <path
       d="M 7090,4140 L 7070,4060"
       id="path1832"
       style="stroke-width:3.56241417;stroke-miterlimit:4;stroke-dasharray:none" />
    <path
       d="M 7070,4060 L 7050,4140"
       id="path1834"
       style="stroke-width:3.56241417;stroke-miterlimit:4;stroke-dasharray:none" />
    <path
       d="M 7050,4140 L 7030,4060"
       id="path1836"
       style="stroke-width:3.56241417;stroke-miterlimit:4;stroke-dasharray:none" />
    <path
       d="M 7030,4060 L 7010,4140"
       id="path1838"
       style="stroke-width:3.56241417;stroke-miterlimit:4;stroke-dasharray:none" />
    <path
       d="M 7010,4140 L 6990,4060"
       id="path1840"
       style="stroke-width:3.56241417;stroke-miterlimit:4;stroke-dasharray:none" />
    <path
       d="M 6990,4060 L 6970,4140"
       id="path1842"
       style="stroke-width:3.56241417;stroke-miterlimit:4;stroke-dasharray:none" />
    <path
       d="M 6970,4140 L 6950,4100"
       id="path1844"
       style="stroke-width:3.56241417;stroke-miterlimit:4;stroke-dasharray:none" />
    <path
       d="M 6950,4100 L 6950,4100"
       id="path1846"
       style="stroke-width:3.56241417;stroke-miterlimit:4;stroke-dasharray:none" />
    <path
       d="M 6850,4100 L 6950,4100"
       id="path1848"
       style="stroke-width:3.56241417;stroke-miterlimit:4;stroke-dasharray:none" />
    <path
       d="M 7250,4100 L 7350,4100"
       id="path1850"
       style="stroke-width:3.56241417;stroke-miterlimit:4;stroke-dasharray:none" />
  </g>
  <path
     style="fill:#00a000;fill-opacity:1;stroke:#00a000;stroke-width:12.27963734;stroke-linecap:round;stroke-linejoin:round;stroke-miterlimit:4;stroke-dasharray:none;stroke-opacity:1"
     id="path3910"
     d="M 7382.3423,6936.9111 L 7899.4917,6936.9111"
     inkscape:export-filename="/home/juan/desarrollo/curso-pic/pic16-dibujos/drenador-abierto.png"
     inkscape:export-xdpi="90"
     inkscape:export-ydpi="90" />
  <path
     style="fill:none;fill-opacity:1;stroke:#00a000;stroke-width:12.27963734;stroke-linecap:round;stroke-linejoin:round;stroke-miterlimit:4;stroke-dasharray:none;stroke-opacity:1"
     id="path3912"
     d="M 7385.0366,5567.397 L 7902.186,5567.397 L 7902.186,4832.9254"
     inkscape:export-filename="/home/juan/desarrollo/curso-pic/pic16-dibujos/drenador-abierto.png"
     inkscape:export-xdpi="90"
     inkscape:export-ydpi="90" />
  <path
     style="fill:#00a000;fill-opacity:1;stroke:#00a000;stroke-width:12.27963734;stroke-linecap:round;stroke-linejoin:round;stroke-miterlimit:4;stroke-dasharray:none;stroke-opacity:1"
     id="path3924"
     d="M 7899.4917,6937.1466 L 7899.4917,7459.6238"
     inkscape:export-filename="/home/juan/desarrollo/curso-pic/pic16-dibujos/drenador-abierto.png"
     inkscape:export-xdpi="90"
     inkscape:export-ydpi="90" />
  <path
     style="fill:#00a000;fill-opacity:1;stroke:#00a000;stroke-width:12.27963734;stroke-linecap:round;stroke-linejoin:round;stroke-miterlimit:4;stroke-dasharray:none;stroke-opacity:1"
     id="path3928"
     d="M 5658.5112,6936.9111 L 6003.2774,6936.9111"
     inkscape:export-filename="/home/juan/desarrollo/curso-pic/pic16-dibujos/drenador-abierto.png"
     inkscape:export-xdpi="90"
     inkscape:export-ydpi="90" />
  <path
     style="fill:#00a000;fill-opacity:1;stroke:#00a000;stroke-width:12.27963734;stroke-linecap:round;stroke-linejoin:round;stroke-miterlimit:4;stroke-dasharray:none;stroke-opacity:1"
     id="path3930"
     d="M 5658.5112,5564.0784 L 6003.2774,5564.0784"
     inkscape:export-filename="/home/juan/desarrollo/curso-pic/pic16-dibujos/drenador-abierto.png"
     inkscape:export-xdpi="90"
     inkscape:export-ydpi="90" />
  <g
     style="fill:#a00000;fill-opacity:0;stroke:#a00000;stroke-width:3.56241417;stroke-linecap:round;stroke-linejoin:round;stroke-miterlimit:4;stroke-dasharray:none;stroke-opacity:1"
     transform="matrix(3.4476622,0,0,3.4463359,-19681.806,-7193.0662)"
     id="g3944"
     inkscape:export-filename="/home/juan/desarrollo/curso-pic/pic16-dibujos/drenador-abierto.png"
     inkscape:export-xdpi="90"
     inkscape:export-ydpi="90">
    <path
       d="M 7960,4250 L 7950,4280"
       id="path3946"
       style="stroke-width:3.56241417;stroke-miterlimit:4;stroke-dasharray:none" />
    <path
       d="M 7950,4280 L 7950,4280"
       id="path3948"
       style="stroke-width:3.56241417;stroke-miterlimit:4;stroke-dasharray:none" />
  </g>
  <g
     style="fill:#a00000;fill-opacity:0;stroke:#a00000;stroke-width:3.56241417;stroke-linecap:round;stroke-linejoin:round;stroke-miterlimit:4;stroke-dasharray:none;stroke-opacity:1"
     transform="matrix(3.4476622,0,0,3.4463359,-19681.806,-7193.0662)"
     id="g3950"
     inkscape:export-filename="/home/juan/desarrollo/curso-pic/pic16-dibujos/drenador-abierto.png"
     inkscape:export-xdpi="90"
     inkscape:export-ydpi="90">
    <path
       d="M 7980,4250 L 7970,4280"
       id="path3952"
       style="stroke-width:3.56241417;stroke-miterlimit:4;stroke-dasharray:none" />
    <path
       d="M 7970,4280 L 7970,4280"
       id="path3954"
       style="stroke-width:3.56241417;stroke-miterlimit:4;stroke-dasharray:none" />
  </g>
  <g
     style="fill:#a00000;fill-opacity:0;stroke:#a00000;stroke-width:3.56241417;stroke-linecap:round;stroke-linejoin:round;stroke-miterlimit:4;stroke-dasharray:none;stroke-opacity:1"
     transform="matrix(3.4476622,0,0,3.4463359,-19681.806,-7193.0662)"
     id="g3956"
     inkscape:export-filename="/home/juan/desarrollo/curso-pic/pic16-dibujos/drenador-abierto.png"
     inkscape:export-xdpi="90"
     inkscape:export-ydpi="90">
    <path
       d="M 8000,4250 L 7990,4280"
       id="path3958"
       style="stroke-width:3.56241417;stroke-miterlimit:4;stroke-dasharray:none" />
    <path
       d="M 7990,4280 L 7990,4280"
       id="path3960"
       style="stroke-width:3.56241417;stroke-miterlimit:4;stroke-dasharray:none" />
  </g>
  <g
     style="fill:#a00000;fill-opacity:0;stroke:#a00000;stroke-width:3.56241417;stroke-linecap:round;stroke-linejoin:round;stroke-miterlimit:4;stroke-dasharray:none;stroke-opacity:1"
     transform="matrix(3.4476622,0,0,3.4463359,-19681.806,-7193.0662)"
     id="g3962"
     inkscape:export-filename="/home/juan/desarrollo/curso-pic/pic16-dibujos/drenador-abierto.png"
     inkscape:export-xdpi="90"
     inkscape:export-ydpi="90">
    <path
       d="M 8020,4250 L 8010,4280"
       id="path3964"
       style="stroke-width:3.56241417;stroke-miterlimit:4;stroke-dasharray:none" />
    <path
       d="M 8010,4280 L 8010,4280"
       id="path3966"
       style="stroke-width:3.56241417;stroke-miterlimit:4;stroke-dasharray:none" />
  </g>
  <g
     style="fill:#a00000;fill-opacity:0;stroke:#a00000;stroke-width:3.56241417;stroke-linecap:round;stroke-linejoin:round;stroke-miterlimit:4;stroke-dasharray:none;stroke-opacity:1"
     transform="matrix(3.4476622,0,0,3.4463359,-19681.806,-7193.0662)"
     id="g3968"
     inkscape:export-filename="/home/juan/desarrollo/curso-pic/pic16-dibujos/drenador-abierto.png"
     inkscape:export-xdpi="90"
     inkscape:export-ydpi="90">
    <path
       d="M 8040,4250 L 8030,4280"
       id="path3970"
       style="stroke-width:3.56241417;stroke-miterlimit:4;stroke-dasharray:none" />
    <path
       d="M 8030,4280 L 8030,4280"
       id="path3972"
       style="stroke-width:3.56241417;stroke-miterlimit:4;stroke-dasharray:none" />
    <path
       d="M 8030,4280 L 8030,4280"
       id="path3974"
       style="stroke-width:3.56241417;stroke-miterlimit:4;stroke-dasharray:none" />
  </g>
  <g
     style="fill:#a00000;fill-opacity:0;stroke:#a00000;stroke-width:3.56241417;stroke-linecap:round;stroke-linejoin:round;stroke-miterlimit:4;stroke-dasharray:none;stroke-opacity:1"
     transform="matrix(3.4476622,0,0,3.4463359,-19681.806,-7202.4381)"
     id="g3976"
     inkscape:export-filename="/home/juan/desarrollo/curso-pic/pic16-dibujos/drenador-abierto.png"
     inkscape:export-xdpi="90"
     inkscape:export-ydpi="90">
    <path
       d="M 8040,4250 L 7960,4250"
       id="path3978"
       style="stroke-width:3.56241417;stroke-miterlimit:4;stroke-dasharray:none" />
    <path
       d="M 7960,4250 L 7960,4250"
       id="path3980"
       style="stroke-width:3.56241417;stroke-miterlimit:4;stroke-dasharray:none" />
  </g>
  <text
     xml:space="preserve"
     style="font-size:171.91493225px;font-style:normal;font-variant:normal;font-weight:normal;font-stretch:normal;text-align:start;line-height:125%;writing-mode:lr-tb;text-anchor:start;fill:#000000;fill-opacity:1;stroke:none;stroke-width:1px;stroke-linecap:butt;stroke-linejoin:miter;stroke-opacity:1;font-family:Bitstream Vera Sans;-inkscape-font-specification:Bitstream Vera Sans"
     x="3417.7512"
     y="5618.8867"
     id="text3482"
     sodipodi:linespacing="125%"
     inkscape:export-filename="/home/juan/desarrollo/curso-pic/pic16-dibujos/drenador-abierto.png"
     inkscape:export-xdpi="90"
     inkscape:export-ydpi="90"><tspan
       sodipodi:role="line"
       id="tspan3501"
       x="3417.7512"
       y="5618.8867">RA4</tspan></text>
  <path
     style="fill:none;fill-rule:evenodd;stroke:#000000;stroke-width:12.27963734;stroke-linecap:butt;stroke-linejoin:miter;stroke-miterlimit:4;stroke-dasharray:none;stroke-opacity:1"
     d="M 3369.8999,5471.4486 L 3369.8999,5710.7565 L 3772.3723,5710.7565 L 3919.2203,5563.9084 L 3766.9335,5411.6216 L 3369.8999,5411.6216 L 3369.8999,5471.4486 z"
     id="path3486"
     inkscape:export-filename="/home/juan/desarrollo/curso-pic/pic16-dibujos/drenador-abierto.png"
     inkscape:export-xdpi="90"
     inkscape:export-ydpi="90" />
  <text
     xml:space="preserve"
     style="font-size:171.91492754px;font-style:normal;font-weight:normal;fill:#000000;fill-opacity:1;stroke:none;stroke-width:1px;stroke-linecap:butt;stroke-linejoin:miter;stroke-opacity:1;font-family:Bitstream Vera Sans;-inkscape-font-specification:Bitstream Vera Sans;font-stretch:normal;font-variant:normal;text-anchor:start;text-align:start;writing-mode:lr;line-height:125%"
     x="3417.7512"
     y="6989.4683"
     id="text3488"
     sodipodi:linespacing="125%"
     inkscape:export-filename="/home/juan/desarrollo/curso-pic/pic16-dibujos/drenador-abierto.png"
     inkscape:export-xdpi="90"
     inkscape:export-ydpi="90"><tspan
       sodipodi:role="line"
       id="tspan3503">RAX</tspan></text>
  <path
     style="fill:none;fill-rule:evenodd;stroke:#000000;stroke-width:12.27963734;stroke-linecap:butt;stroke-linejoin:miter;stroke-miterlimit:4;stroke-dasharray:none;stroke-opacity:1"
     d="M 3369.8999,6842.0302 L 3369.8999,7081.3381 L 3772.3723,7081.3381 L 3919.2203,6934.49 L 3766.9335,6782.2032 L 3369.8999,6782.2032 L 3369.8999,6842.0302 z"
     id="path3492"
     inkscape:export-filename="/home/juan/desarrollo/curso-pic/pic16-dibujos/drenador-abierto.png"
     inkscape:export-xdpi="90"
     inkscape:export-ydpi="90" />
  <text
     xml:space="preserve"
     style="font-size:147.35565186px;font-style:normal;font-weight:normal;fill:#000000;fill-opacity:1;stroke:none;stroke-width:1px;stroke-linecap:butt;stroke-linejoin:miter;stroke-opacity:1;font-family:Bitstream Vera Sans"
     x="4642.583"
     y="5330.0396"
     id="text3536"
     inkscape:export-filename="/home/juan/desarrollo/curso-pic/pic16-dibujos/drenador-abierto.png"
     inkscape:export-xdpi="90"
     inkscape:export-ydpi="90"><tspan
       sodipodi:role="line"
       id="tspan3538"
       x="4642.583"
       y="5330.0396">220</tspan></text>
  <text
     xml:space="preserve"
     style="font-size:147.35565186px;font-style:normal;font-weight:normal;fill:#000000;fill-opacity:1;stroke:none;stroke-width:1px;stroke-linecap:butt;stroke-linejoin:miter;stroke-opacity:1;font-family:Bitstream Vera Sans"
     x="4642.583"
     y="6657.1104"
     id="text3540"
     inkscape:export-filename="/home/juan/desarrollo/curso-pic/pic16-dibujos/drenador-abierto.png"
     inkscape:export-xdpi="90"
     inkscape:export-ydpi="90"><tspan
       sodipodi:role="line"
       id="tspan3542"
       x="4642.583"
       y="6657.1104">220</tspan></text>
  <path
     sodipodi:type="arc"
     style="fill:none;fill-opacity:1;stroke:#000000;stroke-width:73.67782593;stroke-linecap:round;stroke-linejoin:round;stroke-miterlimit:4;stroke-dasharray:none;stroke-dashoffset:0;stroke-opacity:1"
     id="path3493"
     sodipodi:cx="1060.601"
     sodipodi:cy="5821.0562"
     sodipodi:rx="207.67447"
     sodipodi:ry="207.67447"
     d="M 1268.2754,5821.0562 A 207.67447,207.67447 0 1 1 852.92648,5821.0562 A 207.67447,207.67447 0 1 1 1268.2754,5821.0562 z"
     transform="matrix(0.3333333,0,0,0.3333333,7552.6333,2815.6568)"
     inkscape:export-filename="/home/juan/desarrollo/curso-pic/pic16-dibujos/drenador-abierto.png"
     inkscape:export-xdpi="90"
     inkscape:export-ydpi="90" />
  <text
     xml:space="preserve"
     style="font-size:147.35565186px;font-style:normal;font-variant:normal;font-weight:normal;font-stretch:normal;text-align:start;line-height:125%;writing-mode:lr-tb;text-anchor:start;fill:#000000;fill-opacity:1;stroke:none;stroke-width:1px;stroke-linecap:butt;stroke-linejoin:miter;stroke-opacity:1;font-family:Bitstream Vera Sans;-inkscape-font-specification:Bitstream Vera Sans"
     x="8041.6807"
     y="4642.0908"
     id="text3495"
     inkscape:export-filename="/home/juan/desarrollo/curso-pic/pic16-dibujos/drenador-abierto.png"
     inkscape:export-xdpi="90"
     inkscape:export-ydpi="90"
     sodipodi:linespacing="125%"><tspan
       sodipodi:role="line"
       id="tspan3499"
       x="8041.6807"
       y="4642.0908">VCC</tspan></text>
</svg>
