<?xml version="1.0" encoding="UTF-8" standalone="no"?>
<svg
   xmlns:dc="http://purl.org/dc/elements/1.1/"
   xmlns:cc="http://creativecommons.org/ns#"
   xmlns:rdf="http://www.w3.org/1999/02/22-rdf-syntax-ns#"
   xmlns:svg="http://www.w3.org/2000/svg"
   xmlns="http://www.w3.org/2000/svg"
   xmlns:sodipodi="http://sodipodi.sourceforge.net/DTD/sodipodi-0.dtd"
   xmlns:inkscape="http://www.inkscape.org/namespaces/inkscape"
   version="1.1"
   width="27cm"
   height="19cm"
   viewBox="0 0 11700 8267 "
   id="svg2"
   sodipodi:version="0.32"
   inkscape:version="0.46"
   sodipodi:docname="freeleds.svg"
   inkscape:output_extension="org.inkscape.output.svg.inkscape">
  <metadata
     id="metadata8177">
    <rdf:RDF>
      <cc:Work
         rdf:about="">
        <dc:format>image/svg+xml</dc:format>
        <dc:type
           rdf:resource="http://purl.org/dc/dcmitype/StillImage" />
      </cc:Work>
    </rdf:RDF>
  </metadata>
  <defs
     id="defs8175">
    <inkscape:perspective
       sodipodi:type="inkscape:persp3d"
       inkscape:vp_x="0 : 336.61417 : 1"
       inkscape:vp_y="0 : 1000 : 0"
       inkscape:vp_z="956.69293 : 336.61417 : 1"
       inkscape:persp3d-origin="478.34647 : 224.40944 : 1"
       id="perspective8179" />
  </defs>
  <sodipodi:namedview
     inkscape:window-height="971"
     inkscape:window-width="1398"
     inkscape:pageshadow="2"
     inkscape:pageopacity="0.0"
     guidetolerance="10.0"
     gridtolerance="10.0"
     objecttolerance="10.0"
     borderopacity="1.0"
     bordercolor="#666666"
     pagecolor="#ffffff"
     id="base"
     showgrid="false"
     inkscape:zoom="1.1288889"
     inkscape:cx="387.61143"
     inkscape:cy="372.43859"
     inkscape:window-x="0"
     inkscape:window-y="24"
     inkscape:current-layer="svg2" />
  <title
     id="title4">SVG Picture created as freeleds.svg </title>
  <desc
     id="desc6">Picture generated by wxSVG v0101 </desc>
  <g
     style="fill:black; stroke:black; stroke-width:1"
     id="g8" />
  <g
     style="fill:#a00000;fill-opacity:1;stroke:#a00000;stroke-width:0.29010743;stroke-linecap:round;stroke-linejoin:round;stroke-opacity:1"
     transform="matrix(3.4476622,0,0,3.4463359,-19681.806,-7193.0662)"
     id="g832"
     inkscape:export-filename="/home/juan/desarrollo/curso-pic/pic16-dibujos/freeleds.png"
     inkscape:export-xdpi="90"
     inkscape:export-ydpi="90">
    <polygon
       style="fill-rule:evenodd;stroke-width:0.29010743"
       points="7600,4050 7700,4100 7600,4150 7600,4050 "
       id="polygon834" />
  </g>
  <g
     style="fill:#a00000;fill-opacity:0;stroke:#a00000;stroke-width:3.56241417;stroke-linecap:round;stroke-linejoin:round;stroke-miterlimit:4;stroke-dasharray:none;stroke-opacity:1"
     transform="matrix(3.4476622,0,0,3.4463359,-19681.806,-7193.0662)"
     id="g836"
     inkscape:export-filename="/home/juan/desarrollo/curso-pic/pic16-dibujos/freeleds.png"
     inkscape:export-xdpi="90"
     inkscape:export-ydpi="90">
    <path
       d="M 7700,4050 L 7700,4150"
       id="path838"
       style="stroke-width:3.56241417;stroke-miterlimit:4;stroke-dasharray:none" />
  </g>
  <g
     style="fill:#a00000;fill-opacity:0;stroke:#a00000;stroke-width:3.56241417;stroke-linecap:round;stroke-linejoin:round;stroke-miterlimit:4;stroke-dasharray:none;stroke-opacity:1"
     transform="matrix(3.4476622,0,0,3.4463359,-19681.806,-7193.0662)"
     id="g840"
     inkscape:export-filename="/home/juan/desarrollo/curso-pic/pic16-dibujos/freeleds.png"
     inkscape:export-xdpi="90"
     inkscape:export-ydpi="90">
    <path
       d="M 7730,4125 L 7775,4165"
       id="path842"
       style="stroke-width:3.56241417;stroke-miterlimit:4;stroke-dasharray:none" />
    <path
       d="M 7775,4165 L 7770,4140"
       id="path844"
       style="stroke-width:3.56241417;stroke-miterlimit:4;stroke-dasharray:none" />
  </g>
  <g
     style="fill:#a00000;fill-opacity:0;stroke:#a00000;stroke-width:3.56241417;stroke-linecap:round;stroke-linejoin:round;stroke-miterlimit:4;stroke-dasharray:none;stroke-opacity:1"
     transform="matrix(3.4476622,0,0,3.4463359,-19681.806,-7193.0662)"
     id="g846"
     inkscape:export-filename="/home/juan/desarrollo/curso-pic/pic16-dibujos/freeleds.png"
     inkscape:export-xdpi="90"
     inkscape:export-ydpi="90">
    <path
       d="M 7715,4140 L 7760,4180"
       id="path848"
       style="stroke-width:3.56241417;stroke-miterlimit:4;stroke-dasharray:none" />
    <path
       d="M 7760,4180 L 7755,4155"
       id="path850"
       style="stroke-width:3.56241417;stroke-miterlimit:4;stroke-dasharray:none" />
    <path
       d="M 7700,4100 L 7850,4100"
       id="path852"
       style="stroke-width:3.56241417;stroke-miterlimit:4;stroke-dasharray:none" />
    <path
       d="M 7450,4100 L 7600,4100"
       id="path854"
       style="stroke-width:3.56241417;stroke-miterlimit:4;stroke-dasharray:none" />
  </g>
  <g
     style="fill:#a00000;fill-opacity:1;stroke:#a00000;stroke-width:0.29010743;stroke-linecap:round;stroke-linejoin:round;stroke-opacity:1"
     transform="matrix(3.4476622,0,0,3.4463359,-19681.806,-7193.0662)"
     id="g878"
     inkscape:export-filename="/home/juan/desarrollo/curso-pic/pic16-dibujos/freeleds.png"
     inkscape:export-xdpi="90"
     inkscape:export-ydpi="90">
    <polygon
       style="fill-rule:evenodd;stroke-width:0.29010743"
       points="7600,3800 7700,3850 7600,3900 7600,3800 "
       id="polygon880" />
  </g>
  <g
     style="fill:#a00000;fill-opacity:0;stroke:#a00000;stroke-width:3.56241417;stroke-linecap:round;stroke-linejoin:round;stroke-miterlimit:4;stroke-dasharray:none;stroke-opacity:1"
     transform="matrix(3.4476622,0,0,3.4463359,-19681.806,-7193.0662)"
     id="g882"
     inkscape:export-filename="/home/juan/desarrollo/curso-pic/pic16-dibujos/freeleds.png"
     inkscape:export-xdpi="90"
     inkscape:export-ydpi="90">
    <path
       d="M 7700,3800 L 7700,3900"
       id="path884"
       style="stroke-width:3.56241417;stroke-miterlimit:4;stroke-dasharray:none" />
  </g>
  <g
     style="fill:#a00000;fill-opacity:0;stroke:#a00000;stroke-width:3.56241417;stroke-linecap:round;stroke-linejoin:round;stroke-miterlimit:4;stroke-dasharray:none;stroke-opacity:1"
     transform="matrix(3.4476622,0,0,3.4463359,-19681.806,-7193.0662)"
     id="g886"
     inkscape:export-filename="/home/juan/desarrollo/curso-pic/pic16-dibujos/freeleds.png"
     inkscape:export-xdpi="90"
     inkscape:export-ydpi="90">
    <path
       d="M 7730,3875 L 7775,3915"
       id="path888"
       style="stroke-width:3.56241417;stroke-miterlimit:4;stroke-dasharray:none" />
    <path
       d="M 7775,3915 L 7770,3890"
       id="path890"
       style="stroke-width:3.56241417;stroke-miterlimit:4;stroke-dasharray:none" />
  </g>
  <g
     style="fill:#a00000;fill-opacity:0;stroke:#a00000;stroke-width:3.56241417;stroke-linecap:round;stroke-linejoin:round;stroke-miterlimit:4;stroke-dasharray:none;stroke-opacity:1"
     transform="matrix(3.4476622,0,0,3.4463359,-19681.806,-7193.0662)"
     id="g892"
     inkscape:export-filename="/home/juan/desarrollo/curso-pic/pic16-dibujos/freeleds.png"
     inkscape:export-xdpi="90"
     inkscape:export-ydpi="90">
    <path
       d="M 7715,3890 L 7760,3930"
       id="path894"
       style="stroke-width:3.56241417;stroke-miterlimit:4;stroke-dasharray:none" />
    <path
       d="M 7760,3930 L 7755,3905"
       id="path896"
       style="stroke-width:3.56241417;stroke-miterlimit:4;stroke-dasharray:none" />
    <path
       d="M 7700,3850 L 7850,3850"
       id="path898"
       style="stroke-width:3.56241417;stroke-miterlimit:4;stroke-dasharray:none" />
    <path
       d="M 7450,3850 L 7600,3850"
       id="path900"
       style="stroke-width:3.56241417;stroke-miterlimit:4;stroke-dasharray:none" />
  </g>
  <g
     style="fill:#a00000;fill-opacity:1;stroke:#a00000;stroke-width:0.29010743;stroke-linecap:round;stroke-linejoin:round;stroke-opacity:1"
     transform="matrix(3.4476622,0,0,3.4463359,-19681.806,-7193.0662)"
     id="g942"
     inkscape:export-filename="/home/juan/desarrollo/curso-pic/pic16-dibujos/freeleds.png"
     inkscape:export-xdpi="90"
     inkscape:export-ydpi="90">
    <polygon
       style="fill-rule:evenodd;stroke-width:0.29010743"
       points="7600,3550 7700,3600 7600,3650 7600,3550 "
       id="polygon944" />
  </g>
  <g
     style="fill:#a00000;fill-opacity:0;stroke:#a00000;stroke-width:3.56241417;stroke-linecap:round;stroke-linejoin:round;stroke-miterlimit:4;stroke-dasharray:none;stroke-opacity:1"
     transform="matrix(3.4476622,0,0,3.4463359,-19681.806,-7193.0662)"
     id="g946"
     inkscape:export-filename="/home/juan/desarrollo/curso-pic/pic16-dibujos/freeleds.png"
     inkscape:export-xdpi="90"
     inkscape:export-ydpi="90">
    <path
       d="M 7700,3550 L 7700,3650"
       id="path948"
       style="stroke-width:3.56241417;stroke-miterlimit:4;stroke-dasharray:none" />
  </g>
  <g
     style="fill:#a00000;fill-opacity:0;stroke:#a00000;stroke-width:3.56241417;stroke-linecap:round;stroke-linejoin:round;stroke-miterlimit:4;stroke-dasharray:none;stroke-opacity:1"
     transform="matrix(3.4476622,0,0,3.4463359,-19681.806,-7193.0662)"
     id="g950"
     inkscape:export-filename="/home/juan/desarrollo/curso-pic/pic16-dibujos/freeleds.png"
     inkscape:export-xdpi="90"
     inkscape:export-ydpi="90">
    <path
       d="M 7730,3625 L 7775,3665"
       id="path952"
       style="stroke-width:3.56241417;stroke-miterlimit:4;stroke-dasharray:none" />
    <path
       d="M 7775,3665 L 7770,3640"
       id="path954"
       style="stroke-width:3.56241417;stroke-miterlimit:4;stroke-dasharray:none" />
  </g>
  <g
     style="fill:#a00000;fill-opacity:0;stroke:#a00000;stroke-width:3.56241417;stroke-linecap:round;stroke-linejoin:round;stroke-miterlimit:4;stroke-dasharray:none;stroke-opacity:1"
     transform="matrix(3.4476622,0,0,3.4463359,-19681.806,-7193.0662)"
     id="g956"
     inkscape:export-filename="/home/juan/desarrollo/curso-pic/pic16-dibujos/freeleds.png"
     inkscape:export-xdpi="90"
     inkscape:export-ydpi="90">
    <path
       d="M 7715,3640 L 7760,3680"
       id="path958"
       style="stroke-width:3.56241417;stroke-miterlimit:4;stroke-dasharray:none" />
    <path
       d="M 7760,3680 L 7755,3655"
       id="path960"
       style="stroke-width:3.56241417;stroke-miterlimit:4;stroke-dasharray:none" />
    <path
       d="M 7700,3600 L 7850,3600"
       id="path962"
       style="stroke-width:3.56241417;stroke-miterlimit:4;stroke-dasharray:none" />
    <path
       d="M 7450,3600 L 7600,3600"
       id="path964"
       style="stroke-width:3.56241417;stroke-miterlimit:4;stroke-dasharray:none" />
  </g>
  <g
     style="fill:#a00000;fill-opacity:1;stroke:#a00000;stroke-width:0.29010743;stroke-linecap:round;stroke-linejoin:round;stroke-opacity:1"
     transform="matrix(3.4476622,0,0,3.4463359,-19681.806,-7193.0662)"
     id="g1002"
     inkscape:export-filename="/home/juan/desarrollo/curso-pic/pic16-dibujos/freeleds.png"
     inkscape:export-xdpi="90"
     inkscape:export-ydpi="90">
    <polygon
       style="fill-rule:evenodd;stroke-width:0.29010743"
       points="7600,2800 7700,2850 7600,2900 7600,2800 "
       id="polygon1004" />
  </g>
  <g
     style="fill:#a00000;fill-opacity:0;stroke:#a00000;stroke-width:3.56241417;stroke-linecap:round;stroke-linejoin:round;stroke-miterlimit:4;stroke-dasharray:none;stroke-opacity:1"
     transform="matrix(3.4476622,0,0,3.4463359,-19681.806,-7193.0662)"
     id="g1006"
     inkscape:export-filename="/home/juan/desarrollo/curso-pic/pic16-dibujos/freeleds.png"
     inkscape:export-xdpi="90"
     inkscape:export-ydpi="90">
    <path
       d="M 7700,2800 L 7700,2900"
       id="path1008"
       style="stroke-width:3.56241417;stroke-miterlimit:4;stroke-dasharray:none" />
  </g>
  <g
     style="fill:#a00000;fill-opacity:0;stroke:#a00000;stroke-width:3.56241417;stroke-linecap:round;stroke-linejoin:round;stroke-miterlimit:4;stroke-dasharray:none;stroke-opacity:1"
     transform="matrix(3.4476622,0,0,3.4463359,-19681.806,-7193.0662)"
     id="g1010"
     inkscape:export-filename="/home/juan/desarrollo/curso-pic/pic16-dibujos/freeleds.png"
     inkscape:export-xdpi="90"
     inkscape:export-ydpi="90">
    <path
       d="M 7730,2875 L 7775,2915"
       id="path1012"
       style="stroke-width:3.56241417;stroke-miterlimit:4;stroke-dasharray:none" />
    <path
       d="M 7775,2915 L 7770,2890"
       id="path1014"
       style="stroke-width:3.56241417;stroke-miterlimit:4;stroke-dasharray:none" />
  </g>
  <g
     style="fill:#a00000;fill-opacity:0;stroke:#a00000;stroke-width:3.56241417;stroke-linecap:round;stroke-linejoin:round;stroke-miterlimit:4;stroke-dasharray:none;stroke-opacity:1"
     transform="matrix(3.4476622,0,0,3.4463359,-19681.806,-7193.0662)"
     id="g1016"
     inkscape:export-filename="/home/juan/desarrollo/curso-pic/pic16-dibujos/freeleds.png"
     inkscape:export-xdpi="90"
     inkscape:export-ydpi="90">
    <path
       d="M 7715,2890 L 7760,2930"
       id="path1018"
       style="stroke-width:3.56241417;stroke-miterlimit:4;stroke-dasharray:none" />
    <path
       d="M 7760,2930 L 7755,2905"
       id="path1020"
       style="stroke-width:3.56241417;stroke-miterlimit:4;stroke-dasharray:none" />
    <path
       d="M 7700,2850 L 7850,2850"
       id="path1022"
       style="stroke-width:3.56241417;stroke-miterlimit:4;stroke-dasharray:none" />
    <path
       d="M 7450,2850 L 7600,2850"
       id="path1024"
       style="stroke-width:3.56241417;stroke-miterlimit:4;stroke-dasharray:none" />
  </g>
  <g
     style="fill:#a00000;fill-opacity:1;stroke:#a00000;stroke-width:0.29010743;stroke-linecap:round;stroke-linejoin:round;stroke-opacity:1"
     transform="matrix(3.4476622,0,0,3.4463359,-19681.806,-7193.0662)"
     id="g1062"
     inkscape:export-filename="/home/juan/desarrollo/curso-pic/pic16-dibujos/freeleds.png"
     inkscape:export-xdpi="90"
     inkscape:export-ydpi="90">
    <polygon
       style="fill-rule:evenodd;stroke-width:0.29010743"
       points="7600,3050 7700,3100 7600,3150 7600,3050 "
       id="polygon1064" />
  </g>
  <g
     style="fill:#a00000;fill-opacity:0;stroke:#a00000;stroke-width:3.56241417;stroke-linecap:round;stroke-linejoin:round;stroke-miterlimit:4;stroke-dasharray:none;stroke-opacity:1"
     transform="matrix(3.4476622,0,0,3.4463359,-19681.806,-7193.0662)"
     id="g1066"
     inkscape:export-filename="/home/juan/desarrollo/curso-pic/pic16-dibujos/freeleds.png"
     inkscape:export-xdpi="90"
     inkscape:export-ydpi="90">
    <path
       d="M 7700,3050 L 7700,3150"
       id="path1068"
       style="stroke-width:3.56241417;stroke-miterlimit:4;stroke-dasharray:none" />
  </g>
  <g
     style="fill:#a00000;fill-opacity:0;stroke:#a00000;stroke-width:3.56241417;stroke-linecap:round;stroke-linejoin:round;stroke-miterlimit:4;stroke-dasharray:none;stroke-opacity:1"
     transform="matrix(3.4476622,0,0,3.4463359,-19681.806,-7193.0662)"
     id="g1070"
     inkscape:export-filename="/home/juan/desarrollo/curso-pic/pic16-dibujos/freeleds.png"
     inkscape:export-xdpi="90"
     inkscape:export-ydpi="90">
    <path
       d="M 7730,3125 L 7775,3165"
       id="path1072"
       style="stroke-width:3.56241417;stroke-miterlimit:4;stroke-dasharray:none" />
    <path
       d="M 7775,3165 L 7770,3140"
       id="path1074"
       style="stroke-width:3.56241417;stroke-miterlimit:4;stroke-dasharray:none" />
  </g>
  <g
     style="fill:#a00000;fill-opacity:0;stroke:#a00000;stroke-width:3.56241417;stroke-linecap:round;stroke-linejoin:round;stroke-miterlimit:4;stroke-dasharray:none;stroke-opacity:1"
     transform="matrix(3.4476622,0,0,3.4463359,-19681.806,-7193.0662)"
     id="g1076"
     inkscape:export-filename="/home/juan/desarrollo/curso-pic/pic16-dibujos/freeleds.png"
     inkscape:export-xdpi="90"
     inkscape:export-ydpi="90">
    <path
       d="M 7715,3140 L 7760,3180"
       id="path1078"
       style="stroke-width:3.56241417;stroke-miterlimit:4;stroke-dasharray:none" />
    <path
       d="M 7760,3180 L 7755,3155"
       id="path1080"
       style="stroke-width:3.56241417;stroke-miterlimit:4;stroke-dasharray:none" />
    <path
       d="M 7700,3100 L 7850,3100"
       id="path1082"
       style="stroke-width:3.56241417;stroke-miterlimit:4;stroke-dasharray:none" />
    <path
       d="M 7450,3100 L 7600,3100"
       id="path1084"
       style="stroke-width:3.56241417;stroke-miterlimit:4;stroke-dasharray:none" />
  </g>
  <g
     style="fill:#a00000;fill-opacity:1;stroke:#a00000;stroke-width:0.29010743;stroke-linecap:round;stroke-linejoin:round;stroke-opacity:1"
     transform="matrix(3.4476622,0,0,3.4463359,-19681.806,-7193.0662)"
     id="g1122"
     inkscape:export-filename="/home/juan/desarrollo/curso-pic/pic16-dibujos/freeleds.png"
     inkscape:export-xdpi="90"
     inkscape:export-ydpi="90">
    <polygon
       style="fill-rule:evenodd;stroke-width:0.29010743"
       points="7600,2550 7700,2600 7600,2650 7600,2550 "
       id="polygon1124" />
  </g>
  <g
     style="fill:#a00000;fill-opacity:0;stroke:#a00000;stroke-width:3.56241417;stroke-linecap:round;stroke-linejoin:round;stroke-miterlimit:4;stroke-dasharray:none;stroke-opacity:1"
     transform="matrix(3.4476622,0,0,3.4463359,-19681.806,-7193.0662)"
     id="g1126"
     inkscape:export-filename="/home/juan/desarrollo/curso-pic/pic16-dibujos/freeleds.png"
     inkscape:export-xdpi="90"
     inkscape:export-ydpi="90">
    <path
       d="M 7700,2550 L 7700,2650"
       id="path1128"
       style="stroke-width:3.56241417;stroke-miterlimit:4;stroke-dasharray:none" />
  </g>
  <g
     style="fill:#a00000;fill-opacity:0;stroke:#a00000;stroke-width:3.56241417;stroke-linecap:round;stroke-linejoin:round;stroke-miterlimit:4;stroke-dasharray:none;stroke-opacity:1"
     transform="matrix(3.4476622,0,0,3.4463359,-19681.806,-7193.0662)"
     id="g1130"
     inkscape:export-filename="/home/juan/desarrollo/curso-pic/pic16-dibujos/freeleds.png"
     inkscape:export-xdpi="90"
     inkscape:export-ydpi="90">
    <path
       d="M 7730,2625 L 7775,2665"
       id="path1132"
       style="stroke-width:3.56241417;stroke-miterlimit:4;stroke-dasharray:none" />
    <path
       d="M 7775,2665 L 7770,2640"
       id="path1134"
       style="stroke-width:3.56241417;stroke-miterlimit:4;stroke-dasharray:none" />
  </g>
  <g
     style="fill:#a00000;fill-opacity:0;stroke:#a00000;stroke-width:3.56241417;stroke-linecap:round;stroke-linejoin:round;stroke-miterlimit:4;stroke-dasharray:none;stroke-opacity:1"
     transform="matrix(3.4476622,0,0,3.4463359,-19681.806,-7193.0662)"
     id="g1136"
     inkscape:export-filename="/home/juan/desarrollo/curso-pic/pic16-dibujos/freeleds.png"
     inkscape:export-xdpi="90"
     inkscape:export-ydpi="90">
    <path
       d="M 7715,2640 L 7760,2680"
       id="path1138"
       style="stroke-width:3.56241417;stroke-miterlimit:4;stroke-dasharray:none" />
    <path
       d="M 7760,2680 L 7755,2655"
       id="path1140"
       style="stroke-width:3.56241417;stroke-miterlimit:4;stroke-dasharray:none" />
    <path
       d="M 7700,2600 L 7850,2600"
       id="path1142"
       style="stroke-width:3.56241417;stroke-miterlimit:4;stroke-dasharray:none" />
    <path
       d="M 7450,2600 L 7600,2600"
       id="path1144"
       style="stroke-width:3.56241417;stroke-miterlimit:4;stroke-dasharray:none" />
  </g>
  <g
     style="fill:#a00000;fill-opacity:1;stroke:#a00000;stroke-width:0.29010743;stroke-linecap:round;stroke-linejoin:round;stroke-opacity:1"
     transform="matrix(3.4476622,0,0,3.4463359,-19681.806,-7193.0662)"
     id="g1174"
     inkscape:export-filename="/home/juan/desarrollo/curso-pic/pic16-dibujos/freeleds.png"
     inkscape:export-xdpi="90"
     inkscape:export-ydpi="90">
    <polygon
       style="fill-rule:evenodd;stroke-width:0.29010743"
       points="7600,3300 7700,3350 7600,3400 7600,3300 "
       id="polygon1176" />
  </g>
  <g
     style="fill:#a00000;fill-opacity:0;stroke:#a00000;stroke-width:3.56241417;stroke-linecap:round;stroke-linejoin:round;stroke-miterlimit:4;stroke-dasharray:none;stroke-opacity:1"
     transform="matrix(3.4476622,0,0,3.4463359,-19681.806,-7193.0662)"
     id="g1178"
     inkscape:export-filename="/home/juan/desarrollo/curso-pic/pic16-dibujos/freeleds.png"
     inkscape:export-xdpi="90"
     inkscape:export-ydpi="90">
    <path
       d="M 7700,3300 L 7700,3400"
       id="path1180"
       style="stroke-width:3.56241417;stroke-miterlimit:4;stroke-dasharray:none" />
  </g>
  <g
     style="fill:#a00000;fill-opacity:0;stroke:#a00000;stroke-width:3.56241417;stroke-linecap:round;stroke-linejoin:round;stroke-miterlimit:4;stroke-dasharray:none;stroke-opacity:1"
     transform="matrix(3.4476622,0,0,3.4463359,-19681.806,-7193.0662)"
     id="g1182"
     inkscape:export-filename="/home/juan/desarrollo/curso-pic/pic16-dibujos/freeleds.png"
     inkscape:export-xdpi="90"
     inkscape:export-ydpi="90">
    <path
       d="M 7730,3375 L 7775,3415"
       id="path1184"
       style="stroke-width:3.56241417;stroke-miterlimit:4;stroke-dasharray:none" />
    <path
       d="M 7775,3415 L 7770,3390"
       id="path1186"
       style="stroke-width:3.56241417;stroke-miterlimit:4;stroke-dasharray:none" />
  </g>
  <g
     style="fill:#a00000;fill-opacity:0;stroke:#a00000;stroke-width:3.56241417;stroke-linecap:round;stroke-linejoin:round;stroke-miterlimit:4;stroke-dasharray:none;stroke-opacity:1"
     transform="matrix(3.4476622,0,0,3.4463359,-19681.806,-7193.0662)"
     id="g1188"
     inkscape:export-filename="/home/juan/desarrollo/curso-pic/pic16-dibujos/freeleds.png"
     inkscape:export-xdpi="90"
     inkscape:export-ydpi="90">
    <path
       d="M 7715,3390 L 7760,3430"
       id="path1190"
       style="stroke-width:3.56241417;stroke-miterlimit:4;stroke-dasharray:none" />
    <path
       d="M 7760,3430 L 7755,3405"
       id="path1192"
       style="stroke-width:3.56241417;stroke-miterlimit:4;stroke-dasharray:none" />
    <path
       d="M 7700,3350 L 7850,3350"
       id="path1194"
       style="stroke-width:3.56241417;stroke-miterlimit:4;stroke-dasharray:none" />
    <path
       d="M 7450,3350 L 7600,3350"
       id="path1196"
       style="stroke-width:3.56241417;stroke-miterlimit:4;stroke-dasharray:none" />
  </g>
  <g
     style="fill:#a00000;fill-opacity:1;stroke:#a00000;stroke-width:0.29010743;stroke-linecap:round;stroke-linejoin:round;stroke-opacity:1"
     transform="matrix(3.4476622,0,0,3.4463359,-19681.806,-7193.0662)"
     id="g1222"
     inkscape:export-filename="/home/juan/desarrollo/curso-pic/pic16-dibujos/freeleds.png"
     inkscape:export-xdpi="90"
     inkscape:export-ydpi="90">
    <polygon
       style="fill-rule:evenodd;stroke-width:0.29010743"
       points="7600,2300 7700,2350 7600,2400 7600,2300 "
       id="polygon1224" />
  </g>
  <g
     style="fill:#a00000;fill-opacity:0;stroke:#a00000;stroke-width:3.56241417;stroke-linecap:round;stroke-linejoin:round;stroke-miterlimit:4;stroke-dasharray:none;stroke-opacity:1"
     transform="matrix(3.4476622,0,0,3.4463359,-19681.806,-7193.0662)"
     id="g1226"
     inkscape:export-filename="/home/juan/desarrollo/curso-pic/pic16-dibujos/freeleds.png"
     inkscape:export-xdpi="90"
     inkscape:export-ydpi="90">
    <path
       d="M 7700,2300 L 7700,2400"
       id="path1228"
       style="stroke-width:3.56241417;stroke-miterlimit:4;stroke-dasharray:none" />
  </g>
  <g
     style="fill:#a00000;fill-opacity:0;stroke:#a00000;stroke-width:3.56241417;stroke-linecap:round;stroke-linejoin:round;stroke-miterlimit:4;stroke-dasharray:none;stroke-opacity:1"
     transform="matrix(3.4476622,0,0,3.4463359,-19681.806,-7193.0662)"
     id="g1230"
     inkscape:export-filename="/home/juan/desarrollo/curso-pic/pic16-dibujos/freeleds.png"
     inkscape:export-xdpi="90"
     inkscape:export-ydpi="90">
    <path
       d="M 7730,2375 L 7775,2415"
       id="path1232"
       style="stroke-width:3.56241417;stroke-miterlimit:4;stroke-dasharray:none" />
    <path
       d="M 7775,2415 L 7770,2390"
       id="path1234"
       style="stroke-width:3.56241417;stroke-miterlimit:4;stroke-dasharray:none" />
  </g>
  <g
     style="fill:#a00000;fill-opacity:0;stroke:#a00000;stroke-width:3.56241417;stroke-linecap:round;stroke-linejoin:round;stroke-miterlimit:4;stroke-dasharray:none;stroke-opacity:1"
     transform="matrix(3.4476622,0,0,3.4463359,-19681.806,-7193.0662)"
     id="g1236"
     inkscape:export-filename="/home/juan/desarrollo/curso-pic/pic16-dibujos/freeleds.png"
     inkscape:export-xdpi="90"
     inkscape:export-ydpi="90">
    <path
       d="M 7715,2390 L 7760,2430"
       id="path1238"
       style="stroke-width:3.56241417;stroke-miterlimit:4;stroke-dasharray:none" />
    <path
       d="M 7760,2430 L 7755,2405"
       id="path1240"
       style="stroke-width:3.56241417;stroke-miterlimit:4;stroke-dasharray:none" />
    <path
       d="M 7700,2350 L 7850,2350"
       id="path1242"
       style="stroke-width:3.56241417;stroke-miterlimit:4;stroke-dasharray:none" />
    <path
       d="M 7450,2350 L 7600,2350"
       id="path1244"
       style="stroke-width:3.56241417;stroke-miterlimit:4;stroke-dasharray:none" />
  </g>
  <g
     style="fill:#a00000;fill-opacity:0;stroke:#a00000;stroke-width:3.56241417;stroke-linecap:round;stroke-linejoin:round;stroke-miterlimit:4;stroke-dasharray:none;stroke-opacity:1"
     transform="matrix(3.4476622,0,0,3.4463359,-19681.806,-7193.0662)"
     id="g1284"
     inkscape:export-filename="/home/juan/desarrollo/curso-pic/pic16-dibujos/freeleds.png"
     inkscape:export-xdpi="90"
     inkscape:export-ydpi="90">
    <path
       d="M 7250,3850 L 7230,3810"
       id="path1286"
       style="stroke-width:3.56241417;stroke-miterlimit:4;stroke-dasharray:none" />
    <path
       d="M 7230,3810 L 7210,3890"
       id="path1288"
       style="stroke-width:3.56241417;stroke-miterlimit:4;stroke-dasharray:none" />
    <path
       d="M 7210,3890 L 7190,3810"
       id="path1290"
       style="stroke-width:3.56241417;stroke-miterlimit:4;stroke-dasharray:none" />
    <path
       d="M 7190,3810 L 7170,3890"
       id="path1292"
       style="stroke-width:3.56241417;stroke-miterlimit:4;stroke-dasharray:none" />
    <path
       d="M 7170,3890 L 7150,3810"
       id="path1294"
       style="stroke-width:3.56241417;stroke-miterlimit:4;stroke-dasharray:none" />
    <path
       d="M 7150,3810 L 7130,3890"
       id="path1296"
       style="stroke-width:3.56241417;stroke-miterlimit:4;stroke-dasharray:none" />
    <path
       d="M 7130,3890 L 7110,3810"
       id="path1298"
       style="stroke-width:3.56241417;stroke-miterlimit:4;stroke-dasharray:none" />
    <path
       d="M 7110,3810 L 7090,3890"
       id="path1300"
       style="stroke-width:3.56241417;stroke-miterlimit:4;stroke-dasharray:none" />
    <path
       d="M 7090,3890 L 7070,3810"
       id="path1302"
       style="stroke-width:3.56241417;stroke-miterlimit:4;stroke-dasharray:none" />
    <path
       d="M 7070,3810 L 7050,3890"
       id="path1304"
       style="stroke-width:3.56241417;stroke-miterlimit:4;stroke-dasharray:none" />
    <path
       d="M 7050,3890 L 7030,3810"
       id="path1306"
       style="stroke-width:3.56241417;stroke-miterlimit:4;stroke-dasharray:none" />
    <path
       d="M 7030,3810 L 7010,3890"
       id="path1308"
       style="stroke-width:3.56241417;stroke-miterlimit:4;stroke-dasharray:none" />
    <path
       d="M 7010,3890 L 6990,3810"
       id="path1310"
       style="stroke-width:3.56241417;stroke-miterlimit:4;stroke-dasharray:none" />
    <path
       d="M 6990,3810 L 6970,3890"
       id="path1312"
       style="stroke-width:3.56241417;stroke-miterlimit:4;stroke-dasharray:none" />
    <path
       d="M 6970,3890 L 6950,3850"
       id="path1314"
       style="stroke-width:3.56241417;stroke-miterlimit:4;stroke-dasharray:none" />
    <path
       d="M 6950,3850 L 6950,3850"
       id="path1316"
       style="stroke-width:3.56241417;stroke-miterlimit:4;stroke-dasharray:none" />
    <path
       d="M 6850,3850 L 6950,3850"
       id="path1318"
       style="stroke-width:3.56241417;stroke-miterlimit:4;stroke-dasharray:none" />
    <path
       d="M 7250,3850 L 7350,3850"
       id="path1320"
       style="stroke-width:3.56241417;stroke-miterlimit:4;stroke-dasharray:none" />
  </g>
  <g
     style="fill:#a00000;fill-opacity:0;stroke:#a00000;stroke-width:3.56241417;stroke-linecap:round;stroke-linejoin:round;stroke-miterlimit:4;stroke-dasharray:none;stroke-opacity:1"
     transform="matrix(3.4476622,0,0,3.4463359,-19681.806,-7193.0662)"
     id="g1408"
     inkscape:export-filename="/home/juan/desarrollo/curso-pic/pic16-dibujos/freeleds.png"
     inkscape:export-xdpi="90"
     inkscape:export-ydpi="90">
    <path
       d="M 7250,3600 L 7230,3560"
       id="path1410"
       style="stroke-width:3.56241417;stroke-miterlimit:4;stroke-dasharray:none" />
    <path
       d="M 7230,3560 L 7210,3640"
       id="path1412"
       style="stroke-width:3.56241417;stroke-miterlimit:4;stroke-dasharray:none" />
    <path
       d="M 7210,3640 L 7190,3560"
       id="path1414"
       style="stroke-width:3.56241417;stroke-miterlimit:4;stroke-dasharray:none" />
    <path
       d="M 7190,3560 L 7170,3640"
       id="path1416"
       style="stroke-width:3.56241417;stroke-miterlimit:4;stroke-dasharray:none" />
    <path
       d="M 7170,3640 L 7150,3560"
       id="path1418"
       style="stroke-width:3.56241417;stroke-miterlimit:4;stroke-dasharray:none" />
    <path
       d="M 7150,3560 L 7130,3640"
       id="path1420"
       style="stroke-width:3.56241417;stroke-miterlimit:4;stroke-dasharray:none" />
    <path
       d="M 7130,3640 L 7110,3560"
       id="path1422"
       style="stroke-width:3.56241417;stroke-miterlimit:4;stroke-dasharray:none" />
    <path
       d="M 7110,3560 L 7090,3640"
       id="path1424"
       style="stroke-width:3.56241417;stroke-miterlimit:4;stroke-dasharray:none" />
    <path
       d="M 7090,3640 L 7070,3560"
       id="path1426"
       style="stroke-width:3.56241417;stroke-miterlimit:4;stroke-dasharray:none" />
    <path
       d="M 7070,3560 L 7050,3640"
       id="path1428"
       style="stroke-width:3.56241417;stroke-miterlimit:4;stroke-dasharray:none" />
    <path
       d="M 7050,3640 L 7030,3560"
       id="path1430"
       style="stroke-width:3.56241417;stroke-miterlimit:4;stroke-dasharray:none" />
    <path
       d="M 7030,3560 L 7010,3640"
       id="path1432"
       style="stroke-width:3.56241417;stroke-miterlimit:4;stroke-dasharray:none" />
    <path
       d="M 7010,3640 L 6990,3560"
       id="path1434"
       style="stroke-width:3.56241417;stroke-miterlimit:4;stroke-dasharray:none" />
    <path
       d="M 6990,3560 L 6970,3640"
       id="path1436"
       style="stroke-width:3.56241417;stroke-miterlimit:4;stroke-dasharray:none" />
    <path
       d="M 6970,3640 L 6950,3600"
       id="path1438"
       style="stroke-width:3.56241417;stroke-miterlimit:4;stroke-dasharray:none" />
    <path
       d="M 6950,3600 L 6950,3600"
       id="path1440"
       style="stroke-width:3.56241417;stroke-miterlimit:4;stroke-dasharray:none" />
    <path
       d="M 6850,3600 L 6950,3600"
       id="path1442"
       style="stroke-width:3.56241417;stroke-miterlimit:4;stroke-dasharray:none" />
    <path
       d="M 7250,3600 L 7350,3600"
       id="path1444"
       style="stroke-width:3.56241417;stroke-miterlimit:4;stroke-dasharray:none" />
  </g>
  <g
     style="fill:#a00000;fill-opacity:0;stroke:#a00000;stroke-width:3.56241417;stroke-linecap:round;stroke-linejoin:round;stroke-miterlimit:4;stroke-dasharray:none;stroke-opacity:1"
     transform="matrix(3.4476622,0,0,3.4463359,-19681.806,-7193.0662)"
     id="g1550"
     inkscape:export-filename="/home/juan/desarrollo/curso-pic/pic16-dibujos/freeleds.png"
     inkscape:export-xdpi="90"
     inkscape:export-ydpi="90">
    <path
       d="M 7250,3350 L 7230,3310"
       id="path1552"
       style="stroke-width:3.56241417;stroke-miterlimit:4;stroke-dasharray:none" />
    <path
       d="M 7230,3310 L 7210,3390"
       id="path1554"
       style="stroke-width:3.56241417;stroke-miterlimit:4;stroke-dasharray:none" />
    <path
       d="M 7210,3390 L 7190,3310"
       id="path1556"
       style="stroke-width:3.56241417;stroke-miterlimit:4;stroke-dasharray:none" />
    <path
       d="M 7190,3310 L 7170,3390"
       id="path1558"
       style="stroke-width:3.56241417;stroke-miterlimit:4;stroke-dasharray:none" />
    <path
       d="M 7170,3390 L 7150,3310"
       id="path1560"
       style="stroke-width:3.56241417;stroke-miterlimit:4;stroke-dasharray:none" />
    <path
       d="M 7150,3310 L 7130,3390"
       id="path1562"
       style="stroke-width:3.56241417;stroke-miterlimit:4;stroke-dasharray:none" />
    <path
       d="M 7130,3390 L 7110,3310"
       id="path1564"
       style="stroke-width:3.56241417;stroke-miterlimit:4;stroke-dasharray:none" />
    <path
       d="M 7110,3310 L 7090,3390"
       id="path1566"
       style="stroke-width:3.56241417;stroke-miterlimit:4;stroke-dasharray:none" />
    <path
       d="M 7090,3390 L 7070,3310"
       id="path1568"
       style="stroke-width:3.56241417;stroke-miterlimit:4;stroke-dasharray:none" />
    <path
       d="M 7070,3310 L 7050,3390"
       id="path1570"
       style="stroke-width:3.56241417;stroke-miterlimit:4;stroke-dasharray:none" />
    <path
       d="M 7050,3390 L 7030,3310"
       id="path1572"
       style="stroke-width:3.56241417;stroke-miterlimit:4;stroke-dasharray:none" />
    <path
       d="M 7030,3310 L 7010,3390"
       id="path1574"
       style="stroke-width:3.56241417;stroke-miterlimit:4;stroke-dasharray:none" />
    <path
       d="M 7010,3390 L 6990,3310"
       id="path1576"
       style="stroke-width:3.56241417;stroke-miterlimit:4;stroke-dasharray:none" />
    <path
       d="M 6990,3310 L 6970,3390"
       id="path1578"
       style="stroke-width:3.56241417;stroke-miterlimit:4;stroke-dasharray:none" />
    <path
       d="M 6970,3390 L 6950,3350"
       id="path1580"
       style="stroke-width:3.56241417;stroke-miterlimit:4;stroke-dasharray:none" />
    <path
       d="M 6950,3350 L 6950,3350"
       id="path1582"
       style="stroke-width:3.56241417;stroke-miterlimit:4;stroke-dasharray:none" />
    <path
       d="M 6850,3350 L 6950,3350"
       id="path1584"
       style="stroke-width:3.56241417;stroke-miterlimit:4;stroke-dasharray:none" />
    <path
       d="M 7250,3350 L 7350,3350"
       id="path1586"
       style="stroke-width:3.56241417;stroke-miterlimit:4;stroke-dasharray:none" />
  </g>
  <g
     style="fill:#a00000;fill-opacity:0;stroke:#a00000;stroke-width:3.56241417;stroke-linecap:round;stroke-linejoin:round;stroke-miterlimit:4;stroke-dasharray:none;stroke-opacity:1"
     transform="matrix(3.4476622,0,0,3.4463359,-19681.806,-7193.0662)"
     id="g1688"
     inkscape:export-filename="/home/juan/desarrollo/curso-pic/pic16-dibujos/freeleds.png"
     inkscape:export-xdpi="90"
     inkscape:export-ydpi="90">
    <path
       d="M 7250,3100 L 7230,3060"
       id="path1690"
       style="stroke-width:3.56241417;stroke-miterlimit:4;stroke-dasharray:none" />
    <path
       d="M 7230,3060 L 7210,3140"
       id="path1692"
       style="stroke-width:3.56241417;stroke-miterlimit:4;stroke-dasharray:none" />
    <path
       d="M 7210,3140 L 7190,3060"
       id="path1694"
       style="stroke-width:3.56241417;stroke-miterlimit:4;stroke-dasharray:none" />
    <path
       d="M 7190,3060 L 7170,3140"
       id="path1696"
       style="stroke-width:3.56241417;stroke-miterlimit:4;stroke-dasharray:none" />
    <path
       d="M 7170,3140 L 7150,3060"
       id="path1698"
       style="stroke-width:3.56241417;stroke-miterlimit:4;stroke-dasharray:none" />
    <path
       d="M 7150,3060 L 7130,3140"
       id="path1700"
       style="stroke-width:3.56241417;stroke-miterlimit:4;stroke-dasharray:none" />
    <path
       d="M 7130,3140 L 7110,3060"
       id="path1702"
       style="stroke-width:3.56241417;stroke-miterlimit:4;stroke-dasharray:none" />
    <path
       d="M 7110,3060 L 7090,3140"
       id="path1704"
       style="stroke-width:3.56241417;stroke-miterlimit:4;stroke-dasharray:none" />
    <path
       d="M 7090,3140 L 7070,3060"
       id="path1706"
       style="stroke-width:3.56241417;stroke-miterlimit:4;stroke-dasharray:none" />
    <path
       d="M 7070,3060 L 7050,3140"
       id="path1708"
       style="stroke-width:3.56241417;stroke-miterlimit:4;stroke-dasharray:none" />
    <path
       d="M 7050,3140 L 7030,3060"
       id="path1710"
       style="stroke-width:3.56241417;stroke-miterlimit:4;stroke-dasharray:none" />
    <path
       d="M 7030,3060 L 7010,3140"
       id="path1712"
       style="stroke-width:3.56241417;stroke-miterlimit:4;stroke-dasharray:none" />
    <path
       d="M 7010,3140 L 6990,3060"
       id="path1714"
       style="stroke-width:3.56241417;stroke-miterlimit:4;stroke-dasharray:none" />
    <path
       d="M 6990,3060 L 6970,3140"
       id="path1716"
       style="stroke-width:3.56241417;stroke-miterlimit:4;stroke-dasharray:none" />
    <path
       d="M 6970,3140 L 6950,3100"
       id="path1718"
       style="stroke-width:3.56241417;stroke-miterlimit:4;stroke-dasharray:none" />
    <path
       d="M 6950,3100 L 6950,3100"
       id="path1720"
       style="stroke-width:3.56241417;stroke-miterlimit:4;stroke-dasharray:none" />
    <path
       d="M 6850,3100 L 6950,3100"
       id="path1722"
       style="stroke-width:3.56241417;stroke-miterlimit:4;stroke-dasharray:none" />
    <path
       d="M 7250,3100 L 7350,3100"
       id="path1724"
       style="stroke-width:3.56241417;stroke-miterlimit:4;stroke-dasharray:none" />
  </g>
  <g
     style="fill:#a00000;fill-opacity:0;stroke:#a00000;stroke-width:3.56241417;stroke-linecap:round;stroke-linejoin:round;stroke-miterlimit:4;stroke-dasharray:none;stroke-opacity:1"
     transform="matrix(3.4476622,0,0,3.4463359,-19681.806,-7193.0662)"
     id="g1814"
     inkscape:export-filename="/home/juan/desarrollo/curso-pic/pic16-dibujos/freeleds.png"
     inkscape:export-xdpi="90"
     inkscape:export-ydpi="90">
    <path
       d="M 7250,4100 L 7230,4060"
       id="path1816"
       style="stroke-width:3.56241417;stroke-miterlimit:4;stroke-dasharray:none" />
    <path
       d="M 7230,4060 L 7210,4140"
       id="path1818"
       style="stroke-width:3.56241417;stroke-miterlimit:4;stroke-dasharray:none" />
    <path
       d="M 7210,4140 L 7190,4060"
       id="path1820"
       style="stroke-width:3.56241417;stroke-miterlimit:4;stroke-dasharray:none" />
    <path
       d="M 7190,4060 L 7170,4140"
       id="path1822"
       style="stroke-width:3.56241417;stroke-miterlimit:4;stroke-dasharray:none" />
    <path
       d="M 7170,4140 L 7150,4060"
       id="path1824"
       style="stroke-width:3.56241417;stroke-miterlimit:4;stroke-dasharray:none" />
    <path
       d="M 7150,4060 L 7130,4140"
       id="path1826"
       style="stroke-width:3.56241417;stroke-miterlimit:4;stroke-dasharray:none" />
    <path
       d="M 7130,4140 L 7110,4060"
       id="path1828"
       style="stroke-width:3.56241417;stroke-miterlimit:4;stroke-dasharray:none" />
    <path
       d="M 7110,4060 L 7090,4140"
       id="path1830"
       style="stroke-width:3.56241417;stroke-miterlimit:4;stroke-dasharray:none" />
    <path
       d="M 7090,4140 L 7070,4060"
       id="path1832"
       style="stroke-width:3.56241417;stroke-miterlimit:4;stroke-dasharray:none" />
    <path
       d="M 7070,4060 L 7050,4140"
       id="path1834"
       style="stroke-width:3.56241417;stroke-miterlimit:4;stroke-dasharray:none" />
    <path
       d="M 7050,4140 L 7030,4060"
       id="path1836"
       style="stroke-width:3.56241417;stroke-miterlimit:4;stroke-dasharray:none" />
    <path
       d="M 7030,4060 L 7010,4140"
       id="path1838"
       style="stroke-width:3.56241417;stroke-miterlimit:4;stroke-dasharray:none" />
    <path
       d="M 7010,4140 L 6990,4060"
       id="path1840"
       style="stroke-width:3.56241417;stroke-miterlimit:4;stroke-dasharray:none" />
    <path
       d="M 6990,4060 L 6970,4140"
       id="path1842"
       style="stroke-width:3.56241417;stroke-miterlimit:4;stroke-dasharray:none" />
    <path
       d="M 6970,4140 L 6950,4100"
       id="path1844"
       style="stroke-width:3.56241417;stroke-miterlimit:4;stroke-dasharray:none" />
    <path
       d="M 6950,4100 L 6950,4100"
       id="path1846"
       style="stroke-width:3.56241417;stroke-miterlimit:4;stroke-dasharray:none" />
    <path
       d="M 6850,4100 L 6950,4100"
       id="path1848"
       style="stroke-width:3.56241417;stroke-miterlimit:4;stroke-dasharray:none" />
    <path
       d="M 7250,4100 L 7350,4100"
       id="path1850"
       style="stroke-width:3.56241417;stroke-miterlimit:4;stroke-dasharray:none" />
  </g>
  <g
     style="fill:#a00000;fill-opacity:0;stroke:#a00000;stroke-width:3.56241417;stroke-linecap:round;stroke-linejoin:round;stroke-miterlimit:4;stroke-dasharray:none;stroke-opacity:1"
     transform="matrix(3.4476622,0,0,3.4463359,-19681.806,-7193.0662)"
     id="g1966"
     inkscape:export-filename="/home/juan/desarrollo/curso-pic/pic16-dibujos/freeleds.png"
     inkscape:export-xdpi="90"
     inkscape:export-ydpi="90">
    <path
       d="M 7250,2850 L 7230,2810"
       id="path1968"
       style="stroke-width:3.56241417;stroke-miterlimit:4;stroke-dasharray:none" />
    <path
       d="M 7230,2810 L 7210,2890"
       id="path1970"
       style="stroke-width:3.56241417;stroke-miterlimit:4;stroke-dasharray:none" />
    <path
       d="M 7210,2890 L 7190,2810"
       id="path1972"
       style="stroke-width:3.56241417;stroke-miterlimit:4;stroke-dasharray:none" />
    <path
       d="M 7190,2810 L 7170,2890"
       id="path1974"
       style="stroke-width:3.56241417;stroke-miterlimit:4;stroke-dasharray:none" />
    <path
       d="M 7170,2890 L 7150,2810"
       id="path1976"
       style="stroke-width:3.56241417;stroke-miterlimit:4;stroke-dasharray:none" />
    <path
       d="M 7150,2810 L 7130,2890"
       id="path1978"
       style="stroke-width:3.56241417;stroke-miterlimit:4;stroke-dasharray:none" />
    <path
       d="M 7130,2890 L 7110,2810"
       id="path1980"
       style="stroke-width:3.56241417;stroke-miterlimit:4;stroke-dasharray:none" />
    <path
       d="M 7110,2810 L 7090,2890"
       id="path1982"
       style="stroke-width:3.56241417;stroke-miterlimit:4;stroke-dasharray:none" />
    <path
       d="M 7090,2890 L 7070,2810"
       id="path1984"
       style="stroke-width:3.56241417;stroke-miterlimit:4;stroke-dasharray:none" />
    <path
       d="M 7070,2810 L 7050,2890"
       id="path1986"
       style="stroke-width:3.56241417;stroke-miterlimit:4;stroke-dasharray:none" />
    <path
       d="M 7050,2890 L 7030,2810"
       id="path1988"
       style="stroke-width:3.56241417;stroke-miterlimit:4;stroke-dasharray:none" />
    <path
       d="M 7030,2810 L 7010,2890"
       id="path1990"
       style="stroke-width:3.56241417;stroke-miterlimit:4;stroke-dasharray:none" />
    <path
       d="M 7010,2890 L 6990,2810"
       id="path1992"
       style="stroke-width:3.56241417;stroke-miterlimit:4;stroke-dasharray:none" />
    <path
       d="M 6990,2810 L 6970,2890"
       id="path1994"
       style="stroke-width:3.56241417;stroke-miterlimit:4;stroke-dasharray:none" />
    <path
       d="M 6970,2890 L 6950,2850"
       id="path1996"
       style="stroke-width:3.56241417;stroke-miterlimit:4;stroke-dasharray:none" />
    <path
       d="M 6950,2850 L 6950,2850"
       id="path1998"
       style="stroke-width:3.56241417;stroke-miterlimit:4;stroke-dasharray:none" />
    <path
       d="M 6850,2850 L 6950,2850"
       id="path2000"
       style="stroke-width:3.56241417;stroke-miterlimit:4;stroke-dasharray:none" />
    <path
       d="M 7250,2850 L 7350,2850"
       id="path2002"
       style="stroke-width:3.56241417;stroke-miterlimit:4;stroke-dasharray:none" />
  </g>
  <g
     style="fill:#a00000;fill-opacity:0;stroke:#a00000;stroke-width:3.56241417;stroke-linecap:round;stroke-linejoin:round;stroke-miterlimit:4;stroke-dasharray:none;stroke-opacity:1"
     transform="matrix(3.4476622,0,0,3.4463359,-19681.806,-7193.0662)"
     id="g2104"
     inkscape:export-filename="/home/juan/desarrollo/curso-pic/pic16-dibujos/freeleds.png"
     inkscape:export-xdpi="90"
     inkscape:export-ydpi="90">
    <path
       d="M 7250,2600 L 7230,2560"
       id="path2106"
       style="stroke-width:3.56241417;stroke-miterlimit:4;stroke-dasharray:none" />
    <path
       d="M 7230,2560 L 7210,2640"
       id="path2108"
       style="stroke-width:3.56241417;stroke-miterlimit:4;stroke-dasharray:none" />
    <path
       d="M 7210,2640 L 7190,2560"
       id="path2110"
       style="stroke-width:3.56241417;stroke-miterlimit:4;stroke-dasharray:none" />
    <path
       d="M 7190,2560 L 7170,2640"
       id="path2112"
       style="stroke-width:3.56241417;stroke-miterlimit:4;stroke-dasharray:none" />
    <path
       d="M 7170,2640 L 7150,2560"
       id="path2114"
       style="stroke-width:3.56241417;stroke-miterlimit:4;stroke-dasharray:none" />
    <path
       d="M 7150,2560 L 7130,2640"
       id="path2116"
       style="stroke-width:3.56241417;stroke-miterlimit:4;stroke-dasharray:none" />
    <path
       d="M 7130,2640 L 7110,2560"
       id="path2118"
       style="stroke-width:3.56241417;stroke-miterlimit:4;stroke-dasharray:none" />
    <path
       d="M 7110,2560 L 7090,2640"
       id="path2120"
       style="stroke-width:3.56241417;stroke-miterlimit:4;stroke-dasharray:none" />
    <path
       d="M 7090,2640 L 7070,2560"
       id="path2122"
       style="stroke-width:3.56241417;stroke-miterlimit:4;stroke-dasharray:none" />
    <path
       d="M 7070,2560 L 7050,2640"
       id="path2124"
       style="stroke-width:3.56241417;stroke-miterlimit:4;stroke-dasharray:none" />
    <path
       d="M 7050,2640 L 7030,2560"
       id="path2126"
       style="stroke-width:3.56241417;stroke-miterlimit:4;stroke-dasharray:none" />
    <path
       d="M 7030,2560 L 7010,2640"
       id="path2128"
       style="stroke-width:3.56241417;stroke-miterlimit:4;stroke-dasharray:none" />
    <path
       d="M 7010,2640 L 6990,2560"
       id="path2130"
       style="stroke-width:3.56241417;stroke-miterlimit:4;stroke-dasharray:none" />
    <path
       d="M 6990,2560 L 6970,2640"
       id="path2132"
       style="stroke-width:3.56241417;stroke-miterlimit:4;stroke-dasharray:none" />
    <path
       d="M 6970,2640 L 6950,2600"
       id="path2134"
       style="stroke-width:3.56241417;stroke-miterlimit:4;stroke-dasharray:none" />
    <path
       d="M 6950,2600 L 6950,2600"
       id="path2136"
       style="stroke-width:3.56241417;stroke-miterlimit:4;stroke-dasharray:none" />
    <path
       d="M 6850,2600 L 6950,2600"
       id="path2138"
       style="stroke-width:3.56241417;stroke-miterlimit:4;stroke-dasharray:none" />
    <path
       d="M 7250,2600 L 7350,2600"
       id="path2140"
       style="stroke-width:3.56241417;stroke-miterlimit:4;stroke-dasharray:none" />
  </g>
  <g
     style="fill:#a00000;fill-opacity:0;stroke:#a00000;stroke-width:3.56241417;stroke-linecap:round;stroke-linejoin:round;stroke-miterlimit:4;stroke-dasharray:none;stroke-opacity:1"
     transform="matrix(3.4476622,0,0,3.4463359,-19681.806,-7193.0662)"
     id="g2242"
     inkscape:export-filename="/home/juan/desarrollo/curso-pic/pic16-dibujos/freeleds.png"
     inkscape:export-xdpi="90"
     inkscape:export-ydpi="90">
    <path
       d="M 7250,2350 L 7230,2310"
       id="path2244"
       style="stroke-width:3.56241417;stroke-miterlimit:4;stroke-dasharray:none" />
    <path
       d="M 7230,2310 L 7210,2390"
       id="path2246"
       style="stroke-width:3.56241417;stroke-miterlimit:4;stroke-dasharray:none" />
    <path
       d="M 7210,2390 L 7190,2310"
       id="path2248"
       style="stroke-width:3.56241417;stroke-miterlimit:4;stroke-dasharray:none" />
    <path
       d="M 7190,2310 L 7170,2390"
       id="path2250"
       style="stroke-width:3.56241417;stroke-miterlimit:4;stroke-dasharray:none" />
    <path
       d="M 7170,2390 L 7150,2310"
       id="path2252"
       style="stroke-width:3.56241417;stroke-miterlimit:4;stroke-dasharray:none" />
    <path
       d="M 7150,2310 L 7130,2390"
       id="path2254"
       style="stroke-width:3.56241417;stroke-miterlimit:4;stroke-dasharray:none" />
    <path
       d="M 7130,2390 L 7110,2310"
       id="path2256"
       style="stroke-width:3.56241417;stroke-miterlimit:4;stroke-dasharray:none" />
    <path
       d="M 7110,2310 L 7090,2390"
       id="path2258"
       style="stroke-width:3.56241417;stroke-miterlimit:4;stroke-dasharray:none" />
    <path
       d="M 7090,2390 L 7070,2310"
       id="path2260"
       style="stroke-width:3.56241417;stroke-miterlimit:4;stroke-dasharray:none" />
    <path
       d="M 7070,2310 L 7050,2390"
       id="path2262"
       style="stroke-width:3.56241417;stroke-miterlimit:4;stroke-dasharray:none" />
    <path
       d="M 7050,2390 L 7030,2310"
       id="path2264"
       style="stroke-width:3.56241417;stroke-miterlimit:4;stroke-dasharray:none" />
    <path
       d="M 7030,2310 L 7010,2390"
       id="path2266"
       style="stroke-width:3.56241417;stroke-miterlimit:4;stroke-dasharray:none" />
    <path
       d="M 7010,2390 L 6990,2310"
       id="path2268"
       style="stroke-width:3.56241417;stroke-miterlimit:4;stroke-dasharray:none" />
    <path
       d="M 6990,2310 L 6970,2390"
       id="path2270"
       style="stroke-width:3.56241417;stroke-miterlimit:4;stroke-dasharray:none" />
    <path
       d="M 6970,2390 L 6950,2350"
       id="path2272"
       style="stroke-width:3.56241417;stroke-miterlimit:4;stroke-dasharray:none" />
    <path
       d="M 6950,2350 L 6950,2350"
       id="path2274"
       style="stroke-width:3.56241417;stroke-miterlimit:4;stroke-dasharray:none" />
    <path
       d="M 6850,2350 L 6950,2350"
       id="path2276"
       style="stroke-width:3.56241417;stroke-miterlimit:4;stroke-dasharray:none" />
    <path
       d="M 7250,2350 L 7350,2350"
       id="path2278"
       style="stroke-width:3.56241417;stroke-miterlimit:4;stroke-dasharray:none" />
  </g>
  <g
     style="fill:#00a000;fill-opacity:1;stroke:#00a000;stroke-width:3.56241417;stroke-linecap:round;stroke-linejoin:round;stroke-miterlimit:4;stroke-dasharray:none;stroke-opacity:1"
     transform="matrix(3.4476622,0,0,3.4463359,-19681.806,-7193.0662)"
     id="g3882"
     inkscape:export-filename="/home/juan/desarrollo/curso-pic/pic16-dibujos/freeleds.png"
     inkscape:export-xdpi="90"
     inkscape:export-ydpi="90">
    <rect
       x="7984"
       y="2584"
       width="32"
       height="32"
       rx="0"
       id="rect3884"
       style="stroke-width:3.56241417;stroke-miterlimit:4;stroke-dasharray:none" />
  </g>
  <g
     style="fill:#00a000;fill-opacity:1;stroke:#00a000;stroke-width:3.56241417;stroke-linecap:round;stroke-linejoin:round;stroke-miterlimit:4;stroke-dasharray:none;stroke-opacity:1"
     transform="matrix(3.4476622,0,0,3.4463359,-19681.806,-7193.0662)"
     id="g3886"
     inkscape:export-filename="/home/juan/desarrollo/curso-pic/pic16-dibujos/freeleds.png"
     inkscape:export-xdpi="90"
     inkscape:export-ydpi="90">
    <rect
       x="7984"
       y="2834"
       width="32"
       height="32"
       rx="0"
       id="rect3888"
       style="stroke-width:3.56241417;stroke-miterlimit:4;stroke-dasharray:none" />
  </g>
  <g
     style="fill:#00a000;fill-opacity:1;stroke:#00a000;stroke-width:3.56241417;stroke-linecap:round;stroke-linejoin:round;stroke-miterlimit:4;stroke-dasharray:none;stroke-opacity:1"
     transform="matrix(3.4476622,0,0,3.4463359,-19681.806,-7193.0662)"
     id="g3890"
     inkscape:export-filename="/home/juan/desarrollo/curso-pic/pic16-dibujos/freeleds.png"
     inkscape:export-xdpi="90"
     inkscape:export-ydpi="90">
    <rect
       x="7984"
       y="3084"
       width="32"
       height="32"
       rx="0"
       id="rect3892"
       style="stroke-width:3.56241417;stroke-miterlimit:4;stroke-dasharray:none" />
  </g>
  <g
     style="fill:#00a000;fill-opacity:1;stroke:#00a000;stroke-width:3.56241417;stroke-linecap:round;stroke-linejoin:round;stroke-miterlimit:4;stroke-dasharray:none;stroke-opacity:1"
     transform="matrix(3.4476622,0,0,3.4463359,-19681.806,-7193.0662)"
     id="g3894"
     inkscape:export-filename="/home/juan/desarrollo/curso-pic/pic16-dibujos/freeleds.png"
     inkscape:export-xdpi="90"
     inkscape:export-ydpi="90">
    <rect
       x="7984"
       y="3334"
       width="32"
       height="32"
       rx="0"
       id="rect3896"
       style="stroke-width:3.56241417;stroke-miterlimit:4;stroke-dasharray:none" />
  </g>
  <g
     style="fill:#00a000;fill-opacity:1;stroke:#00a000;stroke-width:3.56241417;stroke-linecap:round;stroke-linejoin:round;stroke-miterlimit:4;stroke-dasharray:none;stroke-opacity:1"
     transform="matrix(3.4476622,0,0,3.4463359,-19681.806,-7193.0662)"
     id="g3898"
     inkscape:export-filename="/home/juan/desarrollo/curso-pic/pic16-dibujos/freeleds.png"
     inkscape:export-xdpi="90"
     inkscape:export-ydpi="90">
    <rect
       x="7984"
       y="3584"
       width="32"
       height="32"
       rx="0"
       id="rect3900"
       style="stroke-width:3.56241417;stroke-miterlimit:4;stroke-dasharray:none" />
  </g>
  <g
     style="fill:#00a000;fill-opacity:1;stroke:#00a000;stroke-width:3.56241417;stroke-linecap:round;stroke-linejoin:round;stroke-miterlimit:4;stroke-dasharray:none;stroke-opacity:1"
     transform="matrix(3.4476622,0,0,3.4463359,-19681.806,-7193.0662)"
     id="g3902"
     inkscape:export-filename="/home/juan/desarrollo/curso-pic/pic16-dibujos/freeleds.png"
     inkscape:export-xdpi="90"
     inkscape:export-ydpi="90">
    <rect
       x="7984"
       y="3834"
       width="32"
       height="32"
       rx="0"
       id="rect3904"
       style="stroke-width:3.56241417;stroke-miterlimit:4;stroke-dasharray:none" />
  </g>
  <rect
     style="fill:#00a000;fill-opacity:1;stroke:#00a000;stroke-width:12.27963734;stroke-linecap:round;stroke-linejoin:round;stroke-miterlimit:4;stroke-dasharray:none;stroke-opacity:1"
     id="rect3908"
     rx="0"
     height="110.28275"
     width="110.32519"
     y="6881.7705"
     x="7844.3286"
     inkscape:export-filename="/home/juan/desarrollo/curso-pic/pic16-dibujos/freeleds.png"
     inkscape:export-xdpi="90"
     inkscape:export-ydpi="90" />
  <path
     style="fill:#00a000;fill-opacity:1;stroke:#00a000;stroke-width:12.27963734;stroke-linecap:round;stroke-linejoin:round;stroke-miterlimit:4;stroke-dasharray:none;stroke-opacity:1"
     id="path3910"
     d="M 7382.3423,6936.9111 L 7899.4917,6936.9111"
     inkscape:export-filename="/home/juan/desarrollo/curso-pic/pic16-dibujos/freeleds.png"
     inkscape:export-xdpi="90"
     inkscape:export-ydpi="90" />
  <path
     style="fill:#00a000;fill-opacity:1;stroke:#00a000;stroke-width:12.27963734;stroke-linecap:round;stroke-linejoin:round;stroke-miterlimit:4;stroke-dasharray:none;stroke-opacity:1"
     id="path3912"
     d="M 7382.3423,6075.3271 L 7899.4917,6075.3271"
     inkscape:export-filename="/home/juan/desarrollo/curso-pic/pic16-dibujos/freeleds.png"
     inkscape:export-xdpi="90"
     inkscape:export-ydpi="90" />
  <path
     style="fill:#00a000;fill-opacity:1;stroke:#00a000;stroke-width:12.27963734;stroke-linecap:round;stroke-linejoin:round;stroke-miterlimit:4;stroke-dasharray:none;stroke-opacity:1"
     id="path3914"
     d="M 7382.3423,5213.7431 L 7899.4917,5213.7431"
     inkscape:export-filename="/home/juan/desarrollo/curso-pic/pic16-dibujos/freeleds.png"
     inkscape:export-xdpi="90"
     inkscape:export-ydpi="90" />
  <path
     style="fill:#00a000;fill-opacity:1;stroke:#00a000;stroke-width:12.27963734;stroke-linecap:round;stroke-linejoin:round;stroke-miterlimit:4;stroke-dasharray:none;stroke-opacity:1"
     id="path3916"
     d="M 7382.3423,4352.1591 L 7899.4917,4352.1591"
     inkscape:export-filename="/home/juan/desarrollo/curso-pic/pic16-dibujos/freeleds.png"
     inkscape:export-xdpi="90"
     inkscape:export-ydpi="90" />
  <path
     style="fill:#00a000;fill-opacity:1;stroke:#00a000;stroke-width:12.27963734;stroke-linecap:round;stroke-linejoin:round;stroke-miterlimit:4;stroke-dasharray:none;stroke-opacity:1"
     id="path3918"
     d="M 7382.3423,3490.5752 L 7899.4917,3490.5752"
     inkscape:export-filename="/home/juan/desarrollo/curso-pic/pic16-dibujos/freeleds.png"
     inkscape:export-xdpi="90"
     inkscape:export-ydpi="90" />
  <path
     style="fill:#00a000;fill-opacity:1;stroke:#00a000;stroke-width:12.27963734;stroke-linecap:round;stroke-linejoin:round;stroke-miterlimit:4;stroke-dasharray:none;stroke-opacity:1"
     id="path3920"
     d="M 7382.3423,2628.9912 L 7899.4917,2628.9912"
     inkscape:export-filename="/home/juan/desarrollo/curso-pic/pic16-dibujos/freeleds.png"
     inkscape:export-xdpi="90"
     inkscape:export-ydpi="90" />
  <path
     style="fill:#00a000;fill-opacity:1;stroke:#00a000;stroke-width:12.27963734;stroke-linecap:round;stroke-linejoin:round;stroke-miterlimit:4;stroke-dasharray:none;stroke-opacity:1"
     id="path3922"
     d="M 7382.3423,1767.4072 L 7899.4917,1767.4072"
     inkscape:export-filename="/home/juan/desarrollo/curso-pic/pic16-dibujos/freeleds.png"
     inkscape:export-xdpi="90"
     inkscape:export-ydpi="90" />
  <path
     style="fill:#00a000;fill-opacity:1;stroke:#00a000;stroke-width:12.27963734;stroke-linecap:round;stroke-linejoin:round;stroke-miterlimit:4;stroke-dasharray:none;stroke-opacity:1"
     id="path3924"
     d="M 7899.4917,905.82341 L 7899.4917,7453.8614"
     inkscape:export-filename="/home/juan/desarrollo/curso-pic/pic16-dibujos/freeleds.png"
     inkscape:export-xdpi="90"
     inkscape:export-ydpi="90" />
  <path
     style="fill:#00a000;fill-opacity:1;stroke:#00a000;stroke-width:12.27963734;stroke-linecap:round;stroke-linejoin:round;stroke-miterlimit:4;stroke-dasharray:none;stroke-opacity:1"
     id="path3926"
     d="M 7382.3423,905.82341 L 7899.4917,905.82341"
     inkscape:export-filename="/home/juan/desarrollo/curso-pic/pic16-dibujos/freeleds.png"
     inkscape:export-xdpi="90"
     inkscape:export-ydpi="90" />
  <path
     style="fill:#00a000;fill-opacity:1;stroke:#00a000;stroke-width:12.27963734;stroke-linecap:round;stroke-linejoin:round;stroke-miterlimit:4;stroke-dasharray:none;stroke-opacity:1"
     id="path3928"
     d="M 5658.5112,6936.9111 L 6003.2774,6936.9111"
     inkscape:export-filename="/home/juan/desarrollo/curso-pic/pic16-dibujos/freeleds.png"
     inkscape:export-xdpi="90"
     inkscape:export-ydpi="90" />
  <path
     style="fill:#00a000;fill-opacity:1;stroke:#00a000;stroke-width:12.27963734;stroke-linecap:round;stroke-linejoin:round;stroke-miterlimit:4;stroke-dasharray:none;stroke-opacity:1"
     id="path3930"
     d="M 5658.5112,6075.3271 L 6003.2774,6075.3271"
     inkscape:export-filename="/home/juan/desarrollo/curso-pic/pic16-dibujos/freeleds.png"
     inkscape:export-xdpi="90"
     inkscape:export-ydpi="90" />
  <path
     style="fill:#00a000;fill-opacity:1;stroke:#00a000;stroke-width:12.27963734;stroke-linecap:round;stroke-linejoin:round;stroke-miterlimit:4;stroke-dasharray:none;stroke-opacity:1"
     id="path3932"
     d="M 5658.5112,5213.7431 L 6003.2774,5213.7431"
     inkscape:export-filename="/home/juan/desarrollo/curso-pic/pic16-dibujos/freeleds.png"
     inkscape:export-xdpi="90"
     inkscape:export-ydpi="90" />
  <path
     style="fill:#00a000;fill-opacity:1;stroke:#00a000;stroke-width:12.27963734;stroke-linecap:round;stroke-linejoin:round;stroke-miterlimit:4;stroke-dasharray:none;stroke-opacity:1"
     id="path3934"
     d="M 5658.5112,4352.1591 L 6003.2774,4352.1591"
     inkscape:export-filename="/home/juan/desarrollo/curso-pic/pic16-dibujos/freeleds.png"
     inkscape:export-xdpi="90"
     inkscape:export-ydpi="90" />
  <path
     style="fill:#00a000;fill-opacity:1;stroke:#00a000;stroke-width:12.27963734;stroke-linecap:round;stroke-linejoin:round;stroke-miterlimit:4;stroke-dasharray:none;stroke-opacity:1"
     id="path3936"
     d="M 5658.5112,3490.5752 L 6003.2774,3490.5752"
     inkscape:export-filename="/home/juan/desarrollo/curso-pic/pic16-dibujos/freeleds.png"
     inkscape:export-xdpi="90"
     inkscape:export-ydpi="90" />
  <path
     style="fill:#00a000;fill-opacity:1;stroke:#00a000;stroke-width:12.27963734;stroke-linecap:round;stroke-linejoin:round;stroke-miterlimit:4;stroke-dasharray:none;stroke-opacity:1"
     id="path3938"
     d="M 5658.5112,2628.9912 L 6003.2774,2628.9912"
     inkscape:export-filename="/home/juan/desarrollo/curso-pic/pic16-dibujos/freeleds.png"
     inkscape:export-xdpi="90"
     inkscape:export-ydpi="90" />
  <path
     style="fill:#00a000;fill-opacity:1;stroke:#00a000;stroke-width:12.27963734;stroke-linecap:round;stroke-linejoin:round;stroke-miterlimit:4;stroke-dasharray:none;stroke-opacity:1"
     id="path3940"
     d="M 5658.5112,1767.4072 L 6003.2774,1767.4072"
     inkscape:export-filename="/home/juan/desarrollo/curso-pic/pic16-dibujos/freeleds.png"
     inkscape:export-xdpi="90"
     inkscape:export-ydpi="90" />
  <path
     style="fill:#00a000;fill-opacity:1;stroke:#00a000;stroke-width:12.27963734;stroke-linecap:round;stroke-linejoin:round;stroke-miterlimit:4;stroke-dasharray:none;stroke-opacity:1"
     id="path3942"
     d="M 5658.5112,905.82341 L 6003.2774,905.82341"
     inkscape:export-filename="/home/juan/desarrollo/curso-pic/pic16-dibujos/freeleds.png"
     inkscape:export-xdpi="90"
     inkscape:export-ydpi="90" />
  <g
     style="fill:#a00000;fill-opacity:0;stroke:#a00000;stroke-width:3.56241417;stroke-linecap:round;stroke-linejoin:round;stroke-miterlimit:4;stroke-dasharray:none;stroke-opacity:1"
     transform="matrix(3.4476622,0,0,3.4463359,-19681.806,-7193.0662)"
     id="g3944"
     inkscape:export-filename="/home/juan/desarrollo/curso-pic/pic16-dibujos/freeleds.png"
     inkscape:export-xdpi="90"
     inkscape:export-ydpi="90">
    <path
       d="M 7960,4250 L 7950,4280"
       id="path3946"
       style="stroke-width:3.56241417;stroke-miterlimit:4;stroke-dasharray:none" />
    <path
       d="M 7950,4280 L 7950,4280"
       id="path3948"
       style="stroke-width:3.56241417;stroke-miterlimit:4;stroke-dasharray:none" />
  </g>
  <g
     style="fill:#a00000;fill-opacity:0;stroke:#a00000;stroke-width:3.56241417;stroke-linecap:round;stroke-linejoin:round;stroke-miterlimit:4;stroke-dasharray:none;stroke-opacity:1"
     transform="matrix(3.4476622,0,0,3.4463359,-19681.806,-7193.0662)"
     id="g3950"
     inkscape:export-filename="/home/juan/desarrollo/curso-pic/pic16-dibujos/freeleds.png"
     inkscape:export-xdpi="90"
     inkscape:export-ydpi="90">
    <path
       d="M 7980,4250 L 7970,4280"
       id="path3952"
       style="stroke-width:3.56241417;stroke-miterlimit:4;stroke-dasharray:none" />
    <path
       d="M 7970,4280 L 7970,4280"
       id="path3954"
       style="stroke-width:3.56241417;stroke-miterlimit:4;stroke-dasharray:none" />
  </g>
  <g
     style="fill:#a00000;fill-opacity:0;stroke:#a00000;stroke-width:3.56241417;stroke-linecap:round;stroke-linejoin:round;stroke-miterlimit:4;stroke-dasharray:none;stroke-opacity:1"
     transform="matrix(3.4476622,0,0,3.4463359,-19681.806,-7193.0662)"
     id="g3956"
     inkscape:export-filename="/home/juan/desarrollo/curso-pic/pic16-dibujos/freeleds.png"
     inkscape:export-xdpi="90"
     inkscape:export-ydpi="90">
    <path
       d="M 8000,4250 L 7990,4280"
       id="path3958"
       style="stroke-width:3.56241417;stroke-miterlimit:4;stroke-dasharray:none" />
    <path
       d="M 7990,4280 L 7990,4280"
       id="path3960"
       style="stroke-width:3.56241417;stroke-miterlimit:4;stroke-dasharray:none" />
  </g>
  <g
     style="fill:#a00000;fill-opacity:0;stroke:#a00000;stroke-width:3.56241417;stroke-linecap:round;stroke-linejoin:round;stroke-miterlimit:4;stroke-dasharray:none;stroke-opacity:1"
     transform="matrix(3.4476622,0,0,3.4463359,-19681.806,-7193.0662)"
     id="g3962"
     inkscape:export-filename="/home/juan/desarrollo/curso-pic/pic16-dibujos/freeleds.png"
     inkscape:export-xdpi="90"
     inkscape:export-ydpi="90">
    <path
       d="M 8020,4250 L 8010,4280"
       id="path3964"
       style="stroke-width:3.56241417;stroke-miterlimit:4;stroke-dasharray:none" />
    <path
       d="M 8010,4280 L 8010,4280"
       id="path3966"
       style="stroke-width:3.56241417;stroke-miterlimit:4;stroke-dasharray:none" />
  </g>
  <g
     style="fill:#a00000;fill-opacity:0;stroke:#a00000;stroke-width:3.56241417;stroke-linecap:round;stroke-linejoin:round;stroke-miterlimit:4;stroke-dasharray:none;stroke-opacity:1"
     transform="matrix(3.4476622,0,0,3.4463359,-19681.806,-7193.0662)"
     id="g3968"
     inkscape:export-filename="/home/juan/desarrollo/curso-pic/pic16-dibujos/freeleds.png"
     inkscape:export-xdpi="90"
     inkscape:export-ydpi="90">
    <path
       d="M 8040,4250 L 8030,4280"
       id="path3970"
       style="stroke-width:3.56241417;stroke-miterlimit:4;stroke-dasharray:none" />
    <path
       d="M 8030,4280 L 8030,4280"
       id="path3972"
       style="stroke-width:3.56241417;stroke-miterlimit:4;stroke-dasharray:none" />
    <path
       d="M 8030,4280 L 8030,4280"
       id="path3974"
       style="stroke-width:3.56241417;stroke-miterlimit:4;stroke-dasharray:none" />
  </g>
  <g
     style="fill:#a00000;fill-opacity:0;stroke:#a00000;stroke-width:3.56241417;stroke-linecap:round;stroke-linejoin:round;stroke-miterlimit:4;stroke-dasharray:none;stroke-opacity:1"
     transform="matrix(3.4476622,0,0,3.4463359,-19681.806,-7202.4381)"
     id="g3976"
     inkscape:export-filename="/home/juan/desarrollo/curso-pic/pic16-dibujos/freeleds.png"
     inkscape:export-xdpi="90"
     inkscape:export-ydpi="90">
    <path
       d="M 8040,4250 L 7960,4250"
       id="path3978"
       style="stroke-width:3.56241417;stroke-miterlimit:4;stroke-dasharray:none" />
    <path
       d="M 7960,4250 L 7960,4250"
       id="path3980"
       style="stroke-width:3.56241417;stroke-miterlimit:4;stroke-dasharray:none" />
  </g>
  <text
     xml:space="preserve"
     style="font-size:171.91493225px;font-style:normal;font-weight:normal;fill:#000000;fill-opacity:1;stroke:none;stroke-width:1px;stroke-linecap:butt;stroke-linejoin:miter;stroke-opacity:1;font-family:Bitstream Vera Sans"
     x="3417.7512"
     y="952.38269"
     id="text11340"
     inkscape:export-filename="/home/juan/desarrollo/curso-pic/pic16-dibujos/freeleds.png"
     inkscape:export-xdpi="90"
     inkscape:export-ydpi="90"><tspan
       sodipodi:role="line"
       id="tspan11342"
       x="3417.7512"
       y="952.38269">RB7</tspan></text>
  <path
     style="fill:none;fill-rule:evenodd;stroke:#000000;stroke-width:12.27963734;stroke-linecap:butt;stroke-linejoin:miter;stroke-miterlimit:4;stroke-dasharray:none;stroke-opacity:1"
     d="M 3369.8999,804.94441 L 3369.8999,1044.2523 L 3772.3723,1044.2523 L 3919.2203,897.40428 L 3766.9335,745.11743 L 3369.8999,745.11743 L 3369.8999,804.94441 z"
     id="path2680"
     inkscape:export-filename="/home/juan/desarrollo/curso-pic/pic16-dibujos/freeleds.png"
     inkscape:export-xdpi="90"
     inkscape:export-ydpi="90" />
  <text
     xml:space="preserve"
     style="font-size:171.91492754px;font-style:normal;font-weight:normal;fill:#000000;fill-opacity:1;stroke:none;stroke-width:1px;stroke-linecap:butt;stroke-linejoin:miter;stroke-opacity:1;font-family:Bitstream Vera Sans;-inkscape-font-specification:Bitstream Vera Sans;font-stretch:normal;font-variant:normal;text-anchor:start;text-align:start;writing-mode:lr;line-height:125%"
     x="3417.7512"
     y="1822.5933"
     id="text3452"
     sodipodi:linespacing="125%"
     inkscape:export-filename="/home/juan/desarrollo/curso-pic/pic16-dibujos/freeleds.png"
     inkscape:export-xdpi="90"
     inkscape:export-ydpi="90"><tspan
       sodipodi:role="line"
       id="tspan3502">RB6</tspan></text>
  <path
     style="fill:none;fill-rule:evenodd;stroke:#000000;stroke-width:12.27963734;stroke-linecap:butt;stroke-linejoin:miter;stroke-miterlimit:4;stroke-dasharray:none;stroke-opacity:1"
     d="M 3369.8999,1675.155 L 3369.8999,1914.4629 L 3772.3723,1914.4629 L 3919.2203,1767.6148 L 3766.9335,1615.328 L 3369.8999,1615.328 L 3369.8999,1675.155 z"
     id="path3456"
     inkscape:export-filename="/home/juan/desarrollo/curso-pic/pic16-dibujos/freeleds.png"
     inkscape:export-xdpi="90"
     inkscape:export-ydpi="90" />
  <text
     xml:space="preserve"
     style="font-size:171.91492754px;font-style:normal;font-weight:normal;fill:#000000;fill-opacity:1;stroke:none;stroke-width:1px;stroke-linecap:butt;stroke-linejoin:miter;stroke-opacity:1;font-family:Bitstream Vera Sans;-inkscape-font-specification:Bitstream Vera Sans;font-stretch:normal;font-variant:normal;text-anchor:start;text-align:start;writing-mode:lr;line-height:125%"
     x="3417.7512"
     y="2692.8037"
     id="text3458"
     sodipodi:linespacing="125%"
     inkscape:export-filename="/home/juan/desarrollo/curso-pic/pic16-dibujos/freeleds.png"
     inkscape:export-xdpi="90"
     inkscape:export-ydpi="90"><tspan
       sodipodi:role="line"
       id="tspan3504">RB5</tspan></text>
  <path
     style="fill:none;fill-rule:evenodd;stroke:#000000;stroke-width:12.27963734;stroke-linecap:butt;stroke-linejoin:miter;stroke-miterlimit:4;stroke-dasharray:none;stroke-opacity:1"
     d="M 3369.8999,2545.3656 L 3369.8999,2784.6735 L 3772.3723,2784.6735 L 3919.2203,2637.8254 L 3766.9335,2485.5386 L 3369.8999,2485.5386 L 3369.8999,2545.3656 z"
     id="path3462"
     inkscape:export-filename="/home/juan/desarrollo/curso-pic/pic16-dibujos/freeleds.png"
     inkscape:export-xdpi="90"
     inkscape:export-ydpi="90" />
  <text
     xml:space="preserve"
     style="font-size:171.91492754px;font-style:normal;font-weight:normal;fill:#000000;fill-opacity:1;stroke:none;stroke-width:1px;stroke-linecap:butt;stroke-linejoin:miter;stroke-opacity:1;font-family:Bitstream Vera Sans;-inkscape-font-specification:Bitstream Vera Sans;font-stretch:normal;font-variant:normal;text-anchor:start;text-align:start;writing-mode:lr;line-height:125%"
     x="3417.7512"
     y="3552.1367"
     id="text3464"
     sodipodi:linespacing="125%"
     inkscape:export-filename="/home/juan/desarrollo/curso-pic/pic16-dibujos/freeleds.png"
     inkscape:export-xdpi="90"
     inkscape:export-ydpi="90"><tspan
       sodipodi:role="line"
       id="tspan3506">RB4</tspan></text>
  <path
     style="fill:none;fill-rule:evenodd;stroke:#000000;stroke-width:12.27963734;stroke-linecap:butt;stroke-linejoin:miter;stroke-miterlimit:4;stroke-dasharray:none;stroke-opacity:1"
     d="M 3369.8999,3404.6985 L 3369.8999,3644.0064 L 3772.3723,3644.0064 L 3919.2203,3497.1583 L 3766.9335,3344.8715 L 3369.8999,3344.8715 L 3369.8999,3404.6985 z"
     id="path3468"
     inkscape:export-filename="/home/juan/desarrollo/curso-pic/pic16-dibujos/freeleds.png"
     inkscape:export-xdpi="90"
     inkscape:export-ydpi="90" />
  <text
     xml:space="preserve"
     style="font-size:171.91492754px;font-style:normal;font-weight:normal;fill:#000000;fill-opacity:1;stroke:none;stroke-width:1px;stroke-linecap:butt;stroke-linejoin:miter;stroke-opacity:1;font-family:Bitstream Vera Sans;-inkscape-font-specification:Bitstream Vera Sans;font-stretch:normal;font-variant:normal;text-anchor:start;text-align:start;writing-mode:lr;line-height:125%"
     x="3417.7512"
     y="4400.5918"
     id="text3470"
     sodipodi:linespacing="125%"
     inkscape:export-filename="/home/juan/desarrollo/curso-pic/pic16-dibujos/freeleds.png"
     inkscape:export-xdpi="90"
     inkscape:export-ydpi="90"><tspan
       sodipodi:role="line"
       id="tspan3508">RB3</tspan></text>
  <path
     style="fill:none;fill-rule:evenodd;stroke:#000000;stroke-width:12.27963734;stroke-linecap:butt;stroke-linejoin:miter;stroke-miterlimit:4;stroke-dasharray:none;stroke-opacity:1"
     d="M 3369.8999,4253.1538 L 3369.8999,4492.4617 L 3772.3723,4492.4617 L 3919.2203,4345.6136 L 3766.9335,4193.3268 L 3369.8999,4193.3268 L 3369.8999,4253.1538 z"
     id="path3474"
     inkscape:export-filename="/home/juan/desarrollo/curso-pic/pic16-dibujos/freeleds.png"
     inkscape:export-xdpi="90"
     inkscape:export-ydpi="90" />
  <text
     xml:space="preserve"
     style="font-size:171.91492754px;font-style:normal;font-weight:normal;fill:#000000;fill-opacity:1;stroke:none;stroke-width:1px;stroke-linecap:butt;stroke-linejoin:miter;stroke-opacity:1;font-family:Bitstream Vera Sans;-inkscape-font-specification:Bitstream Vera Sans;font-stretch:normal;font-variant:normal;text-anchor:start;text-align:start;writing-mode:lr;line-height:125%"
     x="3417.7512"
     y="5270.8022"
     id="text3476"
     sodipodi:linespacing="125%"
     inkscape:export-filename="/home/juan/desarrollo/curso-pic/pic16-dibujos/freeleds.png"
     inkscape:export-xdpi="90"
     inkscape:export-ydpi="90"><tspan
       sodipodi:role="line"
       id="tspan3510">RB2</tspan></text>
  <path
     style="fill:none;fill-rule:evenodd;stroke:#000000;stroke-width:12.27963734;stroke-linecap:butt;stroke-linejoin:miter;stroke-miterlimit:4;stroke-dasharray:none;stroke-opacity:1"
     d="M 3369.8999,5123.3644 L 3369.8999,5362.6723 L 3772.3723,5362.6723 L 3919.2203,5215.8242 L 3766.9335,5063.5374 L 3369.8999,5063.5374 L 3369.8999,5123.3644 z"
     id="path3480"
     inkscape:export-filename="/home/juan/desarrollo/curso-pic/pic16-dibujos/freeleds.png"
     inkscape:export-xdpi="90"
     inkscape:export-ydpi="90" />
  <text
     xml:space="preserve"
     style="font-size:171.91492754px;font-style:normal;font-weight:normal;fill:#000000;fill-opacity:1;stroke:none;stroke-width:1px;stroke-linecap:butt;stroke-linejoin:miter;stroke-opacity:1;font-family:Bitstream Vera Sans;-inkscape-font-specification:Bitstream Vera Sans;font-stretch:normal;font-variant:normal;text-anchor:start;text-align:start;writing-mode:lr;line-height:125%"
     x="3417.7512"
     y="6130.1353"
     id="text3482"
     sodipodi:linespacing="125%"
     inkscape:export-filename="/home/juan/desarrollo/curso-pic/pic16-dibujos/freeleds.png"
     inkscape:export-xdpi="90"
     inkscape:export-ydpi="90"><tspan
       sodipodi:role="line"
       id="tspan3512">RB1</tspan></text>
  <path
     style="fill:none;fill-rule:evenodd;stroke:#000000;stroke-width:12.27963734;stroke-linecap:butt;stroke-linejoin:miter;stroke-miterlimit:4;stroke-dasharray:none;stroke-opacity:1"
     d="M 3369.8999,5982.6973 L 3369.8999,6222.0052 L 3772.3723,6222.0052 L 3919.2203,6075.1571 L 3766.9335,5922.8703 L 3369.8999,5922.8703 L 3369.8999,5982.6973 z"
     id="path3486"
     inkscape:export-filename="/home/juan/desarrollo/curso-pic/pic16-dibujos/freeleds.png"
     inkscape:export-xdpi="90"
     inkscape:export-ydpi="90" />
  <text
     xml:space="preserve"
     style="font-size:171.91492754px;font-style:normal;font-weight:normal;fill:#000000;fill-opacity:1;stroke:none;stroke-width:1px;stroke-linecap:butt;stroke-linejoin:miter;stroke-opacity:1;font-family:Bitstream Vera Sans;-inkscape-font-specification:Bitstream Vera Sans;font-stretch:normal;font-variant:normal;text-anchor:start;text-align:start;writing-mode:lr;line-height:125%"
     x="3417.7512"
     y="6989.4683"
     id="text3488"
     sodipodi:linespacing="125%"
     inkscape:export-filename="/home/juan/desarrollo/curso-pic/pic16-dibujos/freeleds.png"
     inkscape:export-xdpi="90"
     inkscape:export-ydpi="90"><tspan
       sodipodi:role="line"
       id="tspan3514">RB0</tspan></text>
  <path
     style="fill:none;fill-rule:evenodd;stroke:#000000;stroke-width:12.27963734;stroke-linecap:butt;stroke-linejoin:miter;stroke-miterlimit:4;stroke-dasharray:none;stroke-opacity:1"
     d="M 3369.8999,6842.0302 L 3369.8999,7081.3381 L 3772.3723,7081.3381 L 3919.2203,6934.49 L 3766.9335,6782.2032 L 3369.8999,6782.2032 L 3369.8999,6842.0302 z"
     id="path3492"
     inkscape:export-filename="/home/juan/desarrollo/curso-pic/pic16-dibujos/freeleds.png"
     inkscape:export-xdpi="90"
     inkscape:export-ydpi="90" />
  <text
     xml:space="preserve"
     style="font-size:147.35565186px;font-style:normal;font-weight:normal;fill:#000000;fill-opacity:1;stroke:none;stroke-width:1px;stroke-linecap:butt;stroke-linejoin:miter;stroke-opacity:1;font-family:Bitstream Vera Sans"
     x="4642.583"
     y="685.29047"
     id="text3498"
     inkscape:export-filename="/home/juan/desarrollo/curso-pic/pic16-dibujos/freeleds.png"
     inkscape:export-xdpi="90"
     inkscape:export-ydpi="90"><tspan
       sodipodi:role="line"
       id="tspan3500"
       x="4642.583"
       y="685.29047">220</tspan></text>
  <text
     xml:space="preserve"
     style="font-size:147.35565186px;font-style:normal;font-weight:normal;fill:#000000;fill-opacity:1;stroke:none;stroke-width:1px;stroke-linecap:butt;stroke-linejoin:miter;stroke-opacity:1;font-family:Bitstream Vera Sans"
     x="4642.583"
     y="1555.501"
     id="text3516"
     inkscape:export-filename="/home/juan/desarrollo/curso-pic/pic16-dibujos/freeleds.png"
     inkscape:export-xdpi="90"
     inkscape:export-ydpi="90"><tspan
       sodipodi:role="line"
       id="tspan3518"
       x="4642.583"
       y="1555.501">220</tspan></text>
  <text
     xml:space="preserve"
     style="font-size:147.35565186px;font-style:normal;font-weight:normal;fill:#000000;fill-opacity:1;stroke:none;stroke-width:1px;stroke-linecap:butt;stroke-linejoin:miter;stroke-opacity:1;font-family:Bitstream Vera Sans"
     x="4642.583"
     y="2403.9563"
     id="text3520"
     inkscape:export-filename="/home/juan/desarrollo/curso-pic/pic16-dibujos/freeleds.png"
     inkscape:export-xdpi="90"
     inkscape:export-ydpi="90"><tspan
       sodipodi:role="line"
       id="tspan3522"
       x="4642.583"
       y="2403.9563">220</tspan></text>
  <text
     xml:space="preserve"
     style="font-size:147.35565186px;font-style:normal;font-weight:normal;fill:#000000;fill-opacity:1;stroke:none;stroke-width:1px;stroke-linecap:butt;stroke-linejoin:miter;stroke-opacity:1;font-family:Bitstream Vera Sans"
     x="4642.583"
     y="3263.2893"
     id="text3524"
     inkscape:export-filename="/home/juan/desarrollo/curso-pic/pic16-dibujos/freeleds.png"
     inkscape:export-xdpi="90"
     inkscape:export-ydpi="90"><tspan
       sodipodi:role="line"
       id="tspan3526"
       x="4642.583"
       y="3263.2893">220</tspan></text>
  <text
     xml:space="preserve"
     style="font-size:147.35565186px;font-style:normal;font-weight:normal;fill:#000000;fill-opacity:1;stroke:none;stroke-width:1px;stroke-linecap:butt;stroke-linejoin:miter;stroke-opacity:1;font-family:Bitstream Vera Sans"
     x="4642.583"
     y="4111.7446"
     id="text3528"
     inkscape:export-filename="/home/juan/desarrollo/curso-pic/pic16-dibujos/freeleds.png"
     inkscape:export-xdpi="90"
     inkscape:export-ydpi="90"><tspan
       sodipodi:role="line"
       id="tspan3530"
       x="4642.583"
       y="4111.7446">220</tspan></text>
  <text
     xml:space="preserve"
     style="font-size:147.35565186px;font-style:normal;font-weight:normal;fill:#000000;fill-opacity:1;stroke:none;stroke-width:1px;stroke-linecap:butt;stroke-linejoin:miter;stroke-opacity:1;font-family:Bitstream Vera Sans"
     x="4642.583"
     y="4960.1997"
     id="text3532"
     inkscape:export-filename="/home/juan/desarrollo/curso-pic/pic16-dibujos/freeleds.png"
     inkscape:export-xdpi="90"
     inkscape:export-ydpi="90"><tspan
       sodipodi:role="line"
       id="tspan3534"
       x="4642.583"
       y="4960.1997">220</tspan></text>
  <text
     xml:space="preserve"
     style="font-size:147.35565186px;font-style:normal;font-weight:normal;fill:#000000;fill-opacity:1;stroke:none;stroke-width:1px;stroke-linecap:butt;stroke-linejoin:miter;stroke-opacity:1;font-family:Bitstream Vera Sans"
     x="4642.583"
     y="5841.2881"
     id="text3536"
     inkscape:export-filename="/home/juan/desarrollo/curso-pic/pic16-dibujos/freeleds.png"
     inkscape:export-xdpi="90"
     inkscape:export-ydpi="90"><tspan
       sodipodi:role="line"
       id="tspan3538"
       x="4642.583"
       y="5841.2881">220</tspan></text>
  <text
     xml:space="preserve"
     style="font-size:147.35565186px;font-style:normal;font-weight:normal;fill:#000000;fill-opacity:1;stroke:none;stroke-width:1px;stroke-linecap:butt;stroke-linejoin:miter;stroke-opacity:1;font-family:Bitstream Vera Sans"
     x="4642.583"
     y="6657.1104"
     id="text3540"
     inkscape:export-filename="/home/juan/desarrollo/curso-pic/pic16-dibujos/freeleds.png"
     inkscape:export-xdpi="90"
     inkscape:export-ydpi="90"><tspan
       sodipodi:role="line"
       id="tspan3542"
       x="4642.583"
       y="6657.1104">220</tspan></text>
</svg>
