<?xml version="1.0" encoding="UTF-8" standalone="no"?>
<!-- Created with Inkscape (http://www.inkscape.org/) -->
<svg
   xmlns:dc="http://purl.org/dc/elements/1.1/"
   xmlns:cc="http://creativecommons.org/ns#"
   xmlns:rdf="http://www.w3.org/1999/02/22-rdf-syntax-ns#"
   xmlns:svg="http://www.w3.org/2000/svg"
   xmlns="http://www.w3.org/2000/svg"
   xmlns:sodipodi="http://sodipodi.sourceforge.net/DTD/sodipodi-0.dtd"
   xmlns:inkscape="http://www.inkscape.org/namespaces/inkscape"
   width="210mm"
   height="297mm"
   id="svg2"
   sodipodi:version="0.32"
   inkscape:version="0.46"
   sodipodi:docname="pwm-ventanas.svg"
   inkscape:output_extension="org.inkscape.output.svg.inkscape"
   inkscape:export-filename="/home/juan/desarrollo/curso-pic/pic16-dibujos/Timers/Timer0-pausa1ms-cuadrada.png"
   inkscape:export-xdpi="90"
   inkscape:export-ydpi="90">
  <defs
     id="defs4">
    <marker
       inkscape:stockid="Arrow2Mstart"
       orient="auto"
       refY="0.0"
       refX="0.0"
       id="Arrow2Mstart"
       style="overflow:visible">
      <path
         id="path3806"
         style="font-size:12.0;fill-rule:evenodd;stroke-width:0.62500000;stroke-linejoin:round"
         d="M 8.7185878,4.0337352 L -2.2072895,0.016013256 L 8.7185884,-4.0017078 C 6.9730900,-1.6296469 6.9831476,1.6157441 8.7185878,4.0337352 z "
         transform="scale(0.6) translate(0,0)" />
    </marker>
    <marker
       inkscape:stockid="TriangleInS"
       orient="auto"
       refY="0.0"
       refX="0.0"
       id="TriangleInS"
       style="overflow:visible">
      <path
         id="path3922"
         d="M 5.77,0.0 L -2.88,5.0 L -2.88,-5.0 L 5.77,0.0 z "
         style="fill-rule:evenodd;stroke:#000000;stroke-width:1.0pt;marker-start:none"
         transform="scale(-0.2)" />
    </marker>
    <marker
       inkscape:stockid="TriangleOutS"
       orient="auto"
       refY="0.0"
       refX="0.0"
       id="TriangleOutS"
       style="overflow:visible">
      <path
         id="path3931"
         d="M 5.77,0.0 L -2.88,5.0 L -2.88,-5.0 L 5.77,0.0 z "
         style="fill-rule:evenodd;stroke:#000000;stroke-width:1.0pt;marker-start:none"
         transform="scale(0.2)" />
    </marker>
    <marker
       inkscape:stockid="Arrow2Send"
       orient="auto"
       refY="0.0"
       refX="0.0"
       id="Arrow2Send"
       style="overflow:visible;">
      <path
         id="path3815"
         style="font-size:12.0;fill-rule:evenodd;stroke-width:0.62500000;stroke-linejoin:round;"
         d="M 8.7185878,4.0337352 L -2.2072895,0.016013256 L 8.7185884,-4.0017078 C 6.9730900,-1.6296469 6.9831476,1.6157441 8.7185878,4.0337352 z "
         transform="scale(0.3) rotate(180) translate(-2.3,0)" />
    </marker>
    <marker
       inkscape:stockid="Arrow1Send"
       orient="auto"
       refY="0.0"
       refX="0.0"
       id="Arrow1Send"
       style="overflow:visible;">
      <path
         id="path3797"
         d="M 0.0,0.0 L 5.0,-5.0 L -12.5,0.0 L 5.0,5.0 L 0.0,0.0 z "
         style="fill-rule:evenodd;stroke:#000000;stroke-width:1.0pt;marker-start:none;"
         transform="scale(0.2) rotate(180) translate(6,0)" />
    </marker>
    <marker
       inkscape:stockid="Arrow2Mend"
       orient="auto"
       refY="0.0"
       refX="0.0"
       id="Arrow2Mend"
       style="overflow:visible;">
      <path
         id="path3809"
         style="font-size:12.0;fill-rule:evenodd;stroke-width:0.62500000;stroke-linejoin:round;"
         d="M 8.7185878,4.0337352 L -2.2072895,0.016013256 L 8.7185884,-4.0017078 C 6.9730900,-1.6296469 6.9831476,1.6157441 8.7185878,4.0337352 z "
         transform="scale(0.6) rotate(180) translate(0,0)" />
    </marker>
    <inkscape:perspective
       sodipodi:type="inkscape:persp3d"
       inkscape:vp_x="0 : 526.18109 : 1"
       inkscape:vp_y="0 : 1000 : 0"
       inkscape:vp_z="744.09448 : 526.18109 : 1"
       inkscape:persp3d-origin="372.04724 : 350.78739 : 1"
       id="perspective10" />
    <inkscape:perspective
       id="perspective2428"
       inkscape:persp3d-origin="372.04724 : 350.78739 : 1"
       inkscape:vp_z="744.09448 : 526.18109 : 1"
       inkscape:vp_y="0 : 1000 : 0"
       inkscape:vp_x="0 : 526.18109 : 1"
       sodipodi:type="inkscape:persp3d" />
    <inkscape:perspective
       id="perspective4904"
       inkscape:persp3d-origin="372.04724 : 350.78739 : 1"
       inkscape:vp_z="744.09448 : 526.18109 : 1"
       inkscape:vp_y="0 : 1000 : 0"
       inkscape:vp_x="0 : 526.18109 : 1"
       sodipodi:type="inkscape:persp3d" />
    <inkscape:perspective
       id="perspective2643"
       inkscape:persp3d-origin="1500 : 666.66667 : 1"
       inkscape:vp_z="3000 : 1000 : 1"
       inkscape:vp_y="0 : 1000 : 0"
       inkscape:vp_x="0 : 1000 : 1"
       sodipodi:type="inkscape:persp3d" />
    <inkscape:perspective
       sodipodi:type="inkscape:persp3d"
       inkscape:vp_x="0 : 1000 : 1"
       inkscape:vp_y="0 : 1000 : 0"
       inkscape:vp_z="3000 : 1000 : 1"
       inkscape:persp3d-origin="1500 : 666.66667 : 1"
       id="perspective2977" />
    <inkscape:perspective
       sodipodi:type="inkscape:persp3d"
       inkscape:vp_x="0 : 526.18109 : 1"
       inkscape:vp_y="0 : 1000 : 0"
       inkscape:vp_z="744.09448 : 526.18109 : 1"
       inkscape:persp3d-origin="372.04724 : 350.78739 : 1"
       id="perspective2975" />
    <inkscape:perspective
       sodipodi:type="inkscape:persp3d"
       inkscape:vp_x="0 : 526.18109 : 1"
       inkscape:vp_y="0 : 1000 : 0"
       inkscape:vp_z="744.09448 : 526.18109 : 1"
       inkscape:persp3d-origin="372.04724 : 350.78739 : 1"
       id="perspective2973" />
    <inkscape:perspective
       id="perspective2971"
       inkscape:persp3d-origin="372.04724 : 350.78739 : 1"
       inkscape:vp_z="744.09448 : 526.18109 : 1"
       inkscape:vp_y="0 : 1000 : 0"
       inkscape:vp_x="0 : 526.18109 : 1"
       sodipodi:type="inkscape:persp3d" />
    <marker
       style="overflow:visible;"
       id="marker2967"
       refX="0.0"
       refY="0.0"
       orient="auto"
       inkscape:stockid="Arrow2Mend">
      <path
         transform="scale(0.6) rotate(180) translate(0,0)"
         d="M 8.7185878,4.0337352 L -2.2072895,0.016013256 L 8.7185884,-4.0017078 C 6.9730900,-1.6296469 6.9831476,1.6157441 8.7185878,4.0337352 z "
         style="font-size:12.0;fill-rule:evenodd;stroke-width:0.62500000;stroke-linejoin:round;"
         id="path2969" />
    </marker>
    <marker
       style="overflow:visible;"
       id="marker2963"
       refX="0.0"
       refY="0.0"
       orient="auto"
       inkscape:stockid="Arrow1Send">
      <path
         transform="scale(0.2) rotate(180) translate(6,0)"
         style="fill-rule:evenodd;stroke:#000000;stroke-width:1.0pt;marker-start:none;"
         d="M 0.0,0.0 L 5.0,-5.0 L -12.5,0.0 L 5.0,5.0 L 0.0,0.0 z "
         id="path2965" />
    </marker>
    <marker
       style="overflow:visible;"
       id="marker2959"
       refX="0.0"
       refY="0.0"
       orient="auto"
       inkscape:stockid="Arrow2Send">
      <path
         transform="scale(0.3) rotate(180) translate(-2.3,0)"
         d="M 8.7185878,4.0337352 L -2.2072895,0.016013256 L 8.7185884,-4.0017078 C 6.9730900,-1.6296469 6.9831476,1.6157441 8.7185878,4.0337352 z "
         style="font-size:12.0;fill-rule:evenodd;stroke-width:0.62500000;stroke-linejoin:round;"
         id="path2961" />
    </marker>
    <marker
       style="overflow:visible"
       id="marker2955"
       refX="0.0"
       refY="0.0"
       orient="auto"
       inkscape:stockid="TriangleOutS">
      <path
         transform="scale(0.2)"
         style="fill-rule:evenodd;stroke:#000000;stroke-width:1.0pt;marker-start:none"
         d="M 5.77,0.0 L -2.88,5.0 L -2.88,-5.0 L 5.77,0.0 z "
         id="path2957" />
    </marker>
    <marker
       style="overflow:visible"
       id="marker2951"
       refX="0.0"
       refY="0.0"
       orient="auto"
       inkscape:stockid="TriangleInS">
      <path
         transform="scale(-0.2)"
         style="fill-rule:evenodd;stroke:#000000;stroke-width:1.0pt;marker-start:none"
         d="M 5.77,0.0 L -2.88,5.0 L -2.88,-5.0 L 5.77,0.0 z "
         id="path2953" />
    </marker>
    <marker
       style="overflow:visible"
       id="marker2947"
       refX="0.0"
       refY="0.0"
       orient="auto"
       inkscape:stockid="Arrow2Mstart">
      <path
         transform="scale(0.6) translate(0,0)"
         d="M 8.7185878,4.0337352 L -2.2072895,0.016013256 L 8.7185884,-4.0017078 C 6.9730900,-1.6296469 6.9831476,1.6157441 8.7185878,4.0337352 z "
         style="font-size:12.0;fill-rule:evenodd;stroke-width:0.62500000;stroke-linejoin:round"
         id="path2949" />
    </marker>
    <inkscape:perspective
       id="perspective2488"
       inkscape:persp3d-origin="372.04724 : 350.78739 : 1"
       inkscape:vp_z="744.09448 : 526.18109 : 1"
       inkscape:vp_y="0 : 1000 : 0"
       inkscape:vp_x="0 : 526.18109 : 1"
       sodipodi:type="inkscape:persp3d" />
    <inkscape:perspective
       sodipodi:type="inkscape:persp3d"
       inkscape:vp_x="0 : 1000 : 1"
       inkscape:vp_y="0 : 1000 : 0"
       inkscape:vp_z="3000 : 1000 : 1"
       inkscape:persp3d-origin="1500 : 666.66667 : 1"
       id="perspective3758" />
    <inkscape:perspective
       sodipodi:type="inkscape:persp3d"
       inkscape:vp_x="0 : 526.18109 : 1"
       inkscape:vp_y="0 : 1000 : 0"
       inkscape:vp_z="744.09448 : 526.18109 : 1"
       inkscape:persp3d-origin="372.04724 : 350.78739 : 1"
       id="perspective3756" />
    <inkscape:perspective
       sodipodi:type="inkscape:persp3d"
       inkscape:vp_x="0 : 526.18109 : 1"
       inkscape:vp_y="0 : 1000 : 0"
       inkscape:vp_z="744.09448 : 526.18109 : 1"
       inkscape:persp3d-origin="372.04724 : 350.78739 : 1"
       id="perspective3754" />
    <inkscape:perspective
       id="perspective3752"
       inkscape:persp3d-origin="372.04724 : 350.78739 : 1"
       inkscape:vp_z="744.09448 : 526.18109 : 1"
       inkscape:vp_y="0 : 1000 : 0"
       inkscape:vp_x="0 : 526.18109 : 1"
       sodipodi:type="inkscape:persp3d" />
    <marker
       style="overflow:visible;"
       id="marker3748"
       refX="0.0"
       refY="0.0"
       orient="auto"
       inkscape:stockid="Arrow2Mend">
      <path
         transform="scale(0.6) rotate(180) translate(0,0)"
         d="M 8.7185878,4.0337352 L -2.2072895,0.016013256 L 8.7185884,-4.0017078 C 6.9730900,-1.6296469 6.9831476,1.6157441 8.7185878,4.0337352 z "
         style="font-size:12.0;fill-rule:evenodd;stroke-width:0.62500000;stroke-linejoin:round;"
         id="path3750" />
    </marker>
    <marker
       style="overflow:visible;"
       id="marker3744"
       refX="0.0"
       refY="0.0"
       orient="auto"
       inkscape:stockid="Arrow1Send">
      <path
         transform="scale(0.2) rotate(180) translate(6,0)"
         style="fill-rule:evenodd;stroke:#000000;stroke-width:1.0pt;marker-start:none;"
         d="M 0.0,0.0 L 5.0,-5.0 L -12.5,0.0 L 5.0,5.0 L 0.0,0.0 z "
         id="path3746" />
    </marker>
    <marker
       style="overflow:visible;"
       id="marker3740"
       refX="0.0"
       refY="0.0"
       orient="auto"
       inkscape:stockid="Arrow2Send">
      <path
         transform="scale(0.3) rotate(180) translate(-2.3,0)"
         d="M 8.7185878,4.0337352 L -2.2072895,0.016013256 L 8.7185884,-4.0017078 C 6.9730900,-1.6296469 6.9831476,1.6157441 8.7185878,4.0337352 z "
         style="font-size:12.0;fill-rule:evenodd;stroke-width:0.62500000;stroke-linejoin:round;"
         id="path3742" />
    </marker>
    <marker
       style="overflow:visible"
       id="marker3736"
       refX="0.0"
       refY="0.0"
       orient="auto"
       inkscape:stockid="TriangleOutS">
      <path
         transform="scale(0.2)"
         style="fill-rule:evenodd;stroke:#000000;stroke-width:1.0pt;marker-start:none"
         d="M 5.77,0.0 L -2.88,5.0 L -2.88,-5.0 L 5.77,0.0 z "
         id="path3738" />
    </marker>
    <marker
       style="overflow:visible"
       id="marker3732"
       refX="0.0"
       refY="0.0"
       orient="auto"
       inkscape:stockid="TriangleInS">
      <path
         transform="scale(-0.2)"
         style="fill-rule:evenodd;stroke:#000000;stroke-width:1.0pt;marker-start:none"
         d="M 5.77,0.0 L -2.88,5.0 L -2.88,-5.0 L 5.77,0.0 z "
         id="path3734" />
    </marker>
    <marker
       style="overflow:visible"
       id="marker3728"
       refX="0.0"
       refY="0.0"
       orient="auto"
       inkscape:stockid="Arrow2Mstart">
      <path
         transform="scale(0.6) translate(0,0)"
         d="M 8.7185878,4.0337352 L -2.2072895,0.016013256 L 8.7185884,-4.0017078 C 6.9730900,-1.6296469 6.9831476,1.6157441 8.7185878,4.0337352 z "
         style="font-size:12.0;fill-rule:evenodd;stroke-width:0.62500000;stroke-linejoin:round"
         id="path3730" />
    </marker>
    <inkscape:perspective
       id="perspective4362"
       inkscape:persp3d-origin="1500 : 666.66667 : 1"
       inkscape:vp_z="3000 : 1000 : 1"
       inkscape:vp_y="0 : 1000 : 0"
       inkscape:vp_x="0 : 1000 : 1"
       sodipodi:type="inkscape:persp3d" />
    <inkscape:perspective
       id="perspective2583"
       inkscape:persp3d-origin="372.04724 : 350.78739 : 1"
       inkscape:vp_z="744.09448 : 526.18109 : 1"
       inkscape:vp_y="0 : 1000 : 0"
       inkscape:vp_x="0 : 526.18109 : 1"
       sodipodi:type="inkscape:persp3d" />
    <inkscape:perspective
       id="perspective2485"
       inkscape:persp3d-origin="372.04724 : 350.78739 : 1"
       inkscape:vp_z="744.09448 : 526.18109 : 1"
       inkscape:vp_y="0 : 1000 : 0"
       inkscape:vp_x="0 : 526.18109 : 1"
       sodipodi:type="inkscape:persp3d" />
  </defs>
  <sodipodi:namedview
     id="base"
     pagecolor="#ffffff"
     bordercolor="#666666"
     borderopacity="1.0"
     inkscape:pageopacity="0.0"
     inkscape:pageshadow="2"
     inkscape:zoom="0.54261175"
     inkscape:cx="955.2541"
     inkscape:cy="556.06555"
     inkscape:document-units="px"
     inkscape:current-layer="layer2"
     showgrid="true"
     inkscape:window-width="1680"
     inkscape:window-height="974"
     inkscape:window-x="0"
     inkscape:window-y="24"
     showguides="true"
     inkscape:guide-bbox="true">
    <inkscape:grid
       type="xygrid"
       id="grid2497"
       visible="false"
       enabled="true"
       dotted="true" />
  </sodipodi:namedview>
  <metadata
     id="metadata7">
    <rdf:RDF>
      <cc:Work
         rdf:about="">
        <dc:format>image/svg+xml</dc:format>
        <dc:type
           rdf:resource="http://purl.org/dc/dcmitype/StillImage" />
      </cc:Work>
    </rdf:RDF>
  </metadata>
  <g
     inkscape:groupmode="layer"
     id="layer1"
     inkscape:label="png" />
  <g
     inkscape:groupmode="layer"
     id="layer2"
     inkscape:label="dibujo"
     style="display:inline">
    <text
       xml:space="preserve"
       style="font-size:12px;font-style:normal;font-weight:normal;fill:#000000;fill-opacity:1;stroke:none;stroke-width:1px;stroke-linecap:butt;stroke-linejoin:miter;stroke-opacity:1;font-family:Bitstream Vera Sans"
       x="121.42857"
       y="431.64789"
       id="text3234"><tspan
         sodipodi:role="line"
         id="tspan3236"
         x="121.42857"
         y="431.64789" /></text>
    <text
       xml:space="preserve"
       style="font-size:10px;font-style:normal;font-weight:normal;fill:#000000;fill-opacity:1;stroke:none;stroke-width:1px;stroke-linecap:butt;stroke-linejoin:miter;stroke-opacity:1;font-family:Bitstream Vera Sans"
       x="-436.55667"
       y="622.32129"
       id="text14615"><tspan
         sodipodi:role="line"
         id="tspan14617"
         x="-436.55667"
         y="622.32129" /></text>
    <text
       xml:space="preserve"
       style="font-size:16px;font-style:normal;font-weight:normal;fill:#000000;fill-opacity:1;stroke:none;stroke-width:1px;stroke-linecap:butt;stroke-linejoin:miter;stroke-opacity:1;font-family:Bitstream Vera Sans"
       x="350.54849"
       y="362.99362"
       id="text2496"><tspan
         sodipodi:role="line"
         id="tspan2498"
         x="350.54849"
         y="362.99362" /></text>
    <text
       xml:space="preserve"
       style="font-size:16px;font-style:normal;font-weight:normal;fill:#000000;fill-opacity:1;stroke:none;stroke-width:1px;stroke-linecap:butt;stroke-linejoin:miter;stroke-opacity:1;font-family:Bitstream Vera Sans"
       x="143.74919"
       y="63.625767"
       id="text2511"><tspan
         sodipodi:role="line"
         id="tspan2513"
         x="143.74919"
         y="63.625767" /></text>
    <text
       xml:space="preserve"
       style="font-size:4px;font-style:normal;font-weight:normal;fill:#000000;fill-opacity:1;stroke:none;stroke-width:1px;stroke-linecap:butt;stroke-linejoin:miter;stroke-opacity:1;font-family:Bitstream Vera Sans"
       x="159.41417"
       y="114.30657"
       id="text2527"><tspan
         sodipodi:role="line"
         id="tspan2529"
         x="159.41417"
         y="114.30657" /></text>
    <text
       xml:space="preserve"
       style="font-size:0.75083673px;font-style:normal;font-weight:normal;fill:#000000;fill-opacity:1;stroke:none;stroke-width:1px;stroke-linecap:butt;stroke-linejoin:miter;stroke-opacity:1;font-family:Lello"
       x="-584.82648"
       y="-368.10074"
       id="text2171"><tspan
         sodipodi:role="line"
         id="tspan2173"
         x="-584.82648"
         y="-368.10074" /></text>
    <text
       id="text2985"
       y="584.40991"
       x="864.41132"
       style="font-size:12px;font-style:normal;font-weight:normal;fill:#000000;fill-opacity:1;stroke:none;stroke-width:1px;stroke-linecap:butt;stroke-linejoin:miter;stroke-opacity:1;font-family:Bitstream Vera Sans"
       xml:space="preserve"><tspan
         y="584.40991"
         x="864.41132"
         id="tspan2987"
         sodipodi:role="line" /></text>
    <text
       id="text2989"
       y="775.08331"
       x="306.42606"
       style="font-size:10px;font-style:normal;font-weight:normal;fill:#000000;fill-opacity:1;stroke:none;stroke-width:1px;stroke-linecap:butt;stroke-linejoin:miter;stroke-opacity:1;font-family:Bitstream Vera Sans"
       xml:space="preserve"><tspan
         y="775.08331"
         x="306.42606"
         id="tspan2991"
         sodipodi:role="line" /></text>
    <text
       id="text2993"
       y="515.75562"
       x="1093.5312"
       style="font-size:16px;font-style:normal;font-weight:normal;fill:#000000;fill-opacity:1;stroke:none;stroke-width:1px;stroke-linecap:butt;stroke-linejoin:miter;stroke-opacity:1;font-family:Bitstream Vera Sans"
       xml:space="preserve"><tspan
         y="515.75562"
         x="1093.5312"
         id="tspan2995"
         sodipodi:role="line" /></text>
    <text
       id="text2997"
       y="216.38777"
       x="886.73193"
       style="font-size:16px;font-style:normal;font-weight:normal;fill:#000000;fill-opacity:1;stroke:none;stroke-width:1px;stroke-linecap:butt;stroke-linejoin:miter;stroke-opacity:1;font-family:Bitstream Vera Sans"
       xml:space="preserve"><tspan
         y="216.38777"
         x="886.73193"
         id="tspan2999"
         sodipodi:role="line" /></text>
    <text
       id="text3005"
       y="267.06857"
       x="902.39691"
       style="font-size:4px;font-style:normal;font-weight:normal;fill:#000000;fill-opacity:1;stroke:none;stroke-width:1px;stroke-linecap:butt;stroke-linejoin:miter;stroke-opacity:1;font-family:Bitstream Vera Sans"
       xml:space="preserve"><tspan
         y="267.06857"
         x="902.39691"
         id="tspan3007"
         sodipodi:role="line" /></text>
    <text
       id="text3043"
       y="-215.33875"
       x="158.15625"
       style="font-size:0.75083673px;font-style:normal;font-weight:normal;fill:#000000;fill-opacity:1;stroke:none;stroke-width:1px;stroke-linecap:butt;stroke-linejoin:miter;stroke-opacity:1;font-family:Lello"
       xml:space="preserve"><tspan
         y="-215.33875"
         x="158.15625"
         id="tspan3045"
         sodipodi:role="line" /></text>
    <g
       id="g3762"
       inkscape:label="png"
       transform="translate(163.0791,340.41621)" />
    <text
       id="text3766"
       y="772.06409"
       x="284.50766"
       style="font-size:12px;font-style:normal;font-weight:normal;fill:#000000;fill-opacity:1;stroke:none;stroke-width:1px;stroke-linecap:butt;stroke-linejoin:miter;stroke-opacity:1;font-family:Bitstream Vera Sans"
       xml:space="preserve"><tspan
         y="772.06409"
         x="284.50766"
         id="tspan3768"
         sodipodi:role="line" /></text>
    <text
       id="text3770"
       y="962.73749"
       x="-273.47757"
       style="font-size:10px;font-style:normal;font-weight:normal;fill:#000000;fill-opacity:1;stroke:none;stroke-width:1px;stroke-linecap:butt;stroke-linejoin:miter;stroke-opacity:1;font-family:Bitstream Vera Sans"
       xml:space="preserve"><tspan
         y="962.73749"
         x="-273.47757"
         id="tspan3772"
         sodipodi:role="line" /></text>
    <text
       id="text3774"
       y="703.40985"
       x="513.62756"
       style="font-size:16px;font-style:normal;font-weight:normal;fill:#000000;fill-opacity:1;stroke:none;stroke-width:1px;stroke-linecap:butt;stroke-linejoin:miter;stroke-opacity:1;font-family:Bitstream Vera Sans"
       xml:space="preserve"><tspan
         y="703.40985"
         x="513.62756"
         id="tspan3776"
         sodipodi:role="line" /></text>
    <text
       id="text3778"
       y="404.04196"
       x="306.82828"
       style="font-size:16px;font-style:normal;font-weight:normal;fill:#000000;fill-opacity:1;stroke:none;stroke-width:1px;stroke-linecap:butt;stroke-linejoin:miter;stroke-opacity:1;font-family:Bitstream Vera Sans"
       xml:space="preserve"><tspan
         y="404.04196"
         x="306.82828"
         id="tspan3780"
         sodipodi:role="line" /></text>
    <text
       id="text3786"
       y="454.72278"
       x="322.49326"
       style="font-size:4px;font-style:normal;font-weight:normal;fill:#000000;fill-opacity:1;stroke:none;stroke-width:1px;stroke-linecap:butt;stroke-linejoin:miter;stroke-opacity:1;font-family:Bitstream Vera Sans"
       xml:space="preserve"><tspan
         y="454.72278"
         x="322.49326"
         id="tspan3788"
         sodipodi:role="line" /></text>
    <text
       id="text3827"
       y="-27.684528"
       x="-421.74738"
       style="font-size:0.75083673px;font-style:normal;font-weight:normal;fill:#000000;fill-opacity:1;stroke:none;stroke-width:1px;stroke-linecap:butt;stroke-linejoin:miter;stroke-opacity:1;font-family:Lello"
       xml:space="preserve"><tspan
         y="-27.684528"
         x="-421.74738"
         id="tspan3829"
         sodipodi:role="line" /></text>
    <text
       id="text4367"
       y="538.96216"
       x="1123.8751"
       style="font-size:0.27619654px;font-style:normal;font-weight:normal;fill:#000000;fill-opacity:1;stroke:none;stroke-width:1px;stroke-linecap:butt;stroke-linejoin:miter;stroke-opacity:1;font-family:Lello"
       xml:space="preserve"><tspan
         y="538.96216"
         x="1123.8751"
         id="tspan4369"
         sodipodi:role="line" /></text>
    <path
       style="fill:none;fill-rule:evenodd;stroke:#000000;stroke-width:0.99999994;stroke-linecap:butt;stroke-linejoin:miter;stroke-miterlimit:4;stroke-dasharray:0.99999999, 2.99999996;stroke-dashoffset:0;stroke-opacity:1"
       d="M 49.567533,452.14609 L 49.567533,487.54942"
       id="path2509"
       inkscape:export-filename="/home/juan/desarrollo/curso-pic/pic16-dibujos/servos/pwm-ventanas.png"
       inkscape:export-xdpi="90"
       inkscape:export-ydpi="90" />
    <path
       style="fill:none;fill-rule:evenodd;stroke:#000000;stroke-width:2;stroke-linecap:butt;stroke-linejoin:miter;stroke-opacity:1;stroke-miterlimit:4;stroke-dasharray:none"
       d="M 30.408483,453.40722 L 50,453.40722 L 50,382.36218 L 70.649147,382.36218 L 70.649147,453.40722 L 450.59843,453.40722 L 450.59843,383.37556 L 470.64915,383.37556 L 470.64915,452.36218 L 656.08605,452.36218"
       id="path2499"
       inkscape:export-filename="/home/juan/desarrollo/curso-pic/pic16-dibujos/servos/pwm-ventanas.png"
       inkscape:export-xdpi="90"
       inkscape:export-ydpi="90"
       sodipodi:nodetypes="cccccccccc" />
    <path
       style="fill:none;fill-rule:evenodd;stroke:#000000;stroke-width:0.99999994;stroke-linecap:butt;stroke-linejoin:miter;stroke-miterlimit:4;stroke-dasharray:0.99999999, 2.99999997;stroke-dashoffset:0;stroke-opacity:1;display:inline"
       d="M 450.28745,452.04383 L 450.28745,483.74223"
       id="path3379"
       inkscape:export-filename="/home/juan/desarrollo/curso-pic/pic16-dibujos/servos/pwm-ventanas.png"
       inkscape:export-xdpi="90"
       inkscape:export-ydpi="90" />
    <path
       style="fill:none;fill-rule:evenodd;stroke:#000000;stroke-width:1px;stroke-linecap:butt;stroke-linejoin:miter;marker-start:url(#marker3728);marker-end:url(#marker3748);stroke-opacity:1;display:inline"
       d="M 54.777486,475.77513 L 447.09054,475.77513"
       id="path3381"
       inkscape:export-filename="/home/juan/desarrollo/curso-pic/pic16-dibujos/servos/pwm-ventanas.png"
       inkscape:export-xdpi="90"
       inkscape:export-ydpi="90" />
    <text
       xml:space="preserve"
       style="font-size:22.2942276px;font-style:normal;font-variant:normal;font-weight:normal;font-stretch:normal;text-align:start;line-height:125%;writing-mode:lr-tb;text-anchor:start;fill:#000000;fill-opacity:1;stroke:none;stroke-width:1px;stroke-linecap:butt;stroke-linejoin:miter;stroke-opacity:1;display:inline;font-family:Bitstream Vera Sans;-inkscape-font-specification:Bitstream Vera Sans"
       x="214.8839"
       y="499.83145"
       id="text3385"
       sodipodi:linespacing="125%"
       inkscape:export-filename="/home/juan/desarrollo/curso-pic/pic16-dibujos/servos/pwm-ventanas.png"
       inkscape:export-xdpi="90"
       inkscape:export-ydpi="90"
       transform="scale(0.9999271,1.0000729)"><tspan
         sodipodi:role="line"
         id="tspan3387"
         x="214.8839"
         y="499.83145">20ms</tspan></text>
    <path
       style="fill:none;fill-rule:evenodd;stroke:#000000;stroke-width:0.99999982px;stroke-linecap:butt;stroke-linejoin:miter;marker-start:url(#marker3728);marker-end:url(#marker3748);stroke-opacity:1;display:inline"
       d="M 51.277429,367.77972 L 97.848917,367.77972"
       id="path3390"
       inkscape:export-filename="/home/juan/desarrollo/curso-pic/pic16-dibujos/servos/pwm-ventanas.png"
       inkscape:export-xdpi="90"
       inkscape:export-ydpi="90" />
    <text
       xml:space="preserve"
       style="font-size:22.2942276px;font-style:normal;font-variant:normal;font-weight:normal;font-stretch:normal;text-align:start;line-height:125%;writing-mode:lr-tb;text-anchor:start;fill:#000000;fill-opacity:1;stroke:none;stroke-width:1px;stroke-linecap:butt;stroke-linejoin:miter;stroke-opacity:1;display:inline;font-family:Bitstream Vera Sans;-inkscape-font-specification:Bitstream Vera Sans"
       x="77.371674"
       y="416.51831"
       id="text2528"
       sodipodi:linespacing="125%"
       inkscape:export-filename="/home/juan/desarrollo/curso-pic/pic16-dibujos/servos/pwm-ventanas.png"
       inkscape:export-xdpi="90"
       inkscape:export-ydpi="90"
       transform="scale(0.9999271,1.0000729)"><tspan
         sodipodi:role="line"
         id="tspan2530"
         x="77.371674"
         y="416.51831">1</tspan></text>
    <text
       xml:space="preserve"
       style="font-size:22.2942276px;font-style:normal;font-variant:normal;font-weight:normal;font-stretch:normal;text-align:start;line-height:125%;writing-mode:lr-tb;text-anchor:start;fill:#000000;fill-opacity:1;stroke:none;stroke-width:1px;stroke-linecap:butt;stroke-linejoin:miter;stroke-opacity:1;display:inline;font-family:Bitstream Vera Sans;-inkscape-font-specification:Bitstream Vera Sans"
       x="117.24414"
       y="416.51831"
       id="text2532"
       sodipodi:linespacing="125%"
       inkscape:export-filename="/home/juan/desarrollo/curso-pic/pic16-dibujos/servos/pwm-ventanas.png"
       inkscape:export-xdpi="90"
       inkscape:export-ydpi="90"
       transform="scale(0.9999271,1.0000729)"><tspan
         sodipodi:role="line"
         id="tspan2534"
         x="117.24414"
         y="416.51831">2</tspan></text>
    <text
       xml:space="preserve"
       style="font-size:22.2942276px;font-style:normal;font-variant:normal;font-weight:normal;font-stretch:normal;text-align:start;line-height:125%;writing-mode:lr-tb;text-anchor:start;fill:#000000;fill-opacity:1;stroke:none;stroke-width:1px;stroke-linecap:butt;stroke-linejoin:miter;stroke-opacity:1;display:inline;font-family:Bitstream Vera Sans;-inkscape-font-specification:Bitstream Vera Sans"
       x="168.07086"
       y="416.51831"
       id="text2536"
       sodipodi:linespacing="125%"
       inkscape:export-filename="/home/juan/desarrollo/curso-pic/pic16-dibujos/servos/pwm-ventanas.png"
       inkscape:export-xdpi="90"
       inkscape:export-ydpi="90"
       transform="scale(0.9999271,1.0000729)"><tspan
         sodipodi:role="line"
         id="tspan2538"
         x="168.07086"
         y="416.51831">3</tspan></text>
    <text
       xml:space="preserve"
       style="font-size:22.2942276px;font-style:normal;font-variant:normal;font-weight:normal;font-stretch:normal;text-align:start;line-height:125%;writing-mode:lr-tb;text-anchor:start;fill:#000000;fill-opacity:1;stroke:none;stroke-width:1px;stroke-linecap:butt;stroke-linejoin:miter;stroke-opacity:1;display:inline;font-family:Bitstream Vera Sans;-inkscape-font-specification:Bitstream Vera Sans"
       x="217.59433"
       y="416.51831"
       id="text2540"
       sodipodi:linespacing="125%"
       inkscape:export-filename="/home/juan/desarrollo/curso-pic/pic16-dibujos/servos/pwm-ventanas.png"
       inkscape:export-xdpi="90"
       inkscape:export-ydpi="90"
       transform="scale(0.9999271,1.0000729)"><tspan
         sodipodi:role="line"
         id="tspan2542"
         x="217.59433"
         y="416.51831">4</tspan></text>
    <text
       xml:space="preserve"
       style="font-size:22.2942276px;font-style:normal;font-variant:normal;font-weight:normal;font-stretch:normal;text-align:start;line-height:125%;writing-mode:lr-tb;text-anchor:start;fill:#000000;fill-opacity:1;stroke:none;stroke-width:1px;stroke-linecap:butt;stroke-linejoin:miter;stroke-opacity:1;display:inline;font-family:Bitstream Vera Sans;-inkscape-font-specification:Bitstream Vera Sans"
       x="265.1629"
       y="416.51831"
       id="text2544"
       sodipodi:linespacing="125%"
       inkscape:export-filename="/home/juan/desarrollo/curso-pic/pic16-dibujos/servos/pwm-ventanas.png"
       inkscape:export-xdpi="90"
       inkscape:export-ydpi="90"
       transform="scale(0.9999271,1.0000729)"><tspan
         sodipodi:role="line"
         id="tspan2546"
         x="265.1629"
         y="416.51831">5</tspan></text>
    <text
       xml:space="preserve"
       style="font-size:22.2942276px;font-style:normal;font-variant:normal;font-weight:normal;font-stretch:normal;text-align:start;line-height:125%;writing-mode:lr-tb;text-anchor:start;fill:#000000;fill-opacity:1;stroke:none;stroke-width:1px;stroke-linecap:butt;stroke-linejoin:miter;stroke-opacity:1;display:inline;font-family:Bitstream Vera Sans;-inkscape-font-specification:Bitstream Vera Sans"
       x="314.03476"
       y="416.51831"
       id="text2548"
       sodipodi:linespacing="125%"
       inkscape:export-filename="/home/juan/desarrollo/curso-pic/pic16-dibujos/servos/pwm-ventanas.png"
       inkscape:export-xdpi="90"
       inkscape:export-ydpi="90"
       transform="scale(0.9999271,1.0000729)"><tspan
         sodipodi:role="line"
         id="tspan2550"
         x="314.03476"
         y="416.51831">6</tspan></text>
    <text
       xml:space="preserve"
       style="font-size:22.2942276px;font-style:normal;font-variant:normal;font-weight:normal;font-stretch:normal;text-align:start;line-height:125%;writing-mode:lr-tb;text-anchor:start;fill:#000000;fill-opacity:1;stroke:none;stroke-width:1px;stroke-linecap:butt;stroke-linejoin:miter;stroke-opacity:1;display:inline;font-family:Bitstream Vera Sans;-inkscape-font-specification:Bitstream Vera Sans"
       x="368.1196"
       y="416.51831"
       id="text2552"
       sodipodi:linespacing="125%"
       inkscape:export-filename="/home/juan/desarrollo/curso-pic/pic16-dibujos/servos/pwm-ventanas.png"
       inkscape:export-xdpi="90"
       inkscape:export-ydpi="90"
       transform="scale(0.9999271,1.0000729)"><tspan
         sodipodi:role="line"
         id="tspan2554"
         x="368.1196"
         y="416.51831">7</tspan></text>
    <text
       xml:space="preserve"
       style="font-size:22.2942276px;font-style:normal;font-variant:normal;font-weight:normal;font-stretch:normal;text-align:start;line-height:125%;writing-mode:lr-tb;text-anchor:start;fill:#000000;fill-opacity:1;stroke:none;stroke-width:1px;stroke-linecap:butt;stroke-linejoin:miter;stroke-opacity:1;display:inline;font-family:Bitstream Vera Sans;-inkscape-font-specification:Bitstream Vera Sans"
       x="418.94632"
       y="416.51831"
       id="text2556"
       sodipodi:linespacing="125%"
       inkscape:export-filename="/home/juan/desarrollo/curso-pic/pic16-dibujos/servos/pwm-ventanas.png"
       inkscape:export-xdpi="90"
       inkscape:export-ydpi="90"
       transform="scale(0.9999271,1.0000729)"><tspan
         sodipodi:role="line"
         id="tspan2558"
         x="418.94632"
         y="416.51831">8</tspan></text>
    <text
       xml:space="preserve"
       style="font-size:22.2942276px;font-style:normal;font-variant:normal;font-weight:normal;font-stretch:normal;text-align:start;line-height:125%;writing-mode:lr-tb;text-anchor:start;fill:#000000;fill-opacity:1;stroke:none;stroke-width:1px;stroke-linecap:butt;stroke-linejoin:miter;stroke-opacity:1;display:inline;font-family:Bitstream Vera Sans;-inkscape-font-specification:Bitstream Vera Sans"
       x="61.540878"
       y="360.65106"
       id="text2560"
       sodipodi:linespacing="125%"
       inkscape:export-filename="/home/juan/desarrollo/curso-pic/pic16-dibujos/servos/pwm-servo.png"
       inkscape:export-xdpi="90"
       inkscape:export-ydpi="90"
       transform="scale(0.9999271,1.0000729)"><tspan
         sodipodi:role="line"
         id="tspan2562"
         x="61.540878"
         y="360.65106" /></text>
    <text
       xml:space="preserve"
       style="font-size:22.2942276px;font-style:normal;font-variant:normal;font-weight:normal;font-stretch:normal;text-align:start;line-height:125%;writing-mode:lr-tb;text-anchor:start;fill:#000000;fill-opacity:1;stroke:none;stroke-width:1px;stroke-linecap:butt;stroke-linejoin:miter;stroke-opacity:1;display:inline;font-family:Bitstream Vera Sans;-inkscape-font-specification:Bitstream Vera Sans"
       x="53.815632"
       y="356.48056"
       id="text2564"
       sodipodi:linespacing="125%"
       inkscape:export-filename="/home/juan/desarrollo/curso-pic/pic16-dibujos/servos/pwm-ventanas.png"
       inkscape:export-xdpi="90"
       inkscape:export-ydpi="90"
       transform="scale(0.9999271,1.0000729)"><tspan
         sodipodi:role="line"
         id="tspan2566"
         x="53.815632"
         y="356.48056"
         style="font-size:14px">2.5ms</tspan></text>
    <path
       style="fill:none;fill-rule:evenodd;stroke:#000000;stroke-width:1;stroke-linecap:butt;stroke-linejoin:miter;stroke-miterlimit:4;stroke-dasharray:0.99999999, 2.9999999;stroke-dashoffset:0;stroke-opacity:1;display:inline"
       d="M 99.691292,358.22904 L 99.691292,462.26883"
       id="path2568"
       inkscape:export-filename="/home/juan/desarrollo/curso-pic/pic16-dibujos/servos/pwm-ventanas.png"
       inkscape:export-xdpi="90"
       inkscape:export-ydpi="90" />
    <path
       style="fill:none;fill-rule:evenodd;stroke:#000000;stroke-width:0.99999994;stroke-linecap:butt;stroke-linejoin:miter;stroke-miterlimit:4;stroke-dasharray:1.00000001, 2.99999994;stroke-dashoffset:0;stroke-opacity:1;display:inline"
       d="M 49.51986,357.90796 L 49.51986,379.79855"
       id="path2570"
       inkscape:export-filename="/home/juan/desarrollo/curso-pic/pic16-dibujos/servos/pwm-ventanas.png"
       inkscape:export-xdpi="90"
       inkscape:export-ydpi="90" />
    <path
       style="fill:none;fill-rule:evenodd;stroke:#000000;stroke-width:0.99999982px;stroke-linecap:butt;stroke-linejoin:miter;marker-start:url(#marker3728);marker-end:url(#marker3748);stroke-opacity:1;display:inline"
       d="M 102.10044,367.77972 L 148.67193,367.77972"
       id="path2572"
       inkscape:export-filename="/home/juan/desarrollo/curso-pic/pic16-dibujos/servos/pwm-ventanas.png"
       inkscape:export-xdpi="90"
       inkscape:export-ydpi="90" />
    <path
       style="fill:none;fill-rule:evenodd;stroke:#000000;stroke-width:1;stroke-linecap:butt;stroke-linejoin:miter;stroke-miterlimit:4;stroke-dasharray:0.99999999, 2.9999999;stroke-dashoffset:0;stroke-opacity:1;display:inline"
       d="M 149.86273,358.22904 L 149.86273,462.26883"
       id="path2576"
       inkscape:export-filename="/home/juan/desarrollo/curso-pic/pic16-dibujos/servos/pwm-ventanas.png"
       inkscape:export-xdpi="90"
       inkscape:export-ydpi="90" />
    <path
       style="fill:none;fill-rule:evenodd;stroke:#000000;stroke-width:1;stroke-linecap:butt;stroke-linejoin:miter;stroke-miterlimit:4;stroke-dasharray:0.99999999, 2.9999999;stroke-dashoffset:0;stroke-opacity:1;display:inline"
       d="M 200.03417,358.22904 L 200.03417,462.26883"
       id="path2578"
       inkscape:export-filename="/home/juan/desarrollo/curso-pic/pic16-dibujos/servos/pwm-ventanas.png"
       inkscape:export-xdpi="90"
       inkscape:export-ydpi="90" />
    <path
       style="fill:none;fill-rule:evenodd;stroke:#000000;stroke-width:1;stroke-linecap:butt;stroke-linejoin:miter;stroke-miterlimit:4;stroke-dasharray:0.99999999, 2.9999999;stroke-dashoffset:0;stroke-opacity:1;display:inline"
       d="M 250.20561,358.22904 L 250.20561,462.26883"
       id="path2580"
       inkscape:export-filename="/home/juan/desarrollo/curso-pic/pic16-dibujos/servos/pwm-ventanas.png"
       inkscape:export-xdpi="90"
       inkscape:export-ydpi="90" />
    <path
       style="fill:none;fill-rule:evenodd;stroke:#000000;stroke-width:1;stroke-linecap:butt;stroke-linejoin:miter;stroke-miterlimit:4;stroke-dasharray:0.99999999, 2.9999999;stroke-dashoffset:0;stroke-opacity:1;display:inline"
       d="M 299.72547,358.22904 L 299.72547,462.26883"
       id="path2582"
       inkscape:export-filename="/home/juan/desarrollo/curso-pic/pic16-dibujos/servos/pwm-ventanas.png"
       inkscape:export-xdpi="90"
       inkscape:export-ydpi="90" />
    <path
       style="fill:none;fill-rule:evenodd;stroke:#000000;stroke-width:1;stroke-linecap:butt;stroke-linejoin:miter;stroke-miterlimit:4;stroke-dasharray:0.99999999, 2.9999999;stroke-dashoffset:0;stroke-opacity:1;display:inline"
       d="M 350.54848,358.22904 L 350.54848,462.26883"
       id="path2584"
       inkscape:export-filename="/home/juan/desarrollo/curso-pic/pic16-dibujos/servos/pwm-ventanas.png"
       inkscape:export-xdpi="90"
       inkscape:export-ydpi="90" />
    <path
       style="fill:none;fill-rule:evenodd;stroke:#000000;stroke-width:1;stroke-linecap:butt;stroke-linejoin:miter;stroke-miterlimit:4;stroke-dasharray:0.99999999, 2.9999999;stroke-dashoffset:0;stroke-opacity:1;display:inline"
       d="M 400.06834,358.22904 L 400.06834,462.26883"
       id="path2586"
       inkscape:export-filename="/home/juan/desarrollo/curso-pic/pic16-dibujos/servos/pwm-ventanas.png"
       inkscape:export-xdpi="90"
       inkscape:export-ydpi="90" />
    <path
       style="fill:none;fill-rule:evenodd;stroke:#000000;stroke-width:1;stroke-linecap:butt;stroke-linejoin:miter;stroke-miterlimit:4;stroke-dasharray:0.99999999, 2.9999999;stroke-dashoffset:0;stroke-opacity:1;display:inline"
       d="M 450.23978,358.22904 L 450.23978,462.26883"
       id="path2588"
       inkscape:export-filename="/home/juan/desarrollo/curso-pic/pic16-dibujos/servos/pwm-ventanas.png"
       inkscape:export-xdpi="90"
       inkscape:export-ydpi="90" />
    <path
       style="fill:none;fill-rule:evenodd;stroke:#000000;stroke-width:0.99999982px;stroke-linecap:butt;stroke-linejoin:miter;marker-start:url(#marker3728);marker-end:url(#marker3748);stroke-opacity:1;display:inline"
       d="M 152.27188,367.77972 L 198.84337,367.77972"
       id="path2590"
       inkscape:export-filename="/home/juan/desarrollo/curso-pic/pic16-dibujos/servos/pwm-ventanas.png"
       inkscape:export-xdpi="90"
       inkscape:export-ydpi="90" />
    <path
       style="fill:none;fill-rule:evenodd;stroke:#000000;stroke-width:0.99999982px;stroke-linecap:butt;stroke-linejoin:miter;marker-start:url(#marker3728);marker-end:url(#marker3748);stroke-opacity:1;display:inline"
       d="M 201.79174,367.77972 L 248.36323,367.77972"
       id="path2592"
       inkscape:export-filename="/home/juan/desarrollo/curso-pic/pic16-dibujos/servos/pwm-ventanas.png"
       inkscape:export-xdpi="90"
       inkscape:export-ydpi="90" />
    <path
       style="fill:none;fill-rule:evenodd;stroke:#000000;stroke-width:0.99999982px;stroke-linecap:butt;stroke-linejoin:miter;marker-start:url(#marker3728);marker-end:url(#marker3748);stroke-opacity:1;display:inline"
       d="M 251.96318,367.77972 L 298.53467,367.77972"
       id="path2594"
       inkscape:export-filename="/home/juan/desarrollo/curso-pic/pic16-dibujos/servos/pwm-ventanas.png"
       inkscape:export-xdpi="90"
       inkscape:export-ydpi="90" />
    <path
       style="fill:none;fill-rule:evenodd;stroke:#000000;stroke-width:0.99999982px;stroke-linecap:butt;stroke-linejoin:miter;marker-start:url(#marker3728);marker-end:url(#marker3748);stroke-opacity:1;display:inline"
       d="M 302.78619,367.77972 L 349.35768,367.77972"
       id="path2596"
       inkscape:export-filename="/home/juan/desarrollo/curso-pic/pic16-dibujos/servos/pwm-ventanas.png"
       inkscape:export-xdpi="90"
       inkscape:export-ydpi="90" />
    <path
       style="fill:none;fill-rule:evenodd;stroke:#000000;stroke-width:0.99999982px;stroke-linecap:butt;stroke-linejoin:miter;marker-start:url(#marker3728);marker-end:url(#marker3748);stroke-opacity:1;display:inline"
       d="M 352.30605,367.77972 L 398.87754,367.77972"
       id="path2598"
       inkscape:export-filename="/home/juan/desarrollo/curso-pic/pic16-dibujos/servos/pwm-ventanas.png"
       inkscape:export-xdpi="90"
       inkscape:export-ydpi="90" />
    <path
       style="fill:none;fill-rule:evenodd;stroke:#000000;stroke-width:0.99999982px;stroke-linecap:butt;stroke-linejoin:miter;marker-start:url(#marker3728);marker-end:url(#marker3748);stroke-opacity:1;display:inline"
       d="M 402.47749,367.77972 L 449.04898,367.77972"
       id="path2600"
       inkscape:export-filename="/home/juan/desarrollo/curso-pic/pic16-dibujos/servos/pwm-ventanas.png"
       inkscape:export-xdpi="90"
       inkscape:export-ydpi="90" />
    <text
       xml:space="preserve"
       style="font-size:22.2942276px;font-style:normal;font-variant:normal;font-weight:normal;font-stretch:normal;text-align:start;line-height:125%;writing-mode:lr-tb;text-anchor:start;fill:#000000;fill-opacity:1;stroke:none;stroke-width:1px;stroke-linecap:butt;stroke-linejoin:miter;stroke-opacity:1;display:inline;font-family:Bitstream Vera Sans;-inkscape-font-specification:Bitstream Vera Sans"
       x="147.21721"
       y="342.33963"
       id="text2602"
       sodipodi:linespacing="125%"
       inkscape:export-filename="/home/juan/desarrollo/curso-pic/pic16-dibujos/servos/pwm-ventanas.png"
       inkscape:export-xdpi="90"
       inkscape:export-ydpi="90"
       transform="scale(0.9999271,1.0000729)"><tspan
         sodipodi:role="line"
         id="tspan2604"
         x="147.21721"
         y="342.33963"
         style="fill:#0000ff">Ventanas de 2.5ms</tspan></text>
  </g>
</svg>
