<?xml version="1.0" encoding="UTF-8" standalone="no"?>
<!-- Created with Inkscape (http://www.inkscape.org/) -->
<svg
   xmlns:dc="http://purl.org/dc/elements/1.1/"
   xmlns:cc="http://creativecommons.org/ns#"
   xmlns:rdf="http://www.w3.org/1999/02/22-rdf-syntax-ns#"
   xmlns:svg="http://www.w3.org/2000/svg"
   xmlns="http://www.w3.org/2000/svg"
   xmlns:sodipodi="http://sodipodi.sourceforge.net/DTD/sodipodi-0.dtd"
   xmlns:inkscape="http://www.inkscape.org/namespaces/inkscape"
   width="210mm"
   height="297mm"
   id="svg2"
   sodipodi:version="0.32"
   inkscape:version="0.46"
   version="1.0"
   sodipodi:docname="comunicacion-serie-sincrona.svg"
   inkscape:output_extension="org.inkscape.output.svg.inkscape">
  <defs
     id="defs4">
    <marker
       inkscape:stockid="TriangleOutM"
       orient="auto"
       refY="0"
       refX="0"
       id="TriangleOutM"
       style="overflow:visible">
      <path
         id="path3793"
         d="M 5.77,0 L -2.88,5 L -2.88,-5 L 5.77,0 z"
         style="fill-rule:evenodd;stroke:#000000;stroke-width:1pt;marker-start:none"
         transform="scale(0.4,0.4)" />
    </marker>
    <marker
       inkscape:stockid="Arrow2Mend"
       orient="auto"
       refY="0"
       refX="0"
       id="Arrow2Mend"
       style="overflow:visible">
      <path
         id="path3674"
         style="font-size:12px;fill-rule:evenodd;stroke-width:0.625;stroke-linejoin:round"
         d="M 8.7185878,4.0337352 L -2.2072895,0.016013256 L 8.7185884,-4.0017078 C 6.97309,-1.6296469 6.9831476,1.6157441 8.7185878,4.0337352 z"
         transform="scale(-0.6,-0.6)" />
    </marker>
    <inkscape:perspective
       sodipodi:type="inkscape:persp3d"
       inkscape:vp_x="0 : 526.18109 : 1"
       inkscape:vp_y="0 : 1000 : 0"
       inkscape:vp_z="744.09448 : 526.18109 : 1"
       inkscape:persp3d-origin="372.04724 : 350.78739 : 1"
       id="perspective10" />
    <inkscape:perspective
       id="perspective2845"
       inkscape:persp3d-origin="372.04724 : 350.78739 : 1"
       inkscape:vp_z="744.09448 : 526.18109 : 1"
       inkscape:vp_y="0 : 1000 : 0"
       inkscape:vp_x="0 : 526.18109 : 1"
       sodipodi:type="inkscape:persp3d" />
    <inkscape:perspective
       id="perspective2533"
       inkscape:persp3d-origin="372.04724 : 350.78739 : 1"
       inkscape:vp_z="744.09448 : 526.18109 : 1"
       inkscape:vp_y="0 : 1000 : 0"
       inkscape:vp_x="0 : 526.18109 : 1"
       sodipodi:type="inkscape:persp3d" />
  </defs>
  <sodipodi:namedview
     id="base"
     pagecolor="#ffffff"
     bordercolor="#666666"
     borderopacity="1.0"
     inkscape:pageopacity="0.0"
     inkscape:pageshadow="2"
     inkscape:zoom="0.7"
     inkscape:cx="364.30992"
     inkscape:cy="801.04048"
     inkscape:document-units="px"
     inkscape:current-layer="layer1"
     showgrid="false"
     showguides="true"
     inkscape:guide-bbox="true"
     inkscape:window-width="1680"
     inkscape:window-height="974"
     inkscape:window-x="0"
     inkscape:window-y="24" />
  <metadata
     id="metadata7">
    <rdf:RDF>
      <cc:Work
         rdf:about="">
        <dc:format>image/svg+xml</dc:format>
        <dc:type
           rdf:resource="http://purl.org/dc/dcmitype/StillImage" />
      </cc:Work>
    </rdf:RDF>
  </metadata>
  <g
     inkscape:label="Capa 1"
     inkscape:groupmode="layer"
     id="layer1">
    <rect
       style="fill:#ececec;fill-opacity:1;stroke:#000000;stroke-width:2;stroke-linecap:round;stroke-linejoin:round;stroke-miterlimit:4;stroke-dasharray:none;stroke-dashoffset:0;stroke-opacity:1"
       id="rect5466"
       width="142.43152"
       height="135.17841"
       x="478.81229"
       y="110.90001"
       inkscape:export-filename="/home/juan/desarrollo/curso-pic/pic16-dibujos/SCI/comunicacion-serie-sincrona.png"
       inkscape:export-xdpi="90"
       inkscape:export-ydpi="90" />
    <rect
       style="fill:#ececec;fill-opacity:1;stroke:#000000;stroke-width:2;stroke-linecap:round;stroke-linejoin:round;stroke-miterlimit:4;stroke-dasharray:none;stroke-dashoffset:0;stroke-opacity:1"
       id="rect2870"
       width="142.43152"
       height="135.17841"
       x="71.720825"
       y="110.90001"
       inkscape:export-filename="/home/juan/desarrollo/curso-pic/pic16-dibujos/SCI/comunicacion-serie-sincrona.png"
       inkscape:export-xdpi="90"
       inkscape:export-ydpi="90" />
    <path
       style="fill:none;fill-rule:evenodd;stroke:#000000;stroke-width:2;stroke-linecap:butt;stroke-linejoin:miter;stroke-miterlimit:4;stroke-dasharray:none;stroke-opacity:1"
       d="M 242.4366,146.25534 L 262.56542,146.25534 L 262.56542,126.70401 L 284.03617,126.70401 L 284.03617,146.25534 L 325.63574,146.25534 L 325.63574,126.70401 L 367.23531,126.70401 L 367.23531,146.25534 L 388.70606,146.25534 L 388.70606,126.0523 L 408.83489,126.0523 L 408.83489,146.25534 L 430,146.25534"
       id="path2854"
       inkscape:export-filename="/home/juan/desarrollo/curso-pic/pic16-dibujos/SCI/comunicacion-serie-sincrona.png"
       inkscape:export-xdpi="90"
       inkscape:export-ydpi="90"
       sodipodi:nodetypes="cccccccccccccc" />
    <text
       xml:space="preserve"
       style="font-size:16px;font-style:normal;font-weight:normal;fill:#000000;fill-opacity:1;stroke:none;stroke-width:1px;stroke-linecap:butt;stroke-linejoin:miter;stroke-opacity:1;font-family:Bitstream Vera Sans"
       x="229.30463"
       y="599.81384"
       id="text2856"><tspan
         sodipodi:role="line"
         id="tspan2858"
         x="229.30463"
         y="599.81384" /></text>
    <text
       xml:space="preserve"
       style="font-size:16px;font-style:normal;font-variant:normal;font-weight:bold;font-stretch:normal;text-align:start;line-height:125%;writing-mode:lr-tb;text-anchor:start;fill:#000000;fill-opacity:1;stroke:none;stroke-width:1px;stroke-linecap:butt;stroke-linejoin:miter;stroke-opacity:1;font-family:Bitstream Vera Sans;-inkscape-font-specification:Bitstream Vera Sans Bold"
       x="98.994965"
       y="142.21478"
       id="text2860"
       sodipodi:linespacing="125%"
       inkscape:export-filename="/home/juan/desarrollo/curso-pic/pic16-dibujos/SCI/comunicacion-serie-sincrona.png"
       inkscape:export-xdpi="90"
       inkscape:export-ydpi="90"><tspan
         sodipodi:role="line"
         id="tspan2862"
         x="98.994965"
         y="142.21478">Sistema 1</tspan></text>
    <text
       xml:space="preserve"
       style="font-size:16px;font-style:normal;font-variant:normal;font-weight:bold;font-stretch:normal;text-align:start;line-height:125%;writing-mode:lr-tb;text-anchor:start;fill:#000000;fill-opacity:1;stroke:none;stroke-width:1px;stroke-linecap:butt;stroke-linejoin:miter;stroke-opacity:1;font-family:Bitstream Vera Sans;-inkscape-font-specification:Bitstream Vera Sans Bold"
       x="504.06616"
       y="141.20459"
       id="text2864"
       sodipodi:linespacing="125%"
       inkscape:export-filename="/home/juan/desarrollo/curso-pic/pic16-dibujos/SCI/comunicacion-serie-sincrona.png"
       inkscape:export-xdpi="90"
       inkscape:export-ydpi="90"><tspan
         sodipodi:role="line"
         id="tspan2868"
         x="504.06616"
         y="141.20459">Sistema 2</tspan></text>
    <path
       style="fill:none;fill-rule:evenodd;stroke:#000000;stroke-width:2;stroke-linecap:butt;stroke-linejoin:miter;marker-end:url(#Arrow2Mend);stroke-miterlimit:4;stroke-dasharray:none;stroke-opacity:1"
       d="M 214.15234,158.37718 L 475.78185,158.37718"
       id="path3642"
       sodipodi:nodetypes="cc"
       inkscape:export-filename="/home/juan/desarrollo/curso-pic/pic16-dibujos/SCI/comunicacion-serie-sincrona.png"
       inkscape:export-xdpi="90"
       inkscape:export-ydpi="90" />
    <text
       xml:space="preserve"
       style="font-size:16px;font-style:normal;font-weight:normal;fill:#000000;fill-opacity:1;stroke:none;stroke-width:1px;stroke-linecap:butt;stroke-linejoin:miter;stroke-opacity:1;font-family:Bitstream Vera Sans"
       x="269.71075"
       y="178.80681"
       id="text5468"
       inkscape:export-filename="/home/juan/desarrollo/curso-pic/pic16-dibujos/SCI/comunicacion-serie-sincrona.png"
       inkscape:export-xdpi="90"
       inkscape:export-ydpi="90"><tspan
         sodipodi:role="line"
         id="tspan5470"
         x="269.71075"
         y="178.80681">1</tspan></text>
    <text
       xml:space="preserve"
       style="font-size:16px;font-style:normal;font-weight:normal;fill:#000000;fill-opacity:1;stroke:none;stroke-width:1px;stroke-linecap:butt;stroke-linejoin:miter;stroke-opacity:1;font-family:Bitstream Vera Sans"
       x="288.90366"
       y="178.58025"
       id="text5472"
       inkscape:export-filename="/home/juan/desarrollo/curso-pic/pic16-dibujos/SCI/comunicacion-serie-sincrona.png"
       inkscape:export-xdpi="90"
       inkscape:export-ydpi="90"><tspan
         sodipodi:role="line"
         id="tspan5474"
         x="288.90366"
         y="178.58025">0</tspan></text>
    <text
       xml:space="preserve"
       style="font-size:16px;font-style:normal;font-weight:normal;fill:#000000;fill-opacity:1;stroke:none;stroke-width:1px;stroke-linecap:butt;stroke-linejoin:miter;stroke-opacity:1;font-family:Bitstream Vera Sans"
       x="309.61179"
       y="178.58025"
       id="text5476"
       inkscape:export-filename="/home/juan/desarrollo/curso-pic/pic16-dibujos/SCI/comunicacion-serie-sincrona.png"
       inkscape:export-xdpi="90"
       inkscape:export-ydpi="90"><tspan
         sodipodi:role="line"
         id="tspan5478"
         x="309.61179"
         y="178.58025">0</tspan></text>
    <text
       xml:space="preserve"
       style="font-size:16px;font-style:normal;font-weight:normal;fill:#000000;fill-opacity:1;stroke:none;stroke-width:1px;stroke-linecap:butt;stroke-linejoin:miter;stroke-opacity:1;font-family:Bitstream Vera Sans"
       x="332.34021"
       y="178.80681"
       id="text5480"
       inkscape:export-filename="/home/juan/desarrollo/curso-pic/pic16-dibujos/SCI/comunicacion-serie-sincrona.png"
       inkscape:export-xdpi="90"
       inkscape:export-ydpi="90"><tspan
         sodipodi:role="line"
         id="tspan5482"
         x="332.34021"
         y="178.80681">1</tspan></text>
    <text
       xml:space="preserve"
       style="font-size:16px;font-style:normal;font-weight:normal;fill:#000000;fill-opacity:1;stroke:none;stroke-width:1px;stroke-linecap:butt;stroke-linejoin:miter;stroke-opacity:1;font-family:Bitstream Vera Sans"
       x="352.54327"
       y="178.80681"
       id="text5484"
       inkscape:export-filename="/home/juan/desarrollo/curso-pic/pic16-dibujos/SCI/comunicacion-serie-sincrona.png"
       inkscape:export-xdpi="90"
       inkscape:export-ydpi="90"><tspan
         sodipodi:role="line"
         id="tspan5486"
         x="352.54327"
         y="178.80681">1</tspan></text>
    <text
       xml:space="preserve"
       style="font-size:16px;font-style:normal;font-weight:normal;fill:#000000;fill-opacity:1;stroke:none;stroke-width:1px;stroke-linecap:butt;stroke-linejoin:miter;stroke-opacity:1;font-family:Bitstream Vera Sans"
       x="371.73618"
       y="178.58025"
       id="text5488"
       inkscape:export-filename="/home/juan/desarrollo/curso-pic/pic16-dibujos/SCI/comunicacion-serie-sincrona.png"
       inkscape:export-xdpi="90"
       inkscape:export-ydpi="90"><tspan
         sodipodi:role="line"
         id="tspan5490"
         x="371.73618"
         y="178.58025">0</tspan></text>
    <text
       xml:space="preserve"
       style="font-size:16px;font-style:normal;font-weight:normal;fill:#000000;fill-opacity:1;stroke:none;stroke-width:1px;stroke-linecap:butt;stroke-linejoin:miter;stroke-opacity:1;font-family:Bitstream Vera Sans"
       x="394.4646"
       y="178.80681"
       id="text5492"
       inkscape:export-filename="/home/juan/desarrollo/curso-pic/pic16-dibujos/SCI/comunicacion-serie-sincrona.png"
       inkscape:export-xdpi="90"
       inkscape:export-ydpi="90"><tspan
         sodipodi:role="line"
         id="tspan5494"
         x="394.4646"
         y="178.80681">1</tspan></text>
    <text
       xml:space="preserve"
       style="font-size:16px;font-style:normal;font-weight:normal;fill:#000000;fill-opacity:1;stroke:none;stroke-width:1px;stroke-linecap:butt;stroke-linejoin:miter;stroke-opacity:1;font-family:Bitstream Vera Sans"
       x="414.66766"
       y="178.58025"
       id="text5496"
       inkscape:export-filename="/home/juan/desarrollo/curso-pic/pic16-dibujos/SCI/comunicacion-serie-sincrona.png"
       inkscape:export-xdpi="90"
       inkscape:export-ydpi="90"><tspan
         sodipodi:role="line"
         id="tspan5498"
         x="414.66766"
         y="178.58025">0</tspan></text>
    <path
       style="fill:none;fill-rule:evenodd;stroke:#000000;stroke-width:1.00000012;stroke-linecap:butt;stroke-linejoin:miter;stroke-miterlimit:4;stroke-dasharray:4.00000009, 2.00000005;stroke-dashoffset:0;stroke-opacity:1"
       d="M 261.62951,115.38007 L 261.62951,193.73253"
       id="path5502"
       inkscape:export-filename="/home/juan/desarrollo/curso-pic/pic16-dibujos/SCI/comunicacion-serie-sincrona.png"
       inkscape:export-xdpi="90"
       inkscape:export-ydpi="90" />
    <path
       style="fill:none;fill-rule:evenodd;stroke:#000000;stroke-width:1.00000012;stroke-linecap:butt;stroke-linejoin:miter;stroke-miterlimit:4;stroke-dasharray:4.00000009, 2.00000005;stroke-dashoffset:0;stroke-opacity:1"
       d="M 284.35794,115.38007 L 284.35794,193.73253"
       id="path5504"
       inkscape:export-filename="/home/juan/desarrollo/curso-pic/pic16-dibujos/SCI/comunicacion-serie-sincrona.png"
       inkscape:export-xdpi="90"
       inkscape:export-ydpi="90" />
    <path
       style="fill:none;fill-rule:evenodd;stroke:#000000;stroke-width:1.00000012;stroke-linecap:butt;stroke-linejoin:miter;stroke-miterlimit:4;stroke-dasharray:4.00000009, 2.00000005;stroke-dashoffset:0;stroke-opacity:1"
       d="M 304.56099,115.38007 L 304.56099,193.73253"
       id="path5506"
       inkscape:export-filename="/home/juan/desarrollo/curso-pic/pic16-dibujos/SCI/comunicacion-serie-sincrona.png"
       inkscape:export-xdpi="90"
       inkscape:export-ydpi="90" />
    <path
       style="fill:none;fill-rule:evenodd;stroke:#000000;stroke-width:1.00000012;stroke-linecap:butt;stroke-linejoin:miter;stroke-miterlimit:4;stroke-dasharray:4.00000009, 2.00000005;stroke-dashoffset:0;stroke-opacity:1"
       d="M 325.77419,115.38007 L 325.77419,193.73253"
       id="path5508"
       inkscape:export-filename="/home/juan/desarrollo/curso-pic/pic16-dibujos/SCI/comunicacion-serie-sincrona.png"
       inkscape:export-xdpi="90"
       inkscape:export-ydpi="90" />
    <path
       style="fill:none;fill-rule:evenodd;stroke:#000000;stroke-width:1.00000012;stroke-linecap:butt;stroke-linejoin:miter;stroke-miterlimit:4;stroke-dasharray:4.00000009, 2.00000005;stroke-dashoffset:0;stroke-opacity:1"
       d="M 346.98739,115.38007 L 346.98739,193.73253"
       id="path5510"
       inkscape:export-filename="/home/juan/desarrollo/curso-pic/pic16-dibujos/SCI/comunicacion-serie-sincrona.png"
       inkscape:export-xdpi="90"
       inkscape:export-ydpi="90" />
    <path
       style="fill:none;fill-rule:evenodd;stroke:#000000;stroke-width:1.00000012;stroke-linecap:butt;stroke-linejoin:miter;stroke-miterlimit:4;stroke-dasharray:4.00000009, 2.00000005;stroke-dashoffset:0;stroke-opacity:1"
       d="M 366.68536,115.38007 L 366.68536,193.73253"
       id="path5512"
       inkscape:export-filename="/home/juan/desarrollo/curso-pic/pic16-dibujos/SCI/comunicacion-serie-sincrona.png"
       inkscape:export-xdpi="90"
       inkscape:export-ydpi="90" />
    <path
       style="fill:none;fill-rule:evenodd;stroke:#000000;stroke-width:1.00000012;stroke-linecap:butt;stroke-linejoin:miter;stroke-miterlimit:4;stroke-dasharray:4.00000009, 2.00000005;stroke-dashoffset:0;stroke-opacity:1"
       d="M 388.40364,115.38007 L 388.40364,193.73253"
       id="path5514"
       inkscape:export-filename="/home/juan/desarrollo/curso-pic/pic16-dibujos/SCI/comunicacion-serie-sincrona.png"
       inkscape:export-xdpi="90"
       inkscape:export-ydpi="90" />
    <path
       style="fill:none;fill-rule:evenodd;stroke:#000000;stroke-width:1.00000012;stroke-linecap:butt;stroke-linejoin:miter;stroke-miterlimit:4;stroke-dasharray:4.00000009, 2.00000005;stroke-dashoffset:0;stroke-opacity:1"
       d="M 409.11177,115.38007 L 409.11177,193.73253"
       id="path5516"
       inkscape:export-filename="/home/juan/desarrollo/curso-pic/pic16-dibujos/SCI/comunicacion-serie-sincrona.png"
       inkscape:export-xdpi="90"
       inkscape:export-ydpi="90" />
    <path
       style="fill:none;fill-rule:evenodd;stroke:#000000;stroke-width:1.00000012;stroke-linecap:butt;stroke-linejoin:miter;stroke-miterlimit:4;stroke-dasharray:4.00000009, 2.00000005;stroke-dashoffset:0;stroke-opacity:1"
       d="M 429.8199,115.38007 L 429.8199,193.73253"
       id="path5518"
       inkscape:export-filename="/home/juan/desarrollo/curso-pic/pic16-dibujos/SCI/comunicacion-serie-sincrona.png"
       inkscape:export-xdpi="90"
       inkscape:export-ydpi="90" />
    <text
       xml:space="preserve"
       style="font-size:16px;font-style:normal;font-weight:normal;fill:#000000;fill-opacity:1;stroke:none;stroke-width:1px;stroke-linecap:butt;stroke-linejoin:miter;stroke-opacity:1;font-family:Bitstream Vera Sans"
       x="101.01524"
       y="91.707138"
       id="text5520"
       inkscape:export-filename="/home/juan/desarrollo/curso-pic/pic16-dibujos/SCI/comunicacion-serie-sincrona.png"
       inkscape:export-xdpi="90"
       inkscape:export-ydpi="90"><tspan
         sodipodi:role="line"
         id="tspan5522"
         x="101.01524"
         y="91.707138">01011001</tspan></text>
    <text
       xml:space="preserve"
       style="font-size:16px;font-style:normal;font-weight:normal;fill:#000000;fill-opacity:1;stroke:none;stroke-width:1px;stroke-linecap:butt;stroke-linejoin:miter;stroke-opacity:1;font-family:Bitstream Vera Sans"
       x="508.10675"
       y="91.707138"
       id="text5524"
       inkscape:export-filename="/home/juan/desarrollo/curso-pic/pic16-dibujos/SCI/comunicacion-serie-sincrona.png"
       inkscape:export-xdpi="90"
       inkscape:export-ydpi="90"><tspan
         sodipodi:role="line"
         id="tspan5526"
         x="508.10675"
         y="91.707138">01011001</tspan></text>
    <g
       id="g4407"
       transform="matrix(0.5395356,0,0,0.5395356,-56.434642,38.371913)"
       inkscape:export-filename="/home/juan/desarrollo/curso-pic/pic16-dibujos/SCI/comunicacion-serie-sincrona.png"
       inkscape:export-xdpi="90"
       inkscape:export-ydpi="90">
      <path
         d="M 370.72597,334.6488 A 30.809652,30.809652 0 1 1 309.10667,334.6488 A 30.809652,30.809652 0 1 1 370.72597,334.6488 z"
         sodipodi:ry="30.809652"
         sodipodi:rx="30.809652"
         sodipodi:cy="334.6488"
         sodipodi:cx="339.91632"
         id="path3862"
         style="fill:#ffffff;fill-opacity:1;stroke:#000000;stroke-width:3.70689154;stroke-linecap:round;stroke-linejoin:round;stroke-miterlimit:4;stroke-dasharray:none;stroke-dashoffset:0;stroke-opacity:1"
         sodipodi:type="arc" />
      <path
         id="path3868"
         d="M 340.42141,303.83914 L 340.42141,313.43559"
         style="fill:none;fill-rule:evenodd;stroke:#000000;stroke-width:1.85344577px;stroke-linecap:butt;stroke-linejoin:miter;stroke-opacity:1" />
      <path
         id="path3870"
         d="M 340.42141,355.862 L 340.42141,365.45845"
         style="fill:none;fill-rule:evenodd;stroke:#000000;stroke-width:1.85344577px;stroke-linecap:butt;stroke-linejoin:miter;stroke-opacity:1" />
      <path
         id="path3872"
         d="M 309.10668,335.15387 L 316.68282,335.15387"
         style="fill:none;fill-rule:evenodd;stroke:#000000;stroke-width:1.85344577px;stroke-linecap:butt;stroke-linejoin:miter;stroke-opacity:1" />
      <path
         id="path3874"
         d="M 362.64477,335.15387 L 370.22091,335.15387"
         style="fill:none;fill-rule:evenodd;stroke:#000000;stroke-width:1.85344577px;stroke-linecap:butt;stroke-linejoin:miter;stroke-opacity:1" />
      <path
         id="path3876"
         d="M 317.69298,313.43559 L 321.48105,317.22367"
         style="fill:none;fill-rule:evenodd;stroke:#000000;stroke-width:1.85344577px;stroke-linecap:butt;stroke-linejoin:miter;stroke-opacity:1" />
      <path
         id="path3878"
         d="M 356.58385,352.32646 L 360.37192,356.11454"
         style="fill:none;fill-rule:evenodd;stroke:#000000;stroke-width:1.85344577px;stroke-linecap:butt;stroke-linejoin:miter;stroke-opacity:1" />
      <path
         id="path3880"
         d="M 318.20167,356.38321 L 321.98975,352.59515"
         style="fill:none;fill-rule:evenodd;stroke:#000000;stroke-width:1.85344577px;stroke-linecap:butt;stroke-linejoin:miter;stroke-opacity:1" />
      <path
         id="path3882"
         d="M 356.05881,316.02607 L 359.84689,312.23801"
         style="fill:none;fill-rule:evenodd;stroke:#000000;stroke-width:1.85344577px;stroke-linecap:butt;stroke-linejoin:miter;stroke-opacity:1" />
      <path
         id="path3884"
         d="M 340,335.21932 L 361.42857,321.64789"
         style="fill:none;fill-rule:evenodd;stroke:#000000;stroke-width:1.85344577px;stroke-linecap:butt;stroke-linejoin:miter;marker-end:url(#Arrow2Mend);stroke-opacity:1" />
    </g>
    <path
       style="fill:none;fill-rule:evenodd;stroke:#000000;stroke-width:2;stroke-linecap:butt;stroke-linejoin:miter;marker-end:url(#Arrow2Mend);stroke-miterlimit:4;stroke-dasharray:none;stroke-opacity:1"
       d="M 214.15234,225.52003 L 475.78185,225.52003"
       id="path2453"
       sodipodi:nodetypes="cc"
       inkscape:export-filename="/home/juan/desarrollo/curso-pic/pic16-dibujos/SCI/comunicacion-serie-sincrona.png"
       inkscape:export-xdpi="90"
       inkscape:export-ydpi="90" />
    <path
       style="fill:none;fill-rule:evenodd;stroke:#000000;stroke-width:0.99999994px;stroke-linecap:butt;stroke-linejoin:miter;stroke-opacity:1"
       d="M 251.23937,218.07647 L 261.8709,218.07647 L 261.8709,198.79075 L 273.14296,198.79075 L 273.14296,218.48126 L 284.4194,218.48126 L 284.4194,198.07647 L 294.64286,198.07647 L 294.64286,218.07647 L 304.28571,218.07647 L 304.28571,198.43361 L 315,198.43361 L 315,218.07647 L 325.35714,218.07647 L 325.35714,198.07647 L 336.07143,198.07647 L 336.07143,218.43361 L 346.42857,218.43361 L 346.42857,198.43361 L 356.78571,198.43361 L 356.78571,218.07647 L 366.42857,218.07647 L 366.42857,198.43361 L 377.5,198.43361 L 377.5,217.71932 L 389.64286,217.71932 L 389.64286,197.71932 L 399.64286,197.71932 L 399.64286,217.71932 L 409.28571,217.71932 L 409.28571,198.07647 L 419.28571,198.07647 L 419.28571,217.71932 L 431.07143,217.71932"
       id="path2477"
       sodipodi:nodetypes="ccccccc"
       inkscape:export-filename="/home/juan/desarrollo/curso-pic/pic16-dibujos/SCI/comunicacion-serie-sincrona.png"
       inkscape:export-xdpi="90"
       inkscape:export-ydpi="90" />
    <text
       xml:space="preserve"
       style="font-size:16px;font-style:normal;font-weight:normal;fill:#000000;fill-opacity:1;stroke:none;stroke-width:1px;stroke-linecap:butt;stroke-linejoin:miter;stroke-opacity:1;font-family:Bitstream Vera Sans"
       x="172.85715"
       y="230.93361"
       id="text2487"
       inkscape:export-filename="/home/juan/desarrollo/curso-pic/pic16-dibujos/SCI/comunicacion-serie-sincrona.png"
       inkscape:export-xdpi="90"
       inkscape:export-ydpi="90"><tspan
         sodipodi:role="line"
         id="tspan2489"
         x="172.85715"
         y="230.93361">CLK</tspan></text>
    <text
       xml:space="preserve"
       style="font-size:16px;font-style:normal;font-weight:normal;fill:#000000;fill-opacity:1;stroke:#0000ff;stroke-width:1px;stroke-linecap:butt;stroke-linejoin:miter;stroke-opacity:1;font-family:Bitstream Vera Sans"
       x="285.71429"
       y="256.64789"
       id="text2491"
       inkscape:export-filename="/home/juan/desarrollo/curso-pic/pic16-dibujos/SCI/comunicacion-serie-sincrona.png"
       inkscape:export-xdpi="90"
       inkscape:export-ydpi="90"><tspan
         sodipodi:role="line"
         id="tspan2493"
         x="285.71429"
         y="256.64789">Señal de reloj</tspan></text>
    <text
       xml:space="preserve"
       style="font-size:16px;font-style:normal;font-weight:normal;fill:#000000;fill-opacity:1;stroke:none;stroke-width:1px;stroke-linecap:butt;stroke-linejoin:miter;stroke-opacity:1;font-family:Bitstream Vera Sans"
       x="486.73877"
       y="228.76215"
       id="text2495"
       inkscape:export-filename="/home/juan/desarrollo/curso-pic/pic16-dibujos/SCI/comunicacion-serie-sincrona.png"
       inkscape:export-xdpi="90"
       inkscape:export-ydpi="90"><tspan
         sodipodi:role="line"
         id="tspan2497"
         x="486.73877"
         y="228.76215">CLK</tspan></text>
    <text
       xml:space="preserve"
       style="font-size:16px;font-style:normal;font-variant:normal;font-weight:normal;font-stretch:normal;text-align:start;line-height:125%;writing-mode:lr-tb;text-anchor:start;fill:#000000;fill-opacity:1;stroke:none;stroke-width:1px;stroke-linecap:butt;stroke-linejoin:miter;stroke-opacity:1;font-family:Bitstream Vera Sans;-inkscape-font-specification:Bitstream Vera Sans"
       x="102.02541"
       y="172.51932"
       id="text2499"
       sodipodi:linespacing="125%"
       inkscape:export-filename="/home/juan/desarrollo/curso-pic/pic16-dibujos/SCI/comunicacion-serie-sincrona.png"
       inkscape:export-xdpi="90"
       inkscape:export-ydpi="90"><tspan
         sodipodi:role="line"
         id="tspan2503"
         x="102.02541"
         y="172.51932">MAESTRO</tspan></text>
    <text
       xml:space="preserve"
       style="font-size:16px;font-style:normal;font-variant:normal;font-weight:normal;font-stretch:normal;text-align:start;line-height:125%;writing-mode:lr;text-anchor:start;fill:#000000;fill-opacity:1;stroke:none;stroke-width:1px;stroke-linecap:butt;stroke-linejoin:miter;stroke-opacity:1;font-family:Bitstream Vera Sans;-inkscape-font-specification:Bitstream Vera Sans"
       x="506.08643"
       y="172.51932"
       id="text2505"
       sodipodi:linespacing="125%"
       inkscape:export-filename="/home/juan/desarrollo/curso-pic/pic16-dibujos/SCI/comunicacion-serie-sincrona.png"
       inkscape:export-xdpi="90"
       inkscape:export-ydpi="90"><tspan
         sodipodi:role="line"
         id="tspan2509">ESCLAVO</tspan></text>
  </g>
</svg>
