<?xml version="1.0" encoding="UTF-8" standalone="no"?>
<!-- Created with Inkscape (http://www.inkscape.org/) -->
<svg
   xmlns:dc="http://purl.org/dc/elements/1.1/"
   xmlns:cc="http://creativecommons.org/ns#"
   xmlns:rdf="http://www.w3.org/1999/02/22-rdf-syntax-ns#"
   xmlns:svg="http://www.w3.org/2000/svg"
   xmlns="http://www.w3.org/2000/svg"
   xmlns:sodipodi="http://sodipodi.sourceforge.net/DTD/sodipodi-0.dtd"
   xmlns:inkscape="http://www.inkscape.org/namespaces/inkscape"
   width="210mm"
   height="297mm"
   id="svg2"
   sodipodi:version="0.32"
   inkscape:version="0.46"
   sodipodi:docname="PIC16-Timer0.svg"
   inkscape:output_extension="org.inkscape.output.svg.inkscape">
  <defs
     id="defs4">
    <marker
       inkscape:stockid="Arrow2Mstart"
       orient="auto"
       refY="0.0"
       refX="0.0"
       id="Arrow2Mstart"
       style="overflow:visible">
      <path
         id="path3806"
         style="font-size:12.0;fill-rule:evenodd;stroke-width:0.62500000;stroke-linejoin:round"
         d="M 8.7185878,4.0337352 L -2.2072895,0.016013256 L 8.7185884,-4.0017078 C 6.9730900,-1.6296469 6.9831476,1.6157441 8.7185878,4.0337352 z "
         transform="scale(0.6) translate(0,0)" />
    </marker>
    <marker
       inkscape:stockid="TriangleInS"
       orient="auto"
       refY="0.0"
       refX="0.0"
       id="TriangleInS"
       style="overflow:visible">
      <path
         id="path3922"
         d="M 5.77,0.0 L -2.88,5.0 L -2.88,-5.0 L 5.77,0.0 z "
         style="fill-rule:evenodd;stroke:#000000;stroke-width:1.0pt;marker-start:none"
         transform="scale(-0.2)" />
    </marker>
    <marker
       inkscape:stockid="TriangleOutS"
       orient="auto"
       refY="0.0"
       refX="0.0"
       id="TriangleOutS"
       style="overflow:visible">
      <path
         id="path3931"
         d="M 5.77,0.0 L -2.88,5.0 L -2.88,-5.0 L 5.77,0.0 z "
         style="fill-rule:evenodd;stroke:#000000;stroke-width:1.0pt;marker-start:none"
         transform="scale(0.2)" />
    </marker>
    <marker
       inkscape:stockid="Arrow2Send"
       orient="auto"
       refY="0.0"
       refX="0.0"
       id="Arrow2Send"
       style="overflow:visible;">
      <path
         id="path3815"
         style="font-size:12.0;fill-rule:evenodd;stroke-width:0.62500000;stroke-linejoin:round;"
         d="M 8.7185878,4.0337352 L -2.2072895,0.016013256 L 8.7185884,-4.0017078 C 6.9730900,-1.6296469 6.9831476,1.6157441 8.7185878,4.0337352 z "
         transform="scale(0.3) rotate(180) translate(-2.3,0)" />
    </marker>
    <marker
       inkscape:stockid="Arrow1Send"
       orient="auto"
       refY="0.0"
       refX="0.0"
       id="Arrow1Send"
       style="overflow:visible;">
      <path
         id="path3797"
         d="M 0.0,0.0 L 5.0,-5.0 L -12.5,0.0 L 5.0,5.0 L 0.0,0.0 z "
         style="fill-rule:evenodd;stroke:#000000;stroke-width:1.0pt;marker-start:none;"
         transform="scale(0.2) rotate(180) translate(6,0)" />
    </marker>
    <marker
       inkscape:stockid="Arrow2Mend"
       orient="auto"
       refY="0.0"
       refX="0.0"
       id="Arrow2Mend"
       style="overflow:visible;">
      <path
         id="path3809"
         style="font-size:12.0;fill-rule:evenodd;stroke-width:0.62500000;stroke-linejoin:round;"
         d="M 8.7185878,4.0337352 L -2.2072895,0.016013256 L 8.7185884,-4.0017078 C 6.9730900,-1.6296469 6.9831476,1.6157441 8.7185878,4.0337352 z "
         transform="scale(0.6) rotate(180) translate(0,0)" />
    </marker>
    <inkscape:perspective
       sodipodi:type="inkscape:persp3d"
       inkscape:vp_x="0 : 526.18109 : 1"
       inkscape:vp_y="0 : 1000 : 0"
       inkscape:vp_z="744.09448 : 526.18109 : 1"
       inkscape:persp3d-origin="372.04724 : 350.78739 : 1"
       id="perspective10" />
    <inkscape:perspective
       id="perspective2428"
       inkscape:persp3d-origin="372.04724 : 350.78739 : 1"
       inkscape:vp_z="744.09448 : 526.18109 : 1"
       inkscape:vp_y="0 : 1000 : 0"
       inkscape:vp_x="0 : 526.18109 : 1"
       sodipodi:type="inkscape:persp3d" />
    <inkscape:perspective
       id="perspective4904"
       inkscape:persp3d-origin="372.04724 : 350.78739 : 1"
       inkscape:vp_z="744.09448 : 526.18109 : 1"
       inkscape:vp_y="0 : 1000 : 0"
       inkscape:vp_x="0 : 526.18109 : 1"
       sodipodi:type="inkscape:persp3d" />
  </defs>
  <sodipodi:namedview
     id="base"
     pagecolor="#ffffff"
     bordercolor="#666666"
     borderopacity="1.0"
     inkscape:pageopacity="0.0"
     inkscape:pageshadow="2"
     inkscape:zoom="0.7673689"
     inkscape:cx="359.41941"
     inkscape:cy="753.47079"
     inkscape:document-units="px"
     inkscape:current-layer="layer2"
     showgrid="false"
     inkscape:window-width="1680"
     inkscape:window-height="974"
     inkscape:window-x="0"
     inkscape:window-y="24"
     showguides="true"
     inkscape:guide-bbox="true" />
  <metadata
     id="metadata7">
    <rdf:RDF>
      <cc:Work
         rdf:about="">
        <dc:format>image/svg+xml</dc:format>
        <dc:type
           rdf:resource="http://purl.org/dc/dcmitype/StillImage" />
      </cc:Work>
    </rdf:RDF>
  </metadata>
  <g
     inkscape:groupmode="layer"
     id="layer1"
     inkscape:label="png" />
  <g
     inkscape:groupmode="layer"
     id="layer2"
     inkscape:label="dibujo"
     style="display:inline">
    <text
       xml:space="preserve"
       style="font-size:12px;font-style:normal;font-weight:normal;fill:#000000;fill-opacity:1;stroke:none;stroke-width:1px;stroke-linecap:butt;stroke-linejoin:miter;stroke-opacity:1;font-family:Bitstream Vera Sans"
       x="121.42857"
       y="431.64789"
       id="text3234"><tspan
         sodipodi:role="line"
         id="tspan3236"
         x="121.42857"
         y="431.64789" /></text>
    <text
       xml:space="preserve"
       style="font-size:10px;font-style:normal;font-weight:normal;fill:#000000;fill-opacity:1;stroke:none;stroke-width:1px;stroke-linecap:butt;stroke-linejoin:miter;stroke-opacity:1;font-family:Bitstream Vera Sans"
       x="-436.55667"
       y="622.32129"
       id="text14615"><tspan
         sodipodi:role="line"
         id="tspan14617"
         x="-436.55667"
         y="622.32129" /></text>
    <g
       id="g2787"
       transform="matrix(1.3877028,0,0,1.3882511,41.320319,-102.26284)"
       inkscape:export-filename="/home/juan/desarrollo/curso-pic/pic16-dibujos/Timers/Timer0-diagrama.png"
       inkscape:export-xdpi="90"
       inkscape:export-ydpi="90">
      <rect
         style="fill:#ffffff;fill-opacity:1;stroke:#000000;stroke-width:0.72047317;stroke-opacity:1;display:inline"
         y="195.2607"
         x="319.71719"
         height="17.857143"
         width="75.714279"
         id="rect2774" />
      <text
         sodipodi:linespacing="125%"
         id="text2776"
         y="207.40358"
         x="341.86008"
         style="font-size:10px;font-style:normal;font-weight:normal;text-align:start;line-height:125%;writing-mode:lr-tb;text-anchor:start;fill:#000000;fill-opacity:1;stroke:none;stroke-width:1px;stroke-linecap:butt;stroke-linejoin:miter;stroke-opacity:1;font-family:Bitstream Vera Sans"
         xml:space="preserve"><tspan
           id="tspan2783"
           sodipodi:role="line"
           x="341.86008"
           y="207.40358">TMR0</tspan></text>
      <path
         sodipodi:nodetypes="ccc"
         id="path2785"
         d="M 319.74982,200.71067 L 325.96973,203.88974 L 319.88804,206.93058"
         style="fill:none;fill-rule:evenodd;stroke:#000000;stroke-width:0.72047311px;stroke-linecap:butt;stroke-linejoin:miter;stroke-opacity:1" />
    </g>
    <path
       style="fill:none;fill-rule:evenodd;stroke:#000000;stroke-width:1px;stroke-linecap:butt;stroke-linejoin:miter;marker-start:none;marker-end:url(#Arrow2Mend);stroke-opacity:1;display:inline"
       d="M 423.42988,227.23533 L 423.42988,205.97829"
       id="path2793"
       inkscape:export-filename="/home/juan/desarrollo/curso-pic/pic16-dibujos/Timers/Timer0-diagrama.png"
       inkscape:export-xdpi="90"
       inkscape:export-ydpi="90" />
    <path
       style="fill:none;fill-rule:evenodd;stroke:#000000;stroke-width:1px;stroke-linecap:butt;stroke-linejoin:miter;marker-end:url(#Arrow2Mend);stroke-opacity:1"
       d="M 589.89351,181.14835 L 643.59998,181.14835 L 643.59998,213.12911"
       id="path4146"
       inkscape:export-filename="/home/juan/desarrollo/curso-pic/pic16-dibujos/Timers/Timer0-diagrama.png"
       inkscape:export-xdpi="90"
       inkscape:export-ydpi="90" />
    <text
       xml:space="preserve"
       style="font-size:11.10381508px;font-style:normal;font-weight:normal;fill:#000000;fill-opacity:1;stroke:none;stroke-width:1px;stroke-linecap:butt;stroke-linejoin:miter;stroke-opacity:1;font-family:Bitstream Vera Sans"
       x="632.85571"
       y="226.51631"
       id="text4693"
       inkscape:export-filename="/home/juan/desarrollo/curso-pic/pic16-dibujos/Timers/Timer0-diagrama.png"
       inkscape:export-xdpi="90"
       inkscape:export-ydpi="90"
       transform="scale(0.9998025,1.0001976)"><tspan
         sodipodi:role="line"
         id="tspan4695"
         x="632.85571"
         y="226.51631">T0IF</tspan></text>
    <text
       xml:space="preserve"
       style="font-size:11.10381508px;font-style:normal;font-weight:normal;fill:#000000;fill-opacity:1;stroke:none;stroke-width:1px;stroke-linecap:butt;stroke-linejoin:miter;stroke-opacity:1;font-family:Bitstream Vera Sans"
       x="589.37054"
       y="243.14304"
       id="text4697"
       inkscape:export-filename="/home/juan/desarrollo/curso-pic/pic16-dibujos/Timers/Timer0-diagrama.png"
       inkscape:export-xdpi="90"
       inkscape:export-ydpi="90"
       transform="scale(0.9998025,1.0001976)"><tspan
         sodipodi:role="line"
         id="tspan4699"
         x="589.37054"
         y="243.14304">Se pone a '1' cuando </tspan><tspan
         sodipodi:role="line"
         x="589.37054"
         y="257.0228"
         id="tspan4701">ocurre un overflow</tspan></text>
    <path
       style="fill:none;fill-rule:evenodd;stroke:#000000;stroke-width:3.99999952;stroke-linecap:butt;stroke-linejoin:miter;marker-start:url(#TriangleInS);marker-end:url(#TriangleOutS);stroke-miterlimit:4;stroke-dasharray:none;stroke-opacity:1;display:inline"
       d="M 537.28691,13.478865 L 537.28691,158.22436"
       id="path4703"
       inkscape:export-filename="/home/juan/desarrollo/curso-pic/pic16-dibujos/Timers/Timer0-diagrama.png"
       inkscape:export-xdpi="90"
       inkscape:export-ydpi="90" />
    <path
       style="fill:none;fill-rule:evenodd;stroke:#000000;stroke-width:0.99999994px;stroke-linecap:butt;stroke-linejoin:miter;stroke-opacity:1;display:inline"
       d="M 526.82529,113.46041 L 547.1697,93.107987"
       id="path4705"
       inkscape:export-filename="/home/juan/desarrollo/curso-pic/pic16-dibujos/Timers/Timer0-diagrama.png"
       inkscape:export-xdpi="90"
       inkscape:export-ydpi="90" />
    <text
       xml:space="preserve"
       style="font-size:13.87976933px;font-style:normal;font-weight:normal;text-align:start;line-height:125%;writing-mode:lr-tb;text-anchor:start;fill:#000000;fill-opacity:1;stroke:none;stroke-width:1px;stroke-linecap:butt;stroke-linejoin:miter;stroke-opacity:1;display:inline;font-family:Bitstream Vera Sans"
       x="522.3244"
       y="101.70779"
       id="text4707"
       sodipodi:linespacing="125%"
       inkscape:export-filename="/home/juan/desarrollo/curso-pic/pic16-dibujos/Timers/Timer0-diagrama.png"
       inkscape:export-xdpi="90"
       inkscape:export-ydpi="90"
       transform="scale(0.9998025,1.0001976)"><tspan
         sodipodi:role="line"
         id="tspan4709"
         x="522.3244"
         y="101.70779">8</tspan></text>
    <text
       xml:space="preserve"
       style="font-size:11.10381508px;font-style:normal;font-weight:normal;fill:#000000;fill-opacity:1;stroke:none;stroke-width:1px;stroke-linecap:butt;stroke-linejoin:miter;stroke-opacity:1;font-family:Bitstream Vera Sans"
       x="68.407051"
       y="-555.03021"
       id="text4711"
       transform="matrix(0,1.0001976,-0.9998025,0,0,0)"
       inkscape:export-filename="/home/juan/desarrollo/curso-pic/pic16-dibujos/Timers/Timer0-diagrama.png"
       inkscape:export-xdpi="90"
       inkscape:export-ydpi="90"><tspan
         sodipodi:role="line"
         id="tspan4713"
         x="68.407051"
         y="-555.03021">Bus de Datos</tspan></text>
    <g
       id="g4742"
       inkscape:export-filename="/home/juan/desarrollo/curso-pic/pic16-dibujos/Timers/Timer0-diagrama.png"
       inkscape:export-xdpi="90"
       inkscape:export-ydpi="90"
       transform="matrix(1.3877028,0,0,1.3882511,-158.16083,-102.26284)">
      <path
         sodipodi:nodetypes="ccccc"
         id="path4719"
         d="M 410.67103,183.45571 L 425.67103,192.02714 L 425.67103,216.97964 L 410.67103,226.26535 L 410.67103,183.45571 z"
         style="fill:#ffffff;fill-opacity:1;fill-rule:evenodd;stroke:#000000;stroke-width:0.72047311px;stroke-linecap:butt;stroke-linejoin:miter;stroke-opacity:1" />
      <text
         id="text4734"
         y="198.55437"
         x="412.92728"
         style="font-size:8px;font-style:normal;font-weight:normal;fill:#000000;fill-opacity:1;stroke:none;stroke-width:1px;stroke-linecap:butt;stroke-linejoin:miter;stroke-opacity:1;font-family:Bitstream Vera Sans"
         xml:space="preserve"><tspan
           y="198.55437"
           x="412.92728"
           id="tspan4736"
           sodipodi:role="line">1</tspan></text>
      <text
         id="text4738"
         y="216.24518"
         x="412.58624"
         style="font-size:8px;font-style:normal;font-weight:normal;fill:#000000;fill-opacity:1;stroke:none;stroke-width:1px;stroke-linecap:butt;stroke-linejoin:miter;stroke-opacity:1;font-family:Bitstream Vera Sans"
         xml:space="preserve"><tspan
           y="216.24518"
           x="412.58624"
           id="tspan4740"
           sodipodi:role="line">0</tspan></text>
    </g>
    <path
       style="fill:none;fill-rule:evenodd;stroke:#000000;stroke-width:0.99999994px;stroke-linecap:butt;stroke-linejoin:miter;marker-start:none;marker-end:url(#Arrow2Mend);stroke-opacity:1;display:inline"
       d="M 432.67985,180.86909 L 481.95412,180.86909"
       id="path4751"
       inkscape:export-filename="/home/juan/desarrollo/curso-pic/pic16-dibujos/Timers/Timer0-diagrama.png"
       inkscape:export-xdpi="90"
       inkscape:export-ydpi="90" />
    <text
       xml:space="preserve"
       style="font-size:11.10381508px;font-style:normal;font-weight:normal;fill:#000000;fill-opacity:1;stroke:none;stroke-width:1px;stroke-linecap:butt;stroke-linejoin:miter;stroke-opacity:1;font-family:Bitstream Vera Sans"
       x="410.65912"
       y="240.60553"
       id="text4753"
       inkscape:export-filename="/home/juan/desarrollo/curso-pic/pic16-dibujos/Timers/Timer0-diagrama.png"
       inkscape:export-xdpi="90"
       inkscape:export-ydpi="90"
       transform="scale(0.9998025,1.0001976)"><tspan
         sodipodi:role="line"
         id="tspan4755"
         x="410.65912"
         y="240.60553">PSA</tspan></text>
    <rect
       id="rect4759"
       width="105.06892"
       height="24.790199"
       x="254.42293"
       y="182.23997"
       style="fill:#ffffff;fill-opacity:1;stroke:#000000;stroke-width:1.00000012;stroke-opacity:1;display:inline"
       inkscape:export-filename="/home/juan/desarrollo/curso-pic/pic16-dibujos/Timers/Timer0-diagrama.png"
       inkscape:export-xdpi="90"
       inkscape:export-ydpi="90" />
    <text
       xml:space="preserve"
       style="font-size:13.87976933px;font-style:normal;font-weight:normal;text-align:start;line-height:125%;writing-mode:lr-tb;text-anchor:start;fill:#000000;fill-opacity:1;stroke:none;stroke-width:1px;stroke-linecap:butt;stroke-linejoin:miter;stroke-opacity:1;font-family:Bitstream Vera Sans"
       x="276.16324"
       y="199.05801"
       id="text4761"
       sodipodi:linespacing="125%"
       inkscape:export-filename="/home/juan/desarrollo/curso-pic/pic16-dibujos/Timers/Timer0-diagrama.png"
       inkscape:export-xdpi="90"
       inkscape:export-ydpi="90"
       transform="scale(0.9998025,1.0001976)"><tspan
         sodipodi:role="line"
         id="tspan4771"
         x="276.16324"
         y="199.05801">Prescaler</tspan></text>
    <path
       style="fill:none;fill-rule:evenodd;stroke:#000000;stroke-width:1px;stroke-linecap:butt;stroke-linejoin:miter;marker-start:none;marker-end:url(#Arrow2Mend);stroke-opacity:1;display:inline"
       d="M 278.75863,228.90807 L 278.75863,207.65103"
       id="path4773"
       inkscape:export-filename="/home/juan/desarrollo/curso-pic/pic16-dibujos/Timers/Timer0-diagrama.png"
       inkscape:export-xdpi="90"
       inkscape:export-ydpi="90" />
    <text
       xml:space="preserve"
       style="font-size:11.10381508px;font-style:normal;font-variant:normal;font-weight:normal;font-stretch:normal;text-align:start;line-height:125%;writing-mode:lr-tb;text-anchor:start;fill:#000000;fill-opacity:1;stroke:none;stroke-width:1px;stroke-linecap:butt;stroke-linejoin:miter;stroke-opacity:1;display:inline;font-family:Bitstream Vera Sans;-inkscape-font-specification:Bitstream Vera Sans"
       x="265.95929"
       y="242.27794"
       id="text4775"
       sodipodi:linespacing="125%"
       inkscape:export-filename="/home/juan/desarrollo/curso-pic/pic16-dibujos/Timers/Timer0-diagrama.png"
       inkscape:export-xdpi="90"
       inkscape:export-ydpi="90"
       transform="scale(0.9998025,1.0001976)"><tspan
         sodipodi:role="line"
         id="tspan4779"
         x="265.95929"
         y="242.27794">PS2</tspan></text>
    <path
       style="fill:none;fill-rule:evenodd;stroke:#000000;stroke-width:1px;stroke-linecap:butt;stroke-linejoin:miter;marker-start:none;marker-end:url(#Arrow2Mend);stroke-opacity:1;display:inline"
       d="M 304.0761,228.90807 L 304.0761,207.65103"
       id="path4781"
       inkscape:export-filename="/home/juan/desarrollo/curso-pic/pic16-dibujos/Timers/Timer0-diagrama.png"
       inkscape:export-xdpi="90"
       inkscape:export-ydpi="90" />
    <text
       xml:space="preserve"
       style="font-size:11.10381508px;font-style:normal;font-variant:normal;font-weight:normal;font-stretch:normal;text-align:start;line-height:125%;writing-mode:lr-tb;text-anchor:start;fill:#000000;fill-opacity:1;stroke:none;stroke-width:1px;stroke-linecap:butt;stroke-linejoin:miter;stroke-opacity:1;display:inline;font-family:Bitstream Vera Sans;-inkscape-font-specification:Bitstream Vera Sans"
       x="293.83969"
       y="242.27794"
       id="text4783"
       sodipodi:linespacing="125%"
       inkscape:export-filename="/home/juan/desarrollo/curso-pic/pic16-dibujos/Timers/Timer0-diagrama.png"
       inkscape:export-xdpi="90"
       inkscape:export-ydpi="90"
       transform="scale(0.9998025,1.0001976)"><tspan
         sodipodi:role="line"
         id="tspan4793"
         x="293.83969"
         y="242.27794">PS1</tspan></text>
    <path
       style="fill:none;fill-rule:evenodd;stroke:#000000;stroke-width:1px;stroke-linecap:butt;stroke-linejoin:miter;marker-start:none;marker-end:url(#Arrow2Mend);stroke-opacity:1;display:inline"
       d="M 333.91454,228.90807 L 333.91454,207.65103"
       id="path4787"
       inkscape:export-filename="/home/juan/desarrollo/curso-pic/pic16-dibujos/Timers/Timer0-diagrama.png"
       inkscape:export-xdpi="90"
       inkscape:export-ydpi="90" />
    <text
       xml:space="preserve"
       style="font-size:11.10381508px;font-style:normal;font-variant:normal;font-weight:normal;font-stretch:normal;text-align:start;line-height:125%;writing-mode:lr-tb;text-anchor:start;fill:#000000;fill-opacity:1;stroke:none;stroke-width:1px;stroke-linecap:butt;stroke-linejoin:miter;stroke-opacity:1;display:inline;font-family:Bitstream Vera Sans;-inkscape-font-specification:Bitstream Vera Sans"
       x="323.04456"
       y="242.27794"
       id="text4789"
       sodipodi:linespacing="125%"
       inkscape:export-filename="/home/juan/desarrollo/curso-pic/pic16-dibujos/Timers/Timer0-diagrama.png"
       inkscape:export-xdpi="90"
       inkscape:export-ydpi="90"
       transform="scale(0.9998025,1.0001976)"><tspan
         sodipodi:role="line"
         id="tspan4795"
         x="323.04456"
         y="242.27794">PS0</tspan></text>
    <path
       style="fill:none;fill-rule:evenodd;stroke:#000000;stroke-width:0.99999994px;stroke-linecap:butt;stroke-linejoin:miter;marker-start:none;marker-end:url(#Arrow2Mend);stroke-opacity:1;display:inline"
       d="M 360.43187,194.30101 L 409.70614,194.30101"
       id="path4797"
       inkscape:export-filename="/home/juan/desarrollo/curso-pic/pic16-dibujos/Timers/Timer0-diagrama.png"
       inkscape:export-xdpi="90"
       inkscape:export-ydpi="90" />
    <path
       style="fill:none;fill-rule:evenodd;stroke:#000000;stroke-width:1px;stroke-linecap:butt;stroke-linejoin:miter;marker-start:none;marker-end:url(#Arrow2Mend);stroke-opacity:1;display:inline"
       d="M 196.47685,239.89906 L 196.47685,218.64202"
       id="path4799"
       inkscape:export-filename="/home/juan/desarrollo/curso-pic/pic16-dibujos/Timers/Timer0-diagrama.png"
       inkscape:export-xdpi="90"
       inkscape:export-ydpi="90" />
    <path
       style="fill:#ffffff;fill-opacity:1;fill-rule:evenodd;stroke:#000000;stroke-width:1px;stroke-linecap:butt;stroke-linejoin:miter;stroke-opacity:1"
       d="M 184.77547,165.08349 L 205.59102,176.98279 L 205.59102,211.62312 L 184.77547,224.51402 L 184.77547,165.08349 z"
       id="path4803"
       sodipodi:nodetypes="ccccc"
       inkscape:export-filename="/home/juan/desarrollo/curso-pic/pic16-dibujos/Timers/Timer0-diagrama.png"
       inkscape:export-xdpi="90"
       inkscape:export-ydpi="90" />
    <text
       xml:space="preserve"
       style="font-size:11.10381508px;font-style:normal;font-variant:normal;font-weight:normal;font-stretch:normal;text-align:start;line-height:125%;writing-mode:lr-tb;text-anchor:start;fill:#000000;fill-opacity:1;stroke:none;stroke-width:1px;stroke-linecap:butt;stroke-linejoin:miter;stroke-opacity:1;font-family:Bitstream Vera Sans;-inkscape-font-specification:Bitstream Vera Sans"
       x="187.94359"
       y="186.00748"
       id="text4805"
       sodipodi:linespacing="125%"
       inkscape:export-filename="/home/juan/desarrollo/curso-pic/pic16-dibujos/Timers/Timer0-diagrama.png"
       inkscape:export-xdpi="90"
       inkscape:export-ydpi="90"
       transform="scale(0.9998025,1.0001976)"><tspan
         sodipodi:role="line"
         id="tspan4824"
         x="187.94359"
         y="186.00748">0</tspan></text>
    <text
       xml:space="preserve"
       style="font-size:11.10381508px;font-style:normal;font-variant:normal;font-weight:normal;font-stretch:normal;text-align:start;line-height:125%;writing-mode:lr-tb;text-anchor:start;fill:#000000;fill-opacity:1;stroke:none;stroke-width:1px;stroke-linecap:butt;stroke-linejoin:miter;stroke-opacity:1;font-family:Bitstream Vera Sans;-inkscape-font-specification:Bitstream Vera Sans"
       x="187.47023"
       y="210.56192"
       id="text4809"
       sodipodi:linespacing="125%"
       inkscape:export-filename="/home/juan/desarrollo/curso-pic/pic16-dibujos/Timers/Timer0-diagrama.png"
       inkscape:export-xdpi="90"
       inkscape:export-ydpi="90"
       transform="scale(0.9998025,1.0001976)"><tspan
         sodipodi:role="line"
         id="tspan4826"
         x="187.47023"
         y="210.56192">1</tspan></text>
    <text
       xml:space="preserve"
       style="font-size:11.10381508px;font-style:normal;font-variant:normal;font-weight:normal;font-stretch:normal;text-align:start;line-height:125%;writing-mode:lr-tb;text-anchor:start;fill:#000000;fill-opacity:1;stroke:none;stroke-width:1px;stroke-linecap:butt;stroke-linejoin:miter;stroke-opacity:1;display:inline;font-family:Bitstream Vera Sans;-inkscape-font-specification:Bitstream Vera Sans"
       x="183.66127"
       y="253.26675"
       id="text4813"
       sodipodi:linespacing="125%"
       inkscape:export-filename="/home/juan/desarrollo/curso-pic/pic16-dibujos/Timers/Timer0-diagrama.png"
       inkscape:export-xdpi="90"
       inkscape:export-ydpi="90"
       transform="scale(0.9998025,1.0001976)"><tspan
         sodipodi:role="line"
         id="tspan4838"
         x="183.66127"
         y="253.26675">T0CS</tspan></text>
    <g
       style="display:inline"
       id="g4828"
       transform="matrix(1.3877028,0,0,1.3882511,-789.97191,-140.70398)"
       inkscape:export-filename="/home/juan/desarrollo/curso-pic/pic16-dibujos/Timers/Timer0-diagrama.png"
       inkscape:export-xdpi="90"
       inkscape:export-ydpi="90">
      <rect
         y="238.8629"
         x="619.90717"
         height="12.239126"
         width="12.448336"
         id="rect4830"
         style="fill:#ffffff;fill-opacity:1;stroke:#000000;stroke-width:0.72047311;stroke-linejoin:round;stroke-miterlimit:4;stroke-dasharray:none;stroke-opacity:1" />
      <path
         id="path4832"
         d="M 620,238.96932 C 632.14286,250.93361 632.14286,250.93361 632.14286,250.93361"
         style="fill:none;fill-rule:evenodd;stroke:#000000;stroke-width:0.72047311px;stroke-linecap:butt;stroke-linejoin:miter;stroke-opacity:1" />
      <path
         id="path4834"
         d="M 620,250.93361 L 632.14286,238.96932"
         style="fill:none;fill-rule:evenodd;stroke:#000000;stroke-width:0.72047311px;stroke-linecap:butt;stroke-linejoin:miter;stroke-opacity:1" />
    </g>
    <path
       style="fill:none;fill-rule:evenodd;stroke:#000000;stroke-width:0.99999994px;stroke-linecap:butt;stroke-linejoin:miter;marker-start:none;marker-end:url(#Arrow2Mend);stroke-opacity:1;display:inline"
       d="M 204.91026,194.30101 L 254.18454,194.30101"
       id="path4836"
       inkscape:export-filename="/home/juan/desarrollo/curso-pic/pic16-dibujos/Timers/Timer0-diagrama.png"
       inkscape:export-xdpi="90"
       inkscape:export-ydpi="90" />
    <path
       id="path4914"
       style="fill:none;fill-rule:evenodd;stroke:#000000;stroke-width:1px;stroke-linecap:round;stroke-linejoin:round;stroke-opacity:1"
       d="M 116.99846,219.55838 C 116.99846,219.55838 123.20073,213.06007 123.20073,206.66399 C 123.20073,200.2679 117.06672,194.33015 117.06672,194.33015 M 121.95099,194.55855 C 121.95099,194.55855 127.99188,200.96152 127.5603,206.9312 C 127.12873,212.90087 121.95099,219.6924 121.95099,219.6924 L 138.77893,219.6924 C 143.09467,220.11882 154.21595,214.79056 157.61462,207.07435 C 154.10807,199.35812 142.88769,194.19349 138.57194,194.61989 L 121.95099,194.55855 z M 157.2264,206.80875 L 165.62204,206.80875 M 120.7893,199.47266 L 109.70705,199.47266 M 120.7893,213.97813 L 109.70705,213.97813"
       inkscape:export-filename="/home/juan/desarrollo/curso-pic/pic16-dibujos/Timers/Timer0-diagrama.png"
       inkscape:export-xdpi="90"
       inkscape:export-ydpi="90" />
    <path
       style="fill:none;fill-rule:evenodd;stroke:#000000;stroke-width:1px;stroke-linecap:butt;stroke-linejoin:miter;stroke-opacity:1"
       d="M 165.67637,206.73297 L 184.21788,206.73297"
       id="path4937"
       inkscape:export-filename="/home/juan/desarrollo/curso-pic/pic16-dibujos/Timers/Timer0-diagrama.png"
       inkscape:export-xdpi="90"
       inkscape:export-ydpi="90" />
    <path
       style="fill:none;fill-rule:evenodd;stroke:#000000;stroke-width:1px;stroke-linecap:butt;stroke-linejoin:miter;stroke-opacity:1;display:inline"
       d="M 184.21788,181.85777 L 165.67637,181.85777 L 165.67637,117.79689 L 104.61211,117.79689"
       id="path4939"
       sodipodi:nodetypes="cccc"
       inkscape:export-filename="/home/juan/desarrollo/curso-pic/pic16-dibujos/Timers/Timer0-diagrama.png"
       inkscape:export-xdpi="90"
       inkscape:export-ydpi="90" />
    <path
       style="fill:none;fill-rule:evenodd;stroke:#000000;stroke-width:1px;stroke-linecap:butt;stroke-linejoin:miter;stroke-opacity:1"
       d="M 109.93309,199.49592 L 87.328205,199.49592"
       id="path4941"
       inkscape:export-filename="/home/juan/desarrollo/curso-pic/pic16-dibujos/Timers/Timer0-diagrama.png"
       inkscape:export-xdpi="90"
       inkscape:export-ydpi="90" />
    <path
       style="fill:none;fill-rule:evenodd;stroke:#000000;stroke-width:1px;stroke-linecap:butt;stroke-linejoin:miter;stroke-opacity:1"
       d="M 109.93309,213.96875 L 98.856699,213.96875 L 98.856699,241.10534"
       id="path4943"
       inkscape:export-filename="/home/juan/desarrollo/curso-pic/pic16-dibujos/Timers/Timer0-diagrama.png"
       inkscape:export-xdpi="90"
       inkscape:export-ydpi="90" />
    <text
       xml:space="preserve"
       style="font-size:11.10381508px;font-style:normal;font-variant:normal;font-weight:normal;font-stretch:normal;text-align:start;line-height:125%;writing-mode:lr-tb;text-anchor:start;fill:#000000;fill-opacity:1;stroke:none;stroke-width:1px;stroke-linecap:butt;stroke-linejoin:miter;stroke-opacity:1;display:inline;font-family:Bitstream Vera Sans;-inkscape-font-specification:Bitstream Vera Sans"
       x="84.540474"
       y="253.26675"
       id="text4945"
       sodipodi:linespacing="125%"
       inkscape:export-filename="/home/juan/desarrollo/curso-pic/pic16-dibujos/Timers/Timer0-diagrama.png"
       inkscape:export-xdpi="90"
       inkscape:export-ydpi="90"
       transform="scale(0.9998025,1.0001976)"><tspan
         sodipodi:role="line"
         id="tspan4949"
         x="84.540474"
         y="253.26675">T0SE</tspan></text>
    <text
       xml:space="preserve"
       style="font-size:11.10381508px;font-style:normal;font-weight:normal;fill:#000000;fill-opacity:1;stroke:none;stroke-width:1px;stroke-linecap:butt;stroke-linejoin:miter;stroke-opacity:1;font-family:Bitstream Vera Sans"
       x="47.723373"
       y="181.11256"
       id="text4951"
       inkscape:export-filename="/home/juan/desarrollo/curso-pic/pic16-dibujos/Timers/Timer0-diagrama.png"
       inkscape:export-xdpi="90"
       inkscape:export-ydpi="90"
       transform="scale(0.9998025,1.0001976)"><tspan
         sodipodi:role="line"
         id="tspan4953"
         x="47.723373"
         y="181.11256"
         style="font-weight:bold;-inkscape-font-specification:Bitstream Vera Sans Bold">RA4/T0CKI</tspan></text>
    <text
       xml:space="preserve"
       style="font-size:11.10381508px;font-style:normal;font-variant:normal;font-weight:normal;font-stretch:normal;text-align:start;line-height:125%;writing-mode:lr-tb;text-anchor:start;fill:#000000;fill-opacity:1;stroke:none;stroke-width:1px;stroke-linecap:butt;stroke-linejoin:miter;stroke-opacity:1;font-family:Bitstream Vera Sans;-inkscape-font-specification:Bitstream Vera Sans"
       x="36.285568"
       y="91.338058"
       id="text4955"
       sodipodi:linespacing="125%"
       inkscape:export-filename="/home/juan/desarrollo/curso-pic/pic16-dibujos/Timers/Timer0-diagrama.png"
       inkscape:export-xdpi="90"
       inkscape:export-ydpi="90"
       transform="scale(0.9998025,1.0001976)"><tspan
         sodipodi:role="line"
         id="tspan4971"
         x="36.285568"
         y="91.338058">CLKOUT = Fosc/4</tspan></text>
    <g
       id="g4967"
       transform="matrix(1.3877028,0,0,1.3882511,-165.2902,-104.29142)"
       inkscape:export-filename="/home/juan/desarrollo/curso-pic/pic16-dibujos/Timers/Timer0-diagrama.png"
       inkscape:export-xdpi="90"
       inkscape:export-ydpi="90">
      <path
         sodipodi:nodetypes="cccccccccc"
         id="path4959"
         d="M 172.31475,162.22294 L 176.4053,162.22294 L 176.4053,154.39044 L 180.35232,154.39044 L 180.35232,162.22294 L 183.797,162.22294 L 183.797,154.39044 L 187.81578,154.39044 L 187.81578,162.153 L 190.68635,162.153"
         style="fill:none;fill-rule:evenodd;stroke:#000000;stroke-width:0.72047311px;stroke-linecap:butt;stroke-linejoin:miter;stroke-opacity:1" />
      <path
         transform="matrix(1.2558139,0,0,1.2558139,-55.523872,-214.77795)"
         d="M 199.03734,298.37003 A 9.9057941,9.9057941 0 1 1 179.22575,298.37003 A 9.9057941,9.9057941 0 1 1 199.03734,298.37003 z"
         sodipodi:ry="9.9057941"
         sodipodi:rx="9.9057941"
         sodipodi:cy="298.37003"
         sodipodi:cx="189.13155"
         id="path4965"
         style="fill:none;fill-opacity:1;stroke:#000000;stroke-width:0.28685501;stroke-linecap:round;stroke-linejoin:round;stroke-miterlimit:4;stroke-dasharray:none;stroke-dashoffset:0;stroke-opacity:1"
         sodipodi:type="arc" />
    </g>
    <rect
       style="fill:none;fill-opacity:1;stroke:#000000;stroke-width:0.5;stroke-linecap:round;stroke-linejoin:round;stroke-miterlimit:4;stroke-dasharray:none;stroke-dashoffset:0;stroke-opacity:1"
       id="rect4975"
       width="723.75861"
       height="276.61319"
       x="15.745815"
       y="49.716827"
       inkscape:export-filename="/home/juan/desarrollo/curso-pic/pic16-dibujos/Timers/Timer0-diagrama.png"
       inkscape:export-xdpi="90"
       inkscape:export-ydpi="90" />
    <text
       xml:space="preserve"
       style="font-size:11.10381508px;font-style:normal;font-variant:normal;font-weight:bold;font-stretch:normal;text-align:start;line-height:125%;writing-mode:lr-tb;text-anchor:start;fill:#000000;fill-opacity:1;stroke:none;stroke-width:1px;stroke-linecap:butt;stroke-linejoin:miter;stroke-opacity:1;font-family:Bitstream Vera Sans;-inkscape-font-specification:Bitstream Vera Sans Bold"
       x="321.42468"
       y="75.596901"
       id="text4977"
       sodipodi:linespacing="125%"
       inkscape:export-filename="/home/juan/desarrollo/curso-pic/pic16-dibujos/Timers/Timer0-diagrama.png"
       inkscape:export-xdpi="90"
       inkscape:export-ydpi="90"
       transform="scale(0.9998025,1.0001976)"><tspan
         sodipodi:role="line"
         id="tspan4979"
         x="321.42468"
         y="75.596901">TIMER0</tspan></text>
    <path
       style="fill:none;fill-rule:evenodd;stroke:#000000;stroke-width:1px;stroke-linecap:butt;stroke-linejoin:miter;marker-end:url(#Arrow2Mend);stroke-opacity:1"
       d="M 225.45677,193.94066 L 225.45677,168.35606 L 411.51132,168.35606"
       id="path2480"
       inkscape:export-filename="/home/juan/desarrollo/curso-pic/pic16-dibujos/Timers/Timer0-diagrama.png"
       inkscape:export-xdpi="90"
       inkscape:export-ydpi="90" />
    <path
       sodipodi:type="arc"
       style="fill:#000000;fill-opacity:1;stroke:#000000;stroke-width:2.36252522;stroke-linecap:round;stroke-linejoin:round;stroke-miterlimit:4;stroke-dasharray:none;stroke-dashoffset:0;stroke-opacity:1"
       id="path3835"
       sodipodi:cx="383.33118"
       sodipodi:cy="349.28119"
       sodipodi:rx="11.979099"
       sodipodi:ry="11.979099"
       d="M 395.31028,349.28119 A 11.979099,11.979099 0 1 1 371.35208,349.28119 A 11.979099,11.979099 0 1 1 395.31028,349.28119 z"
       transform="matrix(0.2115961,0,0,0.2116797,143.8637,120.01847)"
       inkscape:export-filename="/home/juan/desarrollo/curso-pic/pic16-dibujos/Timers/Timer0-diagrama.png"
       inkscape:export-xdpi="90"
       inkscape:export-ydpi="90" />
    <text
       xml:space="preserve"
       style="font-size:11.10381508px;font-style:normal;font-weight:normal;fill:#0000ff;fill-opacity:1;stroke:none;stroke-width:1px;stroke-linecap:butt;stroke-linejoin:miter;stroke-opacity:1;font-family:Bitstream Vera Sans"
       x="171.90442"
       y="274.06738"
       id="text3837"
       inkscape:export-filename="/home/juan/desarrollo/curso-pic/pic16-dibujos/Timers/Timer0-diagrama.png"
       inkscape:export-xdpi="90"
       inkscape:export-ydpi="90"
       transform="scale(0.9998025,1.0001976)"><tspan
         sodipodi:role="line"
         id="tspan3839"
         x="171.90442"
         y="274.06738">Selección</tspan><tspan
         sodipodi:role="line"
         x="171.90442"
         y="287.94717"
         id="tspan3841">del modo</tspan></text>
    <text
       xml:space="preserve"
       style="font-size:11.10381508px;font-style:normal;font-weight:normal;fill:#0000ff;fill-opacity:1;stroke:none;stroke-width:1px;stroke-linecap:butt;stroke-linejoin:miter;stroke-opacity:1;font-family:Bitstream Vera Sans"
       x="386.24103"
       y="272.25864"
       id="text3843"
       inkscape:export-filename="/home/juan/desarrollo/curso-pic/pic16-dibujos/Timers/Timer0-diagrama.png"
       inkscape:export-xdpi="90"
       inkscape:export-ydpi="90"
       transform="scale(0.9998025,1.0001976)"><tspan
         sodipodi:role="line"
         id="tspan3845"
         x="386.24103"
         y="272.25864">Selección del</tspan><tspan
         sodipodi:role="line"
         x="386.24103"
         y="286.1384"
         id="tspan3847">prescaler</tspan></text>
    <text
       xml:space="preserve"
       style="font-size:11.10381508px;font-style:normal;font-weight:normal;fill:#0000ff;fill-opacity:1;stroke:none;stroke-width:1px;stroke-linecap:butt;stroke-linejoin:miter;stroke-opacity:1;font-family:Bitstream Vera Sans"
       x="141.71399"
       y="363.48441"
       id="text2468"
       inkscape:export-filename="/home/juan/desarrollo/curso-pic/pic16-dibujos/Timers/Timer0-diagrama.png"
       inkscape:export-xdpi="90"
       inkscape:export-ydpi="90"
       transform="scale(0.9998025,1.0001976)"><tspan
         sodipodi:role="line"
         id="tspan2470"
         x="141.71399"
         y="363.48441">Modo temporizador:</tspan></text>
    <text
       xml:space="preserve"
       style="font-size:11.10381508px;font-style:normal;font-weight:normal;fill:#0000ff;fill-opacity:1;stroke:none;stroke-width:1px;stroke-linecap:butt;stroke-linejoin:miter;stroke-opacity:1;font-family:Bitstream Vera Sans"
       x="143.36757"
       y="410.39435"
       id="text2472"
       inkscape:export-filename="/home/juan/desarrollo/curso-pic/pic16-dibujos/Timers/Timer0-diagrama.png"
       inkscape:export-xdpi="90"
       inkscape:export-ydpi="90"
       transform="scale(0.9998025,1.0001976)"><tspan
         sodipodi:role="line"
         id="tspan2474"
         x="143.36757"
         y="410.39435">Modo contador:</tspan></text>
    <text
       xml:space="preserve"
       style="font-size:11.10381508px;font-style:normal;font-weight:normal;fill:#000000;fill-opacity:1;stroke:none;stroke-width:1px;stroke-linecap:butt;stroke-linejoin:miter;stroke-opacity:1;font-family:Bitstream Vera Sans"
       x="282.91574"
       y="363.69931"
       id="text2476"
       inkscape:export-filename="/home/juan/desarrollo/curso-pic/pic16-dibujos/Timers/Timer0-diagrama.png"
       inkscape:export-xdpi="90"
       inkscape:export-ydpi="90"
       transform="scale(0.9998025,1.0001976)"><tspan
         sodipodi:role="line"
         id="tspan2478"
         x="282.91574"
         y="363.69931">T0CS=0</tspan></text>
    <text
       xml:space="preserve"
       style="font-size:11.10381508px;font-style:normal;font-weight:normal;fill:#000000;fill-opacity:1;stroke:none;stroke-width:1px;stroke-linecap:butt;stroke-linejoin:miter;stroke-opacity:1;font-family:Bitstream Vera Sans"
       x="284.04678"
       y="377.16599"
       id="text3849"
       inkscape:export-filename="/home/juan/desarrollo/curso-pic/pic16-dibujos/Timers/Timer0-diagrama.png"
       inkscape:export-xdpi="90"
       inkscape:export-ydpi="90"
       transform="scale(0.9998025,1.0001976)"><tspan
         sodipodi:role="line"
         id="tspan3851"
         x="284.04678"
         y="377.16599">PSA=0</tspan></text>
    <text
       xml:space="preserve"
       style="font-size:11.10381508px;font-style:normal;font-weight:normal;fill:#000000;fill-opacity:1;stroke:none;stroke-width:1px;stroke-linecap:butt;stroke-linejoin:miter;stroke-opacity:1;font-family:Bitstream Vera Sans"
       x="283.1424"
       y="409.72342"
       id="text3853"
       inkscape:export-filename="/home/juan/desarrollo/curso-pic/pic16-dibujos/Timers/Timer0-diagrama.png"
       inkscape:export-xdpi="90"
       inkscape:export-ydpi="90"
       transform="scale(0.9998025,1.0001976)"><tspan
         sodipodi:role="line"
         id="tspan3855"
         x="283.1424"
         y="409.72342">T0CS=1</tspan></text>
    <text
       xml:space="preserve"
       style="font-size:11.10381508px;font-style:normal;font-weight:normal;fill:#000000;fill-opacity:1;stroke:none;stroke-width:1px;stroke-linecap:butt;stroke-linejoin:miter;stroke-opacity:1;font-family:Bitstream Vera Sans"
       x="284.04678"
       y="424.19342"
       id="text3857"
       inkscape:export-filename="/home/juan/desarrollo/curso-pic/pic16-dibujos/Timers/Timer0-diagrama.png"
       inkscape:export-xdpi="90"
       inkscape:export-ydpi="90"
       transform="scale(0.9998025,1.0001976)"><tspan
         sodipodi:role="line"
         id="tspan3859"
         x="284.04678"
         y="424.19342">PSA=1</tspan></text>
    <rect
       style="fill:none;fill-opacity:1;stroke:#000000;stroke-width:0.5;stroke-linecap:round;stroke-linejoin:round;stroke-miterlimit:4;stroke-dasharray:none;stroke-dashoffset:0;stroke-opacity:1"
       id="rect3861"
       width="351.73203"
       height="98.596237"
       x="16.348881"
       y="335.63107"
       inkscape:export-filename="/home/juan/desarrollo/curso-pic/pic16-dibujos/Timers/Timer0-diagrama.png"
       inkscape:export-xdpi="90"
       inkscape:export-ydpi="90" />
    <text
       xml:space="preserve"
       style="font-size:11.10381508px;font-style:normal;font-weight:normal;fill:#0000ff;fill-opacity:1;stroke:none;stroke-width:1px;stroke-linecap:butt;stroke-linejoin:miter;stroke-opacity:1;font-family:Bitstream Vera Sans"
       x="69.710175"
       y="273.16302"
       id="text3863"
       inkscape:export-filename="/home/juan/desarrollo/curso-pic/pic16-dibujos/Timers/Timer0-diagrama.png"
       inkscape:export-xdpi="90"
       inkscape:export-ydpi="90"
       transform="scale(0.9998025,1.0001976)"><tspan
         sodipodi:role="line"
         id="tspan3865"
         x="69.710175"
         y="273.16302">Selección</tspan><tspan
         sodipodi:role="line"
         x="69.710175"
         y="287.04279"
         id="tspan3867">del flanco</tspan></text>
    <text
       xml:space="preserve"
       style="font-size:11.10381508px;font-style:normal;font-weight:normal;fill:#0000ff;fill-opacity:1;stroke:none;stroke-width:1px;stroke-linecap:butt;stroke-linejoin:miter;stroke-opacity:1;font-family:Bitstream Vera Sans"
       x="66.092682"
       y="303.00735"
       id="text3869"
       inkscape:export-filename="/home/juan/desarrollo/curso-pic/pic16-dibujos/Timers/Timer0-diagrama.png"
       inkscape:export-xdpi="90"
       inkscape:export-ydpi="90"
       transform="scale(0.9998025,1.0001976)"><tspan
         sodipodi:role="line"
         id="tspan3871"
         x="66.092682"
         y="303.00735">0 = subida</tspan><tspan
         sodipodi:role="line"
         x="66.092682"
         y="316.88712"
         id="tspan3873">1 = bajada</tspan></text>
    <text
       xml:space="preserve"
       style="font-size:16px;font-style:normal;font-weight:normal;fill:#000000;fill-opacity:1;stroke:none;stroke-width:1px;stroke-linecap:butt;stroke-linejoin:miter;stroke-opacity:1;font-family:Bitstream Vera Sans"
       x="350.54849"
       y="362.99362"
       id="text2496"><tspan
         sodipodi:role="line"
         id="tspan2498"
         x="350.54849"
         y="362.99362" /></text>
    <text
       xml:space="preserve"
       style="font-size:11.10381508px;font-style:normal;font-variant:normal;font-weight:normal;font-stretch:normal;text-align:start;line-height:125%;writing-mode:lr-tb;text-anchor:start;fill:#ff0000;fill-opacity:1;stroke:none;stroke-width:1px;stroke-linecap:butt;stroke-linejoin:miter;stroke-opacity:1;display:inline;font-family:Bitstream Vera Sans;-inkscape-font-specification:Bitstream Vera Sans"
       x="35.296135"
       y="72.714783"
       id="text2500"
       sodipodi:linespacing="125%"
       inkscape:export-filename="/home/juan/desarrollo/curso-pic/pic16-dibujos/Timers/Timer0-diagrama.png"
       inkscape:export-xdpi="90"
       inkscape:export-ydpi="90"
       transform="scale(0.9998025,1.0001976)"><tspan
         sodipodi:role="line"
         id="tspan2502"
         x="35.296135"
         y="72.714783">Reloj del sistema</tspan></text>
    <text
       xml:space="preserve"
       style="font-size:11.10381508px;font-style:normal;font-variant:normal;font-weight:normal;font-stretch:normal;text-align:start;line-height:125%;writing-mode:lr-tb;text-anchor:start;fill:#ff0000;fill-opacity:1;stroke:none;stroke-width:1px;stroke-linecap:butt;stroke-linejoin:miter;stroke-opacity:1;display:inline;font-family:Bitstream Vera Sans;-inkscape-font-specification:Bitstream Vera Sans"
       x="36.994823"
       y="164.41878"
       id="text2504"
       sodipodi:linespacing="125%"
       inkscape:export-filename="/home/juan/desarrollo/curso-pic/pic16-dibujos/Timers/Timer0-diagrama.png"
       inkscape:export-xdpi="90"
       inkscape:export-ydpi="90"
       transform="scale(0.9998025,1.0001976)"><tspan
         sodipodi:role="line"
         id="tspan2506"
         x="36.994823"
         y="164.41878">Reloj externo</tspan></text>
    <text
       xml:space="preserve"
       style="font-size:11.10381508px;font-style:normal;font-variant:normal;font-weight:bold;font-stretch:normal;text-align:start;line-height:125%;writing-mode:lr-tb;text-anchor:start;fill:#000000;fill-opacity:1;stroke:none;stroke-width:1px;stroke-linecap:butt;stroke-linejoin:miter;stroke-opacity:1;display:inline;font-family:Bitstream Vera Sans;-inkscape-font-specification:Bitstream Vera Sans Bold"
       x="31.366865"
       y="386.96899"
       id="text2521"
       sodipodi:linespacing="125%"
       inkscape:export-filename="/home/juan/desarrollo/curso-pic/pic16-dibujos/Timers/Timer0-diagrama.png"
       inkscape:export-xdpi="90"
       inkscape:export-ydpi="90"
       transform="scale(0.9998025,1.0001976)"><tspan
         sodipodi:role="line"
         id="tspan2523"
         x="31.366865"
         y="386.96899">Configuración</tspan></text>
    <text
       xml:space="preserve"
       style="font-size:11.10381508px;font-style:normal;font-variant:normal;font-weight:normal;font-stretch:normal;text-align:start;line-height:125%;writing-mode:lr-tb;text-anchor:start;fill:#000000;fill-opacity:1;stroke:none;stroke-width:1px;stroke-linecap:butt;stroke-linejoin:miter;stroke-opacity:1;display:inline;font-family:Bitstream Vera Sans;-inkscape-font-specification:Bitstream Vera Sans"
       x="198.98778"
       y="112.50729"
       id="text2525"
       sodipodi:linespacing="125%"
       inkscape:export-filename="/home/juan/desarrollo/curso-pic/pic16-dibujos/Timers/Timer0-diagrama.png"
       inkscape:export-xdpi="90"
       inkscape:export-ydpi="90"
       transform="scale(0.9998025,1.0001976)"><tspan
         sodipodi:role="line"
         id="tspan2527"
         x="198.98778"
         y="112.50729">f=5Mhz</tspan></text>
    <text
       xml:space="preserve"
       style="font-size:11.10381508px;font-style:normal;font-variant:normal;font-weight:normal;font-stretch:normal;text-align:start;line-height:125%;writing-mode:lr-tb;text-anchor:start;fill:#000000;fill-opacity:1;stroke:none;stroke-width:1px;stroke-linecap:butt;stroke-linejoin:miter;stroke-opacity:1;display:inline;font-family:Bitstream Vera Sans;-inkscape-font-specification:Bitstream Vera Sans"
       x="195.15132"
       y="127.51132"
       id="text2529"
       sodipodi:linespacing="125%"
       inkscape:export-filename="/home/juan/desarrollo/curso-pic/pic16-dibujos/Timers/Timer0-diagrama.png"
       inkscape:export-xdpi="90"
       inkscape:export-ydpi="90"
       transform="scale(0.9998025,1.0001976)"><tspan
         sodipodi:role="line"
         id="tspan2531"
         x="195.15132"
         y="127.51132">T=200ns</tspan></text>
    <text
       xml:space="preserve"
       style="font-size:11.10381508px;font-style:normal;font-variant:normal;font-weight:normal;font-stretch:normal;text-align:start;line-height:125%;writing-mode:lr-tb;text-anchor:start;fill:#000000;fill-opacity:1;stroke:none;stroke-width:1px;stroke-linecap:butt;stroke-linejoin:miter;stroke-opacity:1;display:inline;font-family:Bitstream Vera Sans;-inkscape-font-specification:Bitstream Vera Sans"
       x="183.87193"
       y="74.886833"
       id="text2533"
       sodipodi:linespacing="125%"
       inkscape:export-filename="/home/juan/desarrollo/curso-pic/pic16-dibujos/Timers/Timer0-diagrama.png"
       inkscape:export-xdpi="90"
       inkscape:export-ydpi="90"
       transform="scale(0.9998025,1.0001976)"><tspan
         sodipodi:role="line"
         id="tspan2535"
         x="183.87193"
         y="74.886833">Cristal 20Mhz</tspan></text>
    <path
       style="fill:none;fill-rule:evenodd;stroke:#000000;stroke-width:1px;stroke-linecap:butt;stroke-linejoin:miter;marker-end:url(#Arrow2Mend);stroke-opacity:1"
       d="M 219.79948,81.451829 L 219.79948,97.305073"
       id="path2537"
       inkscape:export-filename="/home/juan/desarrollo/curso-pic/pic16-dibujos/Timers/Timer0-diagrama.png"
       inkscape:export-xdpi="90"
       inkscape:export-ydpi="90" />
    <rect
       style="fill:none;fill-opacity:1;stroke:#000000;stroke-width:1;stroke-linecap:round;stroke-linejoin:round;stroke-miterlimit:4;stroke-dasharray:2.00000003, 2.00000003;stroke-dashoffset:0;stroke-opacity:1"
       id="rect3890"
       width="94.036316"
       height="83.218842"
       x="174.58307"
       y="59.742554"
       inkscape:export-filename="/home/juan/desarrollo/curso-pic/pic16-dibujos/Timers/Timer0-diagrama.png"
       inkscape:export-xdpi="90"
       inkscape:export-ydpi="90" />
  </g>
</svg>
