<?xml version="1.0" encoding="UTF-8" standalone="no"?>
<!-- Created with Inkscape (http://www.inkscape.org/) -->
<svg
   xmlns:dc="http://purl.org/dc/elements/1.1/"
   xmlns:cc="http://creativecommons.org/ns#"
   xmlns:rdf="http://www.w3.org/1999/02/22-rdf-syntax-ns#"
   xmlns:svg="http://www.w3.org/2000/svg"
   xmlns="http://www.w3.org/2000/svg"
   xmlns:sodipodi="http://sodipodi.sourceforge.net/DTD/sodipodi-0.dtd"
   xmlns:inkscape="http://www.inkscape.org/namespaces/inkscape"
   width="210mm"
   height="297mm"
   id="svg2"
   sodipodi:version="0.32"
   inkscape:version="0.46"
   sodipodi:docname="pwm-senal2.svg"
   inkscape:output_extension="org.inkscape.output.svg.inkscape"
   inkscape:export-filename="/home/juan/desarrollo/curso-pic/pic16-dibujos/Timers/Timer0-pausa1ms-cuadrada.png"
   inkscape:export-xdpi="90"
   inkscape:export-ydpi="90">
  <defs
     id="defs4">
    <marker
       inkscape:stockid="Arrow2Mstart"
       orient="auto"
       refY="0.0"
       refX="0.0"
       id="Arrow2Mstart"
       style="overflow:visible">
      <path
         id="path3806"
         style="font-size:12.0;fill-rule:evenodd;stroke-width:0.62500000;stroke-linejoin:round"
         d="M 8.7185878,4.0337352 L -2.2072895,0.016013256 L 8.7185884,-4.0017078 C 6.9730900,-1.6296469 6.9831476,1.6157441 8.7185878,4.0337352 z "
         transform="scale(0.6) translate(0,0)" />
    </marker>
    <marker
       inkscape:stockid="TriangleInS"
       orient="auto"
       refY="0.0"
       refX="0.0"
       id="TriangleInS"
       style="overflow:visible">
      <path
         id="path3922"
         d="M 5.77,0.0 L -2.88,5.0 L -2.88,-5.0 L 5.77,0.0 z "
         style="fill-rule:evenodd;stroke:#000000;stroke-width:1.0pt;marker-start:none"
         transform="scale(-0.2)" />
    </marker>
    <marker
       inkscape:stockid="TriangleOutS"
       orient="auto"
       refY="0.0"
       refX="0.0"
       id="TriangleOutS"
       style="overflow:visible">
      <path
         id="path3931"
         d="M 5.77,0.0 L -2.88,5.0 L -2.88,-5.0 L 5.77,0.0 z "
         style="fill-rule:evenodd;stroke:#000000;stroke-width:1.0pt;marker-start:none"
         transform="scale(0.2)" />
    </marker>
    <marker
       inkscape:stockid="Arrow2Send"
       orient="auto"
       refY="0.0"
       refX="0.0"
       id="Arrow2Send"
       style="overflow:visible;">
      <path
         id="path3815"
         style="font-size:12.0;fill-rule:evenodd;stroke-width:0.62500000;stroke-linejoin:round;"
         d="M 8.7185878,4.0337352 L -2.2072895,0.016013256 L 8.7185884,-4.0017078 C 6.9730900,-1.6296469 6.9831476,1.6157441 8.7185878,4.0337352 z "
         transform="scale(0.3) rotate(180) translate(-2.3,0)" />
    </marker>
    <marker
       inkscape:stockid="Arrow1Send"
       orient="auto"
       refY="0.0"
       refX="0.0"
       id="Arrow1Send"
       style="overflow:visible;">
      <path
         id="path3797"
         d="M 0.0,0.0 L 5.0,-5.0 L -12.5,0.0 L 5.0,5.0 L 0.0,0.0 z "
         style="fill-rule:evenodd;stroke:#000000;stroke-width:1.0pt;marker-start:none;"
         transform="scale(0.2) rotate(180) translate(6,0)" />
    </marker>
    <marker
       inkscape:stockid="Arrow2Mend"
       orient="auto"
       refY="0.0"
       refX="0.0"
       id="Arrow2Mend"
       style="overflow:visible;">
      <path
         id="path3809"
         style="font-size:12.0;fill-rule:evenodd;stroke-width:0.62500000;stroke-linejoin:round;"
         d="M 8.7185878,4.0337352 L -2.2072895,0.016013256 L 8.7185884,-4.0017078 C 6.9730900,-1.6296469 6.9831476,1.6157441 8.7185878,4.0337352 z "
         transform="scale(0.6) rotate(180) translate(0,0)" />
    </marker>
    <inkscape:perspective
       sodipodi:type="inkscape:persp3d"
       inkscape:vp_x="0 : 526.18109 : 1"
       inkscape:vp_y="0 : 1000 : 0"
       inkscape:vp_z="744.09448 : 526.18109 : 1"
       inkscape:persp3d-origin="372.04724 : 350.78739 : 1"
       id="perspective10" />
    <inkscape:perspective
       id="perspective2428"
       inkscape:persp3d-origin="372.04724 : 350.78739 : 1"
       inkscape:vp_z="744.09448 : 526.18109 : 1"
       inkscape:vp_y="0 : 1000 : 0"
       inkscape:vp_x="0 : 526.18109 : 1"
       sodipodi:type="inkscape:persp3d" />
    <inkscape:perspective
       id="perspective4904"
       inkscape:persp3d-origin="372.04724 : 350.78739 : 1"
       inkscape:vp_z="744.09448 : 526.18109 : 1"
       inkscape:vp_y="0 : 1000 : 0"
       inkscape:vp_x="0 : 526.18109 : 1"
       sodipodi:type="inkscape:persp3d" />
    <inkscape:perspective
       id="perspective2643"
       inkscape:persp3d-origin="1500 : 666.66667 : 1"
       inkscape:vp_z="3000 : 1000 : 1"
       inkscape:vp_y="0 : 1000 : 0"
       inkscape:vp_x="0 : 1000 : 1"
       sodipodi:type="inkscape:persp3d" />
    <inkscape:perspective
       sodipodi:type="inkscape:persp3d"
       inkscape:vp_x="0 : 1000 : 1"
       inkscape:vp_y="0 : 1000 : 0"
       inkscape:vp_z="3000 : 1000 : 1"
       inkscape:persp3d-origin="1500 : 666.66667 : 1"
       id="perspective2977" />
    <inkscape:perspective
       sodipodi:type="inkscape:persp3d"
       inkscape:vp_x="0 : 526.18109 : 1"
       inkscape:vp_y="0 : 1000 : 0"
       inkscape:vp_z="744.09448 : 526.18109 : 1"
       inkscape:persp3d-origin="372.04724 : 350.78739 : 1"
       id="perspective2975" />
    <inkscape:perspective
       sodipodi:type="inkscape:persp3d"
       inkscape:vp_x="0 : 526.18109 : 1"
       inkscape:vp_y="0 : 1000 : 0"
       inkscape:vp_z="744.09448 : 526.18109 : 1"
       inkscape:persp3d-origin="372.04724 : 350.78739 : 1"
       id="perspective2973" />
    <inkscape:perspective
       id="perspective2971"
       inkscape:persp3d-origin="372.04724 : 350.78739 : 1"
       inkscape:vp_z="744.09448 : 526.18109 : 1"
       inkscape:vp_y="0 : 1000 : 0"
       inkscape:vp_x="0 : 526.18109 : 1"
       sodipodi:type="inkscape:persp3d" />
    <marker
       style="overflow:visible;"
       id="marker2967"
       refX="0.0"
       refY="0.0"
       orient="auto"
       inkscape:stockid="Arrow2Mend">
      <path
         transform="scale(0.6) rotate(180) translate(0,0)"
         d="M 8.7185878,4.0337352 L -2.2072895,0.016013256 L 8.7185884,-4.0017078 C 6.9730900,-1.6296469 6.9831476,1.6157441 8.7185878,4.0337352 z "
         style="font-size:12.0;fill-rule:evenodd;stroke-width:0.62500000;stroke-linejoin:round;"
         id="path2969" />
    </marker>
    <marker
       style="overflow:visible;"
       id="marker2963"
       refX="0.0"
       refY="0.0"
       orient="auto"
       inkscape:stockid="Arrow1Send">
      <path
         transform="scale(0.2) rotate(180) translate(6,0)"
         style="fill-rule:evenodd;stroke:#000000;stroke-width:1.0pt;marker-start:none;"
         d="M 0.0,0.0 L 5.0,-5.0 L -12.5,0.0 L 5.0,5.0 L 0.0,0.0 z "
         id="path2965" />
    </marker>
    <marker
       style="overflow:visible;"
       id="marker2959"
       refX="0.0"
       refY="0.0"
       orient="auto"
       inkscape:stockid="Arrow2Send">
      <path
         transform="scale(0.3) rotate(180) translate(-2.3,0)"
         d="M 8.7185878,4.0337352 L -2.2072895,0.016013256 L 8.7185884,-4.0017078 C 6.9730900,-1.6296469 6.9831476,1.6157441 8.7185878,4.0337352 z "
         style="font-size:12.0;fill-rule:evenodd;stroke-width:0.62500000;stroke-linejoin:round;"
         id="path2961" />
    </marker>
    <marker
       style="overflow:visible"
       id="marker2955"
       refX="0.0"
       refY="0.0"
       orient="auto"
       inkscape:stockid="TriangleOutS">
      <path
         transform="scale(0.2)"
         style="fill-rule:evenodd;stroke:#000000;stroke-width:1.0pt;marker-start:none"
         d="M 5.77,0.0 L -2.88,5.0 L -2.88,-5.0 L 5.77,0.0 z "
         id="path2957" />
    </marker>
    <marker
       style="overflow:visible"
       id="marker2951"
       refX="0.0"
       refY="0.0"
       orient="auto"
       inkscape:stockid="TriangleInS">
      <path
         transform="scale(-0.2)"
         style="fill-rule:evenodd;stroke:#000000;stroke-width:1.0pt;marker-start:none"
         d="M 5.77,0.0 L -2.88,5.0 L -2.88,-5.0 L 5.77,0.0 z "
         id="path2953" />
    </marker>
    <marker
       style="overflow:visible"
       id="marker2947"
       refX="0.0"
       refY="0.0"
       orient="auto"
       inkscape:stockid="Arrow2Mstart">
      <path
         transform="scale(0.6) translate(0,0)"
         d="M 8.7185878,4.0337352 L -2.2072895,0.016013256 L 8.7185884,-4.0017078 C 6.9730900,-1.6296469 6.9831476,1.6157441 8.7185878,4.0337352 z "
         style="font-size:12.0;fill-rule:evenodd;stroke-width:0.62500000;stroke-linejoin:round"
         id="path2949" />
    </marker>
    <inkscape:perspective
       id="perspective2488"
       inkscape:persp3d-origin="372.04724 : 350.78739 : 1"
       inkscape:vp_z="744.09448 : 526.18109 : 1"
       inkscape:vp_y="0 : 1000 : 0"
       inkscape:vp_x="0 : 526.18109 : 1"
       sodipodi:type="inkscape:persp3d" />
    <inkscape:perspective
       sodipodi:type="inkscape:persp3d"
       inkscape:vp_x="0 : 1000 : 1"
       inkscape:vp_y="0 : 1000 : 0"
       inkscape:vp_z="3000 : 1000 : 1"
       inkscape:persp3d-origin="1500 : 666.66667 : 1"
       id="perspective3758" />
    <inkscape:perspective
       sodipodi:type="inkscape:persp3d"
       inkscape:vp_x="0 : 526.18109 : 1"
       inkscape:vp_y="0 : 1000 : 0"
       inkscape:vp_z="744.09448 : 526.18109 : 1"
       inkscape:persp3d-origin="372.04724 : 350.78739 : 1"
       id="perspective3756" />
    <inkscape:perspective
       sodipodi:type="inkscape:persp3d"
       inkscape:vp_x="0 : 526.18109 : 1"
       inkscape:vp_y="0 : 1000 : 0"
       inkscape:vp_z="744.09448 : 526.18109 : 1"
       inkscape:persp3d-origin="372.04724 : 350.78739 : 1"
       id="perspective3754" />
    <inkscape:perspective
       id="perspective3752"
       inkscape:persp3d-origin="372.04724 : 350.78739 : 1"
       inkscape:vp_z="744.09448 : 526.18109 : 1"
       inkscape:vp_y="0 : 1000 : 0"
       inkscape:vp_x="0 : 526.18109 : 1"
       sodipodi:type="inkscape:persp3d" />
    <marker
       style="overflow:visible;"
       id="marker3748"
       refX="0.0"
       refY="0.0"
       orient="auto"
       inkscape:stockid="Arrow2Mend">
      <path
         transform="scale(0.6) rotate(180) translate(0,0)"
         d="M 8.7185878,4.0337352 L -2.2072895,0.016013256 L 8.7185884,-4.0017078 C 6.9730900,-1.6296469 6.9831476,1.6157441 8.7185878,4.0337352 z "
         style="font-size:12.0;fill-rule:evenodd;stroke-width:0.62500000;stroke-linejoin:round;"
         id="path3750" />
    </marker>
    <marker
       style="overflow:visible;"
       id="marker3744"
       refX="0.0"
       refY="0.0"
       orient="auto"
       inkscape:stockid="Arrow1Send">
      <path
         transform="scale(0.2) rotate(180) translate(6,0)"
         style="fill-rule:evenodd;stroke:#000000;stroke-width:1.0pt;marker-start:none;"
         d="M 0.0,0.0 L 5.0,-5.0 L -12.5,0.0 L 5.0,5.0 L 0.0,0.0 z "
         id="path3746" />
    </marker>
    <marker
       style="overflow:visible;"
       id="marker3740"
       refX="0.0"
       refY="0.0"
       orient="auto"
       inkscape:stockid="Arrow2Send">
      <path
         transform="scale(0.3) rotate(180) translate(-2.3,0)"
         d="M 8.7185878,4.0337352 L -2.2072895,0.016013256 L 8.7185884,-4.0017078 C 6.9730900,-1.6296469 6.9831476,1.6157441 8.7185878,4.0337352 z "
         style="font-size:12.0;fill-rule:evenodd;stroke-width:0.62500000;stroke-linejoin:round;"
         id="path3742" />
    </marker>
    <marker
       style="overflow:visible"
       id="marker3736"
       refX="0.0"
       refY="0.0"
       orient="auto"
       inkscape:stockid="TriangleOutS">
      <path
         transform="scale(0.2)"
         style="fill-rule:evenodd;stroke:#000000;stroke-width:1.0pt;marker-start:none"
         d="M 5.77,0.0 L -2.88,5.0 L -2.88,-5.0 L 5.77,0.0 z "
         id="path3738" />
    </marker>
    <marker
       style="overflow:visible"
       id="marker3732"
       refX="0.0"
       refY="0.0"
       orient="auto"
       inkscape:stockid="TriangleInS">
      <path
         transform="scale(-0.2)"
         style="fill-rule:evenodd;stroke:#000000;stroke-width:1.0pt;marker-start:none"
         d="M 5.77,0.0 L -2.88,5.0 L -2.88,-5.0 L 5.77,0.0 z "
         id="path3734" />
    </marker>
    <marker
       style="overflow:visible"
       id="marker3728"
       refX="0.0"
       refY="0.0"
       orient="auto"
       inkscape:stockid="Arrow2Mstart">
      <path
         transform="scale(0.6) translate(0,0)"
         d="M 8.7185878,4.0337352 L -2.2072895,0.016013256 L 8.7185884,-4.0017078 C 6.9730900,-1.6296469 6.9831476,1.6157441 8.7185878,4.0337352 z "
         style="font-size:12.0;fill-rule:evenodd;stroke-width:0.62500000;stroke-linejoin:round"
         id="path3730" />
    </marker>
    <inkscape:perspective
       id="perspective4362"
       inkscape:persp3d-origin="1500 : 666.66667 : 1"
       inkscape:vp_z="3000 : 1000 : 1"
       inkscape:vp_y="0 : 1000 : 0"
       inkscape:vp_x="0 : 1000 : 1"
       sodipodi:type="inkscape:persp3d" />
    <inkscape:perspective
       id="perspective2583"
       inkscape:persp3d-origin="372.04724 : 350.78739 : 1"
       inkscape:vp_z="744.09448 : 526.18109 : 1"
       inkscape:vp_y="0 : 1000 : 0"
       inkscape:vp_x="0 : 526.18109 : 1"
       sodipodi:type="inkscape:persp3d" />
    <inkscape:perspective
       id="perspective2485"
       inkscape:persp3d-origin="372.04724 : 350.78739 : 1"
       inkscape:vp_z="744.09448 : 526.18109 : 1"
       inkscape:vp_y="0 : 1000 : 0"
       inkscape:vp_x="0 : 526.18109 : 1"
       sodipodi:type="inkscape:persp3d" />
  </defs>
  <sodipodi:namedview
     id="base"
     pagecolor="#ffffff"
     bordercolor="#666666"
     borderopacity="1.0"
     inkscape:pageopacity="0.0"
     inkscape:pageshadow="2"
     inkscape:zoom="0.7673689"
     inkscape:cx="235.89504"
     inkscape:cy="613.18366"
     inkscape:document-units="px"
     inkscape:current-layer="layer2"
     showgrid="true"
     inkscape:window-width="1680"
     inkscape:window-height="974"
     inkscape:window-x="0"
     inkscape:window-y="24"
     showguides="true"
     inkscape:guide-bbox="true"
     inkscape:object-nodes="true">
    <inkscape:grid
       type="xygrid"
       id="grid2495"
       visible="false"
       enabled="true"
       dotted="true" />
  </sodipodi:namedview>
  <metadata
     id="metadata7">
    <rdf:RDF>
      <cc:Work
         rdf:about="">
        <dc:format>image/svg+xml</dc:format>
        <dc:type
           rdf:resource="http://purl.org/dc/dcmitype/StillImage" />
      </cc:Work>
    </rdf:RDF>
  </metadata>
  <g
     inkscape:groupmode="layer"
     id="layer1"
     inkscape:label="png" />
  <g
     inkscape:groupmode="layer"
     id="layer2"
     inkscape:label="dibujo"
     style="display:inline">
    <text
       xml:space="preserve"
       style="font-size:12px;font-style:normal;font-weight:normal;fill:#000000;fill-opacity:1;stroke:none;stroke-width:1px;stroke-linecap:butt;stroke-linejoin:miter;stroke-opacity:1;font-family:Bitstream Vera Sans"
       x="121.42857"
       y="431.64789"
       id="text3234"><tspan
         sodipodi:role="line"
         id="tspan3236"
         x="121.42857"
         y="431.64789" /></text>
    <text
       xml:space="preserve"
       style="font-size:10px;font-style:normal;font-weight:normal;fill:#000000;fill-opacity:1;stroke:none;stroke-width:1px;stroke-linecap:butt;stroke-linejoin:miter;stroke-opacity:1;font-family:Bitstream Vera Sans"
       x="-436.55667"
       y="622.32129"
       id="text14615"><tspan
         sodipodi:role="line"
         id="tspan14617"
         x="-436.55667"
         y="622.32129" /></text>
    <text
       xml:space="preserve"
       style="font-size:16px;font-style:normal;font-weight:normal;fill:#000000;fill-opacity:1;stroke:none;stroke-width:1px;stroke-linecap:butt;stroke-linejoin:miter;stroke-opacity:1;font-family:Bitstream Vera Sans"
       x="350.54849"
       y="362.99362"
       id="text2496"><tspan
         sodipodi:role="line"
         id="tspan2498"
         x="350.54849"
         y="362.99362" /></text>
    <text
       xml:space="preserve"
       style="font-size:16px;font-style:normal;font-weight:normal;fill:#000000;fill-opacity:1;stroke:none;stroke-width:1px;stroke-linecap:butt;stroke-linejoin:miter;stroke-opacity:1;font-family:Bitstream Vera Sans"
       x="143.74919"
       y="63.625767"
       id="text2511"><tspan
         sodipodi:role="line"
         id="tspan2513"
         x="143.74919"
         y="63.625767" /></text>
    <text
       xml:space="preserve"
       style="font-size:4px;font-style:normal;font-weight:normal;fill:#000000;fill-opacity:1;stroke:none;stroke-width:1px;stroke-linecap:butt;stroke-linejoin:miter;stroke-opacity:1;font-family:Bitstream Vera Sans"
       x="159.41417"
       y="114.30657"
       id="text2527"><tspan
         sodipodi:role="line"
         id="tspan2529"
         x="159.41417"
         y="114.30657" /></text>
    <text
       xml:space="preserve"
       style="font-size:0.75083673px;font-style:normal;font-weight:normal;fill:#000000;fill-opacity:1;stroke:none;stroke-width:1px;stroke-linecap:butt;stroke-linejoin:miter;stroke-opacity:1;font-family:Lello"
       x="-584.82648"
       y="-368.10074"
       id="text2171"><tspan
         sodipodi:role="line"
         id="tspan2173"
         x="-584.82648"
         y="-368.10074" /></text>
    <text
       id="text2985"
       y="584.40991"
       x="864.41132"
       style="font-size:12px;font-style:normal;font-weight:normal;fill:#000000;fill-opacity:1;stroke:none;stroke-width:1px;stroke-linecap:butt;stroke-linejoin:miter;stroke-opacity:1;font-family:Bitstream Vera Sans"
       xml:space="preserve"><tspan
         y="584.40991"
         x="864.41132"
         id="tspan2987"
         sodipodi:role="line" /></text>
    <text
       id="text2989"
       y="775.08331"
       x="306.42606"
       style="font-size:10px;font-style:normal;font-weight:normal;fill:#000000;fill-opacity:1;stroke:none;stroke-width:1px;stroke-linecap:butt;stroke-linejoin:miter;stroke-opacity:1;font-family:Bitstream Vera Sans"
       xml:space="preserve"><tspan
         y="775.08331"
         x="306.42606"
         id="tspan2991"
         sodipodi:role="line" /></text>
    <text
       id="text2993"
       y="515.75562"
       x="1093.5312"
       style="font-size:16px;font-style:normal;font-weight:normal;fill:#000000;fill-opacity:1;stroke:none;stroke-width:1px;stroke-linecap:butt;stroke-linejoin:miter;stroke-opacity:1;font-family:Bitstream Vera Sans"
       xml:space="preserve"><tspan
         y="515.75562"
         x="1093.5312"
         id="tspan2995"
         sodipodi:role="line" /></text>
    <text
       id="text2997"
       y="216.38777"
       x="886.73193"
       style="font-size:16px;font-style:normal;font-weight:normal;fill:#000000;fill-opacity:1;stroke:none;stroke-width:1px;stroke-linecap:butt;stroke-linejoin:miter;stroke-opacity:1;font-family:Bitstream Vera Sans"
       xml:space="preserve"><tspan
         y="216.38777"
         x="886.73193"
         id="tspan2999"
         sodipodi:role="line" /></text>
    <text
       id="text3005"
       y="267.06857"
       x="902.39691"
       style="font-size:4px;font-style:normal;font-weight:normal;fill:#000000;fill-opacity:1;stroke:none;stroke-width:1px;stroke-linecap:butt;stroke-linejoin:miter;stroke-opacity:1;font-family:Bitstream Vera Sans"
       xml:space="preserve"><tspan
         y="267.06857"
         x="902.39691"
         id="tspan3007"
         sodipodi:role="line" /></text>
    <text
       id="text3043"
       y="-215.33875"
       x="158.15625"
       style="font-size:0.75083673px;font-style:normal;font-weight:normal;fill:#000000;fill-opacity:1;stroke:none;stroke-width:1px;stroke-linecap:butt;stroke-linejoin:miter;stroke-opacity:1;font-family:Lello"
       xml:space="preserve"><tspan
         y="-215.33875"
         x="158.15625"
         id="tspan3045"
         sodipodi:role="line" /></text>
    <g
       id="g3762"
       inkscape:label="png"
       transform="translate(163.0791,340.41621)" />
    <text
       id="text3766"
       y="772.06409"
       x="284.50766"
       style="font-size:12px;font-style:normal;font-weight:normal;fill:#000000;fill-opacity:1;stroke:none;stroke-width:1px;stroke-linecap:butt;stroke-linejoin:miter;stroke-opacity:1;font-family:Bitstream Vera Sans"
       xml:space="preserve"><tspan
         y="772.06409"
         x="284.50766"
         id="tspan3768"
         sodipodi:role="line" /></text>
    <text
       id="text3770"
       y="962.73749"
       x="-273.47757"
       style="font-size:10px;font-style:normal;font-weight:normal;fill:#000000;fill-opacity:1;stroke:none;stroke-width:1px;stroke-linecap:butt;stroke-linejoin:miter;stroke-opacity:1;font-family:Bitstream Vera Sans"
       xml:space="preserve"><tspan
         y="962.73749"
         x="-273.47757"
         id="tspan3772"
         sodipodi:role="line" /></text>
    <text
       id="text3774"
       y="703.40985"
       x="513.62756"
       style="font-size:16px;font-style:normal;font-weight:normal;fill:#000000;fill-opacity:1;stroke:none;stroke-width:1px;stroke-linecap:butt;stroke-linejoin:miter;stroke-opacity:1;font-family:Bitstream Vera Sans"
       xml:space="preserve"><tspan
         y="703.40985"
         x="513.62756"
         id="tspan3776"
         sodipodi:role="line" /></text>
    <text
       id="text3778"
       y="404.04196"
       x="306.82828"
       style="font-size:16px;font-style:normal;font-weight:normal;fill:#000000;fill-opacity:1;stroke:none;stroke-width:1px;stroke-linecap:butt;stroke-linejoin:miter;stroke-opacity:1;font-family:Bitstream Vera Sans"
       xml:space="preserve"><tspan
         y="404.04196"
         x="306.82828"
         id="tspan3780"
         sodipodi:role="line" /></text>
    <text
       id="text3786"
       y="454.72278"
       x="322.49326"
       style="font-size:4px;font-style:normal;font-weight:normal;fill:#000000;fill-opacity:1;stroke:none;stroke-width:1px;stroke-linecap:butt;stroke-linejoin:miter;stroke-opacity:1;font-family:Bitstream Vera Sans"
       xml:space="preserve"><tspan
         y="454.72278"
         x="322.49326"
         id="tspan3788"
         sodipodi:role="line" /></text>
    <text
       id="text3827"
       y="-27.684528"
       x="-421.74738"
       style="font-size:0.75083673px;font-style:normal;font-weight:normal;fill:#000000;fill-opacity:1;stroke:none;stroke-width:1px;stroke-linecap:butt;stroke-linejoin:miter;stroke-opacity:1;font-family:Lello"
       xml:space="preserve"><tspan
         y="-27.684528"
         x="-421.74738"
         id="tspan3829"
         sodipodi:role="line" /></text>
    <text
       id="text4367"
       y="538.96216"
       x="1123.8751"
       style="font-size:0.27619654px;font-style:normal;font-weight:normal;fill:#000000;fill-opacity:1;stroke:none;stroke-width:1px;stroke-linecap:butt;stroke-linejoin:miter;stroke-opacity:1;font-family:Lello"
       xml:space="preserve"><tspan
         y="538.96216"
         x="1123.8751"
         id="tspan4369"
         sodipodi:role="line" /></text>
    <path
       style="fill:none;fill-rule:evenodd;stroke:#000000;stroke-width:2;stroke-linecap:butt;stroke-linejoin:miter;stroke-miterlimit:4;stroke-dasharray:none;stroke-opacity:1;display:inline"
       d="M 202.25715,376.33931 C 202.25715,294.53719 202.25715,294.53719 202.25715,294.53719 L 230.12743,294.53719 L 230.12743,376.72859 L 344.80201,376.72859"
       id="path2514"
       inkscape:export-filename="/home/juan/desarrollo/curso-pic/pic16-dibujos/Timers/pwm-senal2.png"
       inkscape:export-xdpi="90"
       inkscape:export-ydpi="90" />
    <path
       style="fill:none;fill-rule:evenodd;stroke:#0000ff;stroke-width:2;stroke-linecap:butt;stroke-linejoin:miter;stroke-miterlimit:4;stroke-dasharray:6, 6;stroke-dashoffset:0;stroke-opacity:1"
       d="M 173.91917,359.67357 L 629.18156,359.67357"
       id="path2516"
       inkscape:export-filename="/home/juan/desarrollo/curso-pic/pic16-dibujos/Timers/pwm-senal2.png"
       inkscape:export-xdpi="90"
       inkscape:export-ydpi="90" />
    <path
       style="fill:none;fill-rule:evenodd;stroke:#000000;stroke-width:2;stroke-linecap:butt;stroke-linejoin:miter;stroke-miterlimit:4;stroke-dasharray:none;stroke-opacity:1;display:inline"
       d="M 202.25715,493.05323 C 202.25715,411.25111 202.25715,411.25111 202.25715,411.25111 L 273.22304,411.25111 L 273.22304,493.44251 L 344.80201,493.44251"
       id="path2518"
       sodipodi:nodetypes="ccccc"
       inkscape:export-filename="/home/juan/desarrollo/curso-pic/pic16-dibujos/Timers/pwm-senal2.png"
       inkscape:export-xdpi="90"
       inkscape:export-ydpi="90" />
    <path
       style="fill:none;fill-rule:evenodd;stroke:#0000ff;stroke-width:2;stroke-linecap:butt;stroke-linejoin:miter;stroke-miterlimit:4;stroke-dasharray:6, 6;stroke-dashoffset:0;stroke-opacity:1;display:inline"
       d="M 173.91408,451.38126 L 627.91273,451.38126"
       id="path2520"
       inkscape:export-filename="/home/juan/desarrollo/curso-pic/pic16-dibujos/Timers/pwm-senal2.png"
       inkscape:export-xdpi="90"
       inkscape:export-ydpi="90" />
    <path
       style="fill:none;fill-rule:evenodd;stroke:#000000;stroke-width:2;stroke-linecap:butt;stroke-linejoin:miter;stroke-miterlimit:4;stroke-dasharray:none;stroke-opacity:1;display:inline"
       d="M 202.25715,614.1643 C 202.25715,532.36218 202.25715,532.36218 202.25715,532.36218 L 316.38234,532.36218 L 316.38234,614.55358 L 344.80201,614.55358"
       id="path2522"
       sodipodi:nodetypes="ccccc"
       inkscape:export-filename="/home/juan/desarrollo/curso-pic/pic16-dibujos/Timers/pwm-senal2.png"
       inkscape:export-xdpi="90"
       inkscape:export-ydpi="90" />
    <path
       style="fill:none;fill-rule:evenodd;stroke:#0000ff;stroke-width:2;stroke-linecap:butt;stroke-linejoin:miter;stroke-miterlimit:4;stroke-dasharray:6, 6;stroke-dashoffset:0;stroke-opacity:1;display:inline"
       d="M 173.9167,549.02792 L 628.56405,549.02792"
       id="path2524"
       inkscape:export-filename="/home/juan/desarrollo/curso-pic/pic16-dibujos/Timers/pwm-senal2.png"
       inkscape:export-xdpi="90"
       inkscape:export-ydpi="90" />
    <path
       style="fill:none;fill-rule:evenodd;stroke:#000000;stroke-width:2;stroke-linecap:butt;stroke-linejoin:miter;stroke-miterlimit:4;stroke-dasharray:none;stroke-opacity:1;display:inline"
       d="M 344.70502,376.33931 C 344.70502,294.53719 344.70502,294.53719 344.70502,294.53719 L 372.5753,294.53719 L 372.5753,376.72859 L 487.24988,376.72859"
       id="path2526"
       inkscape:export-filename="/home/juan/desarrollo/curso-pic/pic16-dibujos/Timers/pwm-senal2.png"
       inkscape:export-xdpi="90"
       inkscape:export-ydpi="90" />
    <path
       style="fill:none;fill-rule:evenodd;stroke:#000000;stroke-width:2;stroke-linecap:butt;stroke-linejoin:miter;stroke-miterlimit:4;stroke-dasharray:none;stroke-opacity:1;display:inline"
       d="M 344.67558,493.05323 C 344.67558,411.25111 344.67558,411.25111 344.67558,411.25111 L 415.64147,411.25111 L 415.64147,493.44251 L 487.22044,493.44251"
       id="path2528"
       sodipodi:nodetypes="ccccc"
       inkscape:export-filename="/home/juan/desarrollo/curso-pic/pic16-dibujos/Timers/pwm-senal2.png"
       inkscape:export-xdpi="90"
       inkscape:export-ydpi="90" />
    <path
       style="fill:none;fill-rule:evenodd;stroke:#000000;stroke-width:2;stroke-linecap:butt;stroke-linejoin:miter;stroke-miterlimit:4;stroke-dasharray:none;stroke-opacity:1;display:inline"
       d="M 344.18894,613.77502 C 344.18894,531.9729 344.18894,531.9729 344.18894,531.9729 L 458.31413,531.9729 L 458.31413,614.1643 L 486.7338,614.1643"
       id="path2530"
       sodipodi:nodetypes="ccccc"
       inkscape:export-filename="/home/juan/desarrollo/curso-pic/pic16-dibujos/Timers/pwm-senal2.png"
       inkscape:export-xdpi="90"
       inkscape:export-ydpi="90" />
    <path
       style="fill:none;fill-rule:evenodd;stroke:#000000;stroke-width:2;stroke-linecap:butt;stroke-linejoin:miter;stroke-miterlimit:4;stroke-dasharray:none;stroke-opacity:1;display:inline"
       d="M 486.63681,376.33931 C 486.63681,294.53719 486.63681,294.53719 486.63681,294.53719 L 514.50709,294.53719 L 514.50709,376.72859 L 629.18167,376.72859"
       id="path2532"
       inkscape:export-filename="/home/juan/desarrollo/curso-pic/pic16-dibujos/Timers/pwm-senal2.png"
       inkscape:export-xdpi="90"
       inkscape:export-ydpi="90" />
    <path
       style="fill:none;fill-rule:evenodd;stroke:#000000;stroke-width:2;stroke-linecap:butt;stroke-linejoin:miter;stroke-miterlimit:4;stroke-dasharray:none;stroke-opacity:1;display:inline"
       d="M 486.57815,493.05323 C 486.57815,411.25111 486.57815,411.25111 486.57815,411.25111 L 557.54404,411.25111 L 557.54404,493.44251 L 629.12301,493.44251"
       id="path2534"
       sodipodi:nodetypes="ccccc"
       inkscape:export-filename="/home/juan/desarrollo/curso-pic/pic16-dibujos/Timers/pwm-senal2.png"
       inkscape:export-xdpi="90"
       inkscape:export-ydpi="90" />
    <path
       style="fill:none;fill-rule:evenodd;stroke:#000000;stroke-width:2;stroke-linecap:butt;stroke-linejoin:miter;stroke-miterlimit:4;stroke-dasharray:none;stroke-opacity:1;display:inline"
       d="M 486.0915,613.77502 C 486.0915,531.9729 486.0915,531.9729 486.0915,531.9729 L 600.2167,531.9729 L 600.2167,614.1643 L 628.63637,614.1643"
       id="path2536"
       sodipodi:nodetypes="ccccc"
       inkscape:export-filename="/home/juan/desarrollo/curso-pic/pic16-dibujos/Timers/pwm-senal2.png"
       inkscape:export-xdpi="90"
       inkscape:export-ydpi="90" />
    <g
       style="display:inline;-inkscape-font-specification:Bitstream Vera Sans Bold;font-family:Bitstream Vera Sans;font-weight:bold;font-style:normal;font-stretch:normal;font-variant:normal;font-size:22.2942276px;text-anchor:start;text-align:start;writing-mode:lr;line-height:125%"
       id="g3416"
       transform="translate(-143.96813,-96.112287)"
       inkscape:export-filename="/home/juan/desarrollo/curso-pic/pic16-dibujos/Timers/pwm-senal2.png"
       inkscape:export-xdpi="90"
       inkscape:export-ydpi="90">
      <text
         transform="scale(0.9999271,1.0000729)"
         inkscape:export-ydpi="90"
         inkscape:export-xdpi="90"
         inkscape:export-filename="/home/juan/desarrollo/curso-pic/pic16-dibujos/Timers/Timer0-pausa1ms-cuadrada.png"
         sodipodi:linespacing="125%"
         id="text3418"
         y="423.04822"
         x="205.6606"
         style="font-size:22.29422766px;font-style:normal;font-variant:normal;font-weight:bold;font-stretch:normal;text-align:start;line-height:125%;writing-mode:lr;text-anchor:start;fill:#000000;fill-opacity:1;stroke:none;stroke-width:1px;stroke-linecap:butt;stroke-linejoin:miter;stroke-opacity:1;display:inline;font-family:Bitstream Vera Sans;-inkscape-font-specification:Bitstream Vera Sans Bold"
         xml:space="preserve"><tspan
           y="423.04822"
           x="205.6606"
           id="tspan3420"
           sodipodi:role="line">c</tspan></text>
      <text
         transform="scale(0.9999271,1.0000729)"
         inkscape:export-ydpi="90"
         inkscape:export-xdpi="90"
         inkscape:export-filename="/home/juan/desarrollo/curso-pic/pic16-dibujos/Timers/Timer0-pausa1ms-cuadrada.png"
         sodipodi:linespacing="125%"
         id="text3422"
         y="432.42007"
         x="220.85991"
         style="font-size:22.29422766px;font-style:normal;font-variant:normal;font-weight:bold;font-stretch:normal;text-align:start;line-height:125%;writing-mode:lr;text-anchor:start;fill:#000000;fill-opacity:1;stroke:none;stroke-width:1px;stroke-linecap:butt;stroke-linejoin:miter;stroke-opacity:1;display:inline;font-family:Bitstream Vera Sans;-inkscape-font-specification:Bitstream Vera Sans Bold"
         xml:space="preserve"><tspan
           y="432.42007"
           x="220.85991"
           id="tspan3424"
           sodipodi:role="line">t</tspan></text>
    </g>
    <text
       xml:space="preserve"
       style="font-size:22.29422766px;font-style:normal;font-variant:normal;font-weight:bold;font-stretch:normal;text-align:start;line-height:125%;writing-mode:lr;text-anchor:start;fill:#000000;fill-opacity:1;stroke:none;stroke-width:1px;stroke-linecap:butt;stroke-linejoin:miter;stroke-opacity:1;display:inline;font-family:Bitstream Vera Sans;-inkscape-font-specification:Bitstream Vera Sans Bold"
       x="90.719818"
       y="333.45822"
       id="text3428"
       sodipodi:linespacing="125%"
       inkscape:export-filename="/home/juan/desarrollo/curso-pic/pic16-dibujos/Timers/pwm-senal2.png"
       inkscape:export-xdpi="90"
       inkscape:export-ydpi="90"
       transform="scale(0.9999271,1.0000729)"><tspan
         sodipodi:role="line"
         id="tspan3430"
         x="90.719818"
         y="333.45822">=20%</tspan></text>
    <path
       style="fill:#0000ff;fill-rule:evenodd;stroke:#0000ff;stroke-width:1.00000012px;stroke-linecap:butt;stroke-linejoin:miter;marker-end:url(#marker3748);stroke-opacity:1;display:inline"
       d="M 572.19455,327.0588 L 557.9722,348.98525"
       id="path3440"
       inkscape:export-filename="/home/juan/desarrollo/curso-pic/pic16-dibujos/Timers/pwm-senal2.png"
       inkscape:export-xdpi="90"
       inkscape:export-ydpi="90" />
    <text
       xml:space="preserve"
       style="font-size:22.2942276px;font-style:normal;font-variant:normal;font-weight:normal;font-stretch:normal;text-align:start;line-height:125%;writing-mode:lr-tb;text-anchor:start;fill:#000000;fill-opacity:1;stroke:none;stroke-width:1px;stroke-linecap:butt;stroke-linejoin:miter;stroke-opacity:1;display:inline;font-family:Bitstream Vera Sans;-inkscape-font-specification:Bitstream Vera Sans"
       x="550.80249"
       y="295.0676"
       id="text3442"
       sodipodi:linespacing="125%"
       inkscape:export-filename="/home/juan/desarrollo/curso-pic/pic16-dibujos/Timers/pwm-senal2.png"
       inkscape:export-xdpi="90"
       inkscape:export-ydpi="90"
       transform="scale(0.9999271,1.0000729)"><tspan
         sodipodi:role="line"
         id="tspan3444"
         x="550.80249"
         y="295.0676">Valor</tspan><tspan
         sodipodi:role="line"
         x="550.80249"
         y="322.93539"
         id="tspan3446">medio</tspan></text>
    <g
       style="display:inline;-inkscape-font-specification:Bitstream Vera Sans Bold;font-family:Bitstream Vera Sans;font-weight:bold;font-style:normal;font-stretch:normal;font-variant:normal;font-size:22.2942276px;text-anchor:start;text-align:start;writing-mode:lr;line-height:125%"
       id="g3448"
       transform="translate(-143.96813,22.474745)"
       inkscape:export-filename="/home/juan/desarrollo/curso-pic/pic16-dibujos/Timers/pwm-senal2.png"
       inkscape:export-xdpi="90"
       inkscape:export-ydpi="90">
      <text
         transform="scale(0.9999271,1.0000729)"
         inkscape:export-ydpi="90"
         inkscape:export-xdpi="90"
         inkscape:export-filename="/home/juan/desarrollo/curso-pic/pic16-dibujos/Timers/Timer0-pausa1ms-cuadrada.png"
         sodipodi:linespacing="125%"
         id="text3450"
         y="423.04822"
         x="205.6606"
         style="font-size:22.29422766px;font-style:normal;font-variant:normal;font-weight:bold;font-stretch:normal;text-align:start;line-height:125%;writing-mode:lr;text-anchor:start;fill:#000000;fill-opacity:1;stroke:none;stroke-width:1px;stroke-linecap:butt;stroke-linejoin:miter;stroke-opacity:1;display:inline;font-family:Bitstream Vera Sans;-inkscape-font-specification:Bitstream Vera Sans Bold"
         xml:space="preserve"><tspan
           y="423.04822"
           x="205.6606"
           id="tspan3452"
           sodipodi:role="line">c</tspan></text>
      <text
         transform="scale(0.9999271,1.0000729)"
         inkscape:export-ydpi="90"
         inkscape:export-xdpi="90"
         inkscape:export-filename="/home/juan/desarrollo/curso-pic/pic16-dibujos/Timers/Timer0-pausa1ms-cuadrada.png"
         sodipodi:linespacing="125%"
         id="text3454"
         y="432.42007"
         x="220.85991"
         style="font-size:22.29422766px;font-style:normal;font-variant:normal;font-weight:bold;font-stretch:normal;text-align:start;line-height:125%;writing-mode:lr;text-anchor:start;fill:#000000;fill-opacity:1;stroke:none;stroke-width:1px;stroke-linecap:butt;stroke-linejoin:miter;stroke-opacity:1;display:inline;font-family:Bitstream Vera Sans;-inkscape-font-specification:Bitstream Vera Sans Bold"
         xml:space="preserve"><tspan
           y="432.42007"
           x="220.85991"
           id="tspan3456"
           sodipodi:role="line">t</tspan></text>
    </g>
    <text
       xml:space="preserve"
       style="font-size:22.29422766px;font-style:normal;font-variant:normal;font-weight:bold;font-stretch:normal;text-align:start;line-height:125%;writing-mode:lr;text-anchor:start;fill:#000000;fill-opacity:1;stroke:none;stroke-width:1px;stroke-linecap:butt;stroke-linejoin:miter;stroke-opacity:1;display:inline;font-family:Bitstream Vera Sans;-inkscape-font-specification:Bitstream Vera Sans Bold"
       x="90.719818"
       y="452.03662"
       id="text3458"
       sodipodi:linespacing="125%"
       inkscape:export-filename="/home/juan/desarrollo/curso-pic/pic16-dibujos/Timers/pwm-senal2.png"
       inkscape:export-xdpi="90"
       inkscape:export-ydpi="90"
       transform="scale(0.9999271,1.0000729)"><tspan
         sodipodi:role="line"
         id="tspan3460"
         x="90.719818"
         y="452.03662">=50%</tspan></text>
    <g
       style="display:inline;-inkscape-font-specification:Bitstream Vera Sans Bold;font-family:Bitstream Vera Sans;font-weight:bold;font-style:normal;font-stretch:normal;font-variant:normal;font-size:22.2942276px;text-anchor:start;text-align:start;writing-mode:lr;line-height:125%"
       id="g3462"
       transform="translate(-143.96813,123.88771)"
       inkscape:export-filename="/home/juan/desarrollo/curso-pic/pic16-dibujos/Timers/pwm-senal2.png"
       inkscape:export-xdpi="90"
       inkscape:export-ydpi="90">
      <text
         transform="scale(0.9999271,1.0000729)"
         inkscape:export-ydpi="90"
         inkscape:export-xdpi="90"
         inkscape:export-filename="/home/juan/desarrollo/curso-pic/pic16-dibujos/Timers/Timer0-pausa1ms-cuadrada.png"
         sodipodi:linespacing="125%"
         id="text3464"
         y="423.04822"
         x="205.6606"
         style="font-size:22.29422766px;font-style:normal;font-variant:normal;font-weight:bold;font-stretch:normal;text-align:start;line-height:125%;writing-mode:lr;text-anchor:start;fill:#000000;fill-opacity:1;stroke:none;stroke-width:1px;stroke-linecap:butt;stroke-linejoin:miter;stroke-opacity:1;display:inline;font-family:Bitstream Vera Sans;-inkscape-font-specification:Bitstream Vera Sans Bold"
         xml:space="preserve"><tspan
           y="423.04822"
           x="205.6606"
           id="tspan3466"
           sodipodi:role="line">c</tspan></text>
      <text
         transform="scale(0.9999271,1.0000729)"
         inkscape:export-ydpi="90"
         inkscape:export-xdpi="90"
         inkscape:export-filename="/home/juan/desarrollo/curso-pic/pic16-dibujos/Timers/Timer0-pausa1ms-cuadrada.png"
         sodipodi:linespacing="125%"
         id="text3468"
         y="432.42007"
         x="220.85991"
         style="font-size:22.29422766px;font-style:normal;font-variant:normal;font-weight:bold;font-stretch:normal;text-align:start;line-height:125%;writing-mode:lr;text-anchor:start;fill:#000000;fill-opacity:1;stroke:none;stroke-width:1px;stroke-linecap:butt;stroke-linejoin:miter;stroke-opacity:1;display:inline;font-family:Bitstream Vera Sans;-inkscape-font-specification:Bitstream Vera Sans Bold"
         xml:space="preserve"><tspan
           y="432.42007"
           x="220.85991"
           id="tspan3470"
           sodipodi:role="line">t</tspan></text>
    </g>
    <text
       xml:space="preserve"
       style="font-size:22.29422766px;font-style:normal;font-variant:normal;font-weight:bold;font-stretch:normal;text-align:start;line-height:125%;writing-mode:lr;text-anchor:start;fill:#000000;fill-opacity:1;stroke:none;stroke-width:1px;stroke-linecap:butt;stroke-linejoin:miter;stroke-opacity:1;display:inline;font-family:Bitstream Vera Sans;-inkscape-font-specification:Bitstream Vera Sans Bold"
       x="90.719818"
       y="553.44226"
       id="text3472"
       sodipodi:linespacing="125%"
       inkscape:export-filename="/home/juan/desarrollo/curso-pic/pic16-dibujos/Timers/pwm-senal2.png"
       inkscape:export-xdpi="90"
       inkscape:export-ydpi="90"
       transform="scale(0.9999271,1.0000729)"><tspan
         sodipodi:role="line"
         id="tspan3474"
         x="90.719818"
         y="553.44226">=80%</tspan></text>
    <rect
       style="fill:none;fill-opacity:1;stroke:#000000;stroke-width:2;stroke-linecap:round;stroke-linejoin:round;stroke-miterlimit:4;stroke-dasharray:none;stroke-dashoffset:0;stroke-opacity:1"
       id="rect3476"
       width="634.63611"
       height="379.2179"
       x="40.397774"
       y="261.41528"
       inkscape:export-filename="/home/juan/desarrollo/curso-pic/pic16-dibujos/Timers/pwm-senal2.png"
       inkscape:export-xdpi="90"
       inkscape:export-ydpi="90" />
  </g>
</svg>
