<?xml version="1.0" encoding="UTF-8" standalone="no"?>
<!-- Created with Inkscape (http://www.inkscape.org/) -->
<svg
   xmlns:dc="http://purl.org/dc/elements/1.1/"
   xmlns:cc="http://creativecommons.org/ns#"
   xmlns:rdf="http://www.w3.org/1999/02/22-rdf-syntax-ns#"
   xmlns:svg="http://www.w3.org/2000/svg"
   xmlns="http://www.w3.org/2000/svg"
   xmlns:sodipodi="http://sodipodi.sourceforge.net/DTD/sodipodi-0.dtd"
   xmlns:inkscape="http://www.inkscape.org/namespaces/inkscape"
   width="210mm"
   height="297mm"
   id="svg2"
   sodipodi:version="0.32"
   inkscape:version="0.46"
   sodipodi:docname="Timer0-notas-musicales2.svg"
   inkscape:output_extension="org.inkscape.output.svg.inkscape">
  <defs
     id="defs4">
    <marker
       inkscape:stockid="Arrow1Mstart"
       orient="auto"
       refY="0.0"
       refX="0.0"
       id="Arrow1Mstart"
       style="overflow:visible">
      <path
         id="path4016"
         d="M 0.0,0.0 L 5.0,-5.0 L -12.5,0.0 L 5.0,5.0 L 0.0,0.0 z "
         style="fill-rule:evenodd;stroke:#000000;stroke-width:1.0pt;marker-start:none"
         transform="scale(0.4) translate(10,0)" />
    </marker>
    <marker
       inkscape:stockid="Arrow2Mstart"
       orient="auto"
       refY="0.0"
       refX="0.0"
       id="Arrow2Mstart"
       style="overflow:visible">
      <path
         id="path3806"
         style="font-size:12.0;fill-rule:evenodd;stroke-width:0.62500000;stroke-linejoin:round"
         d="M 8.7185878,4.0337352 L -2.2072895,0.016013256 L 8.7185884,-4.0017078 C 6.9730900,-1.6296469 6.9831476,1.6157441 8.7185878,4.0337352 z "
         transform="scale(0.6) translate(0,0)" />
    </marker>
    <marker
       inkscape:stockid="TriangleInS"
       orient="auto"
       refY="0.0"
       refX="0.0"
       id="TriangleInS"
       style="overflow:visible">
      <path
         id="path3922"
         d="M 5.77,0.0 L -2.88,5.0 L -2.88,-5.0 L 5.77,0.0 z "
         style="fill-rule:evenodd;stroke:#000000;stroke-width:1.0pt;marker-start:none"
         transform="scale(-0.2)" />
    </marker>
    <marker
       inkscape:stockid="TriangleOutS"
       orient="auto"
       refY="0.0"
       refX="0.0"
       id="TriangleOutS"
       style="overflow:visible">
      <path
         id="path3931"
         d="M 5.77,0.0 L -2.88,5.0 L -2.88,-5.0 L 5.77,0.0 z "
         style="fill-rule:evenodd;stroke:#000000;stroke-width:1.0pt;marker-start:none"
         transform="scale(0.2)" />
    </marker>
    <marker
       inkscape:stockid="Arrow2Send"
       orient="auto"
       refY="0.0"
       refX="0.0"
       id="Arrow2Send"
       style="overflow:visible;">
      <path
         id="path3815"
         style="font-size:12.0;fill-rule:evenodd;stroke-width:0.62500000;stroke-linejoin:round;"
         d="M 8.7185878,4.0337352 L -2.2072895,0.016013256 L 8.7185884,-4.0017078 C 6.9730900,-1.6296469 6.9831476,1.6157441 8.7185878,4.0337352 z "
         transform="scale(0.3) rotate(180) translate(-2.3,0)" />
    </marker>
    <marker
       inkscape:stockid="Arrow1Send"
       orient="auto"
       refY="0.0"
       refX="0.0"
       id="Arrow1Send"
       style="overflow:visible;">
      <path
         id="path3797"
         d="M 0.0,0.0 L 5.0,-5.0 L -12.5,0.0 L 5.0,5.0 L 0.0,0.0 z "
         style="fill-rule:evenodd;stroke:#000000;stroke-width:1.0pt;marker-start:none;"
         transform="scale(0.2) rotate(180) translate(6,0)" />
    </marker>
    <marker
       inkscape:stockid="Arrow2Mend"
       orient="auto"
       refY="0.0"
       refX="0.0"
       id="Arrow2Mend"
       style="overflow:visible;">
      <path
         id="path3809"
         style="font-size:12.0;fill-rule:evenodd;stroke-width:0.62500000;stroke-linejoin:round;"
         d="M 8.7185878,4.0337352 L -2.2072895,0.016013256 L 8.7185884,-4.0017078 C 6.9730900,-1.6296469 6.9831476,1.6157441 8.7185878,4.0337352 z "
         transform="scale(0.6) rotate(180) translate(0,0)" />
    </marker>
    <inkscape:perspective
       sodipodi:type="inkscape:persp3d"
       inkscape:vp_x="0 : 526.18109 : 1"
       inkscape:vp_y="0 : 1000 : 0"
       inkscape:vp_z="744.09448 : 526.18109 : 1"
       inkscape:persp3d-origin="372.04724 : 350.78739 : 1"
       id="perspective10" />
    <inkscape:perspective
       id="perspective2428"
       inkscape:persp3d-origin="372.04724 : 350.78739 : 1"
       inkscape:vp_z="744.09448 : 526.18109 : 1"
       inkscape:vp_y="0 : 1000 : 0"
       inkscape:vp_x="0 : 526.18109 : 1"
       sodipodi:type="inkscape:persp3d" />
    <inkscape:perspective
       id="perspective4904"
       inkscape:persp3d-origin="372.04724 : 350.78739 : 1"
       inkscape:vp_z="744.09448 : 526.18109 : 1"
       inkscape:vp_y="0 : 1000 : 0"
       inkscape:vp_x="0 : 526.18109 : 1"
       sodipodi:type="inkscape:persp3d" />
    <inkscape:perspective
       id="perspective2643"
       inkscape:persp3d-origin="1500 : 666.66667 : 1"
       inkscape:vp_z="3000 : 1000 : 1"
       inkscape:vp_y="0 : 1000 : 0"
       inkscape:vp_x="0 : 1000 : 1"
       sodipodi:type="inkscape:persp3d" />
  </defs>
  <sodipodi:namedview
     id="base"
     pagecolor="#ffffff"
     bordercolor="#666666"
     borderopacity="1.0"
     inkscape:pageopacity="0.0"
     inkscape:pageshadow="2"
     inkscape:zoom="0.7673689"
     inkscape:cx="216.55592"
     inkscape:cy="838.4159"
     inkscape:document-units="px"
     inkscape:current-layer="layer2"
     showgrid="false"
     inkscape:window-width="1680"
     inkscape:window-height="974"
     inkscape:window-x="0"
     inkscape:window-y="24"
     showguides="true"
     inkscape:guide-bbox="true" />
  <metadata
     id="metadata7">
    <rdf:RDF>
      <cc:Work
         rdf:about="">
        <dc:format>image/svg+xml</dc:format>
        <dc:type
           rdf:resource="http://purl.org/dc/dcmitype/StillImage" />
      </cc:Work>
    </rdf:RDF>
  </metadata>
  <g
     inkscape:groupmode="layer"
     id="layer1"
     inkscape:label="png" />
  <g
     inkscape:groupmode="layer"
     id="layer2"
     inkscape:label="dibujo"
     style="display:inline">
    <text
       xml:space="preserve"
       style="font-size:12px;font-style:normal;font-weight:normal;fill:#000000;fill-opacity:1;stroke:none;stroke-width:1px;stroke-linecap:butt;stroke-linejoin:miter;stroke-opacity:1;font-family:Bitstream Vera Sans"
       x="121.42857"
       y="431.64789"
       id="text3234"><tspan
         sodipodi:role="line"
         id="tspan3236"
         x="121.42857"
         y="431.64789" /></text>
    <text
       xml:space="preserve"
       style="font-size:10px;font-style:normal;font-weight:normal;fill:#000000;fill-opacity:1;stroke:none;stroke-width:1px;stroke-linecap:butt;stroke-linejoin:miter;stroke-opacity:1;font-family:Bitstream Vera Sans"
       x="-436.55667"
       y="622.32129"
       id="text14615"><tspan
         sodipodi:role="line"
         id="tspan14617"
         x="-436.55667"
         y="622.32129" /></text>
    <text
       xml:space="preserve"
       style="font-size:16px;font-style:normal;font-weight:normal;fill:#000000;fill-opacity:1;stroke:none;stroke-width:1px;stroke-linecap:butt;stroke-linejoin:miter;stroke-opacity:1;font-family:Bitstream Vera Sans"
       x="350.54849"
       y="362.99362"
       id="text2496"><tspan
         sodipodi:role="line"
         id="tspan2498"
         x="350.54849"
         y="362.99362" /></text>
    <text
       xml:space="preserve"
       style="font-size:16px;font-style:normal;font-weight:normal;fill:#000000;fill-opacity:1;stroke:none;stroke-width:1px;stroke-linecap:butt;stroke-linejoin:miter;stroke-opacity:1;font-family:Bitstream Vera Sans"
       x="143.74919"
       y="63.625767"
       id="text2511"><tspan
         sodipodi:role="line"
         id="tspan2513"
         x="143.74919"
         y="63.625767" /></text>
    <text
       xml:space="preserve"
       style="font-size:22.2942276px;font-style:normal;font-weight:bold;fill:#000000;fill-opacity:1;stroke:none;stroke-width:1px;stroke-linecap:butt;stroke-linejoin:miter;stroke-opacity:1;font-family:Bitstream Vera Sans;-inkscape-font-specification:Bitstream Vera Sans Bold"
       x="46.502621"
       y="91.498398"
       id="text2515"
       inkscape:export-filename="/home/juan/desarrollo/curso-pic/pic16-dibujos/Timers/Timer0-notas-musicales2.png"
       inkscape:export-xdpi="90"
       inkscape:export-ydpi="90"
       transform="scale(0.9999271,1.0000729)"><tspan
         sodipodi:role="line"
         id="tspan2517"
         x="46.502621"
         y="91.498398">Nota</tspan></text>
    <text
       xml:space="preserve"
       style="font-size:4px;font-style:normal;font-weight:normal;fill:#000000;fill-opacity:1;stroke:none;stroke-width:1px;stroke-linecap:butt;stroke-linejoin:miter;stroke-opacity:1;font-family:Bitstream Vera Sans"
       x="159.41417"
       y="114.30657"
       id="text2527"><tspan
         sodipodi:role="line"
         id="tspan2529"
         x="159.41417"
         y="114.30657" /></text>
    <text
       xml:space="preserve"
       style="font-size:22.2942276px;font-style:normal;font-variant:normal;font-weight:bold;font-stretch:normal;text-align:start;line-height:125%;writing-mode:lr-tb;text-anchor:start;fill:#000000;fill-opacity:1;stroke:none;stroke-width:1px;stroke-linecap:butt;stroke-linejoin:miter;stroke-opacity:1;display:inline;font-family:Bitstream Vera Sans;-inkscape-font-specification:Bitstream Vera Sans Bold"
       x="143.79092"
       y="89.63868"
       id="text2519"
       transform="scale(0.9999272,1.0000728)"
       sodipodi:linespacing="125%"
       inkscape:export-filename="/home/juan/desarrollo/curso-pic/pic16-dibujos/Timers/Timer0-notas-musicales2.png"
       inkscape:export-xdpi="90"
       inkscape:export-ydpi="90"><tspan
         sodipodi:role="line"
         id="tspan2550"
         x="143.79092"
         y="89.63868">Frecuencia (Hz)</tspan></text>
    <text
       xml:space="preserve"
       style="font-size:19.5074482px;font-style:normal;font-weight:bold;fill:#000000;fill-opacity:1;stroke:none;stroke-width:1px;stroke-linecap:butt;stroke-linejoin:miter;stroke-opacity:1;font-family:Bitstream Vera Sans;-inkscape-font-specification:Bitstream Vera Sans Bold"
       x="234.96115"
       y="91.814056"
       id="text2541"
       transform="scale(0.9999272,1.0000728)"><tspan
         sodipodi:role="line"
         id="tspan2543"
         x="234.96115"
         y="91.814056" /></text>
    <text
       xml:space="preserve"
       style="font-size:0.75083673px;font-style:normal;font-weight:normal;fill:#000000;fill-opacity:1;stroke:none;stroke-width:1px;stroke-linecap:butt;stroke-linejoin:miter;stroke-opacity:1;font-family:Lello"
       x="-584.82648"
       y="-368.10074"
       id="text2171"><tspan
         sodipodi:role="line"
         id="tspan2173"
         x="-584.82648"
         y="-368.10074" /></text>
    <text
       xml:space="preserve"
       style="font-size:22.29422759999999926px;font-style:normal;font-variant:normal;font-weight:normal;font-stretch:normal;text-align:start;line-height:125%;writing-mode:lr-tb;text-anchor:start;fill:#0000ff;fill-opacity:1;stroke:none;stroke-width:1px;stroke-linecap:butt;stroke-linejoin:miter;stroke-opacity:1;display:inline;font-family:Bitstream Vera Sans;-inkscape-font-specification:Bitstream Vera Sans"
       x="64.682922"
       y="131.88115"
       id="text2663"
       sodipodi:linespacing="125%"
       inkscape:export-filename="/home/juan/desarrollo/curso-pic/pic16-dibujos/Timers/Timer0-notas-musicales2.png"
       inkscape:export-xdpi="90"
       inkscape:export-ydpi="90"
       transform="scale(0.9999271,1.0000729)"><tspan
         sodipodi:role="line"
         id="tspan2665"
         x="64.682922"
         y="131.88115">DO</tspan></text>
    <path
       style="fill:none;fill-rule:evenodd;stroke:#000000;stroke-width:0.99999994px;stroke-linecap:butt;stroke-linejoin:miter;stroke-opacity:1"
       d="M 31.275701,101.62163 L 550.48081,101.62163"
       id="path3710"
       inkscape:export-filename="/home/juan/desarrollo/curso-pic/pic16-dibujos/Timers/Timer0-notas-musicales2.png"
       inkscape:export-xdpi="90"
       inkscape:export-ydpi="90" />
    <path
       style="fill:none;fill-rule:evenodd;stroke:#000000;stroke-width:0.99999994px;stroke-linecap:butt;stroke-linejoin:miter;stroke-opacity:1;display:inline"
       d="M 31.275701,146.56368 L 550.48081,146.56368"
       id="path3712"
       inkscape:export-filename="/home/juan/desarrollo/curso-pic/pic16-dibujos/Timers/Timer0-notas-musicales2.png"
       inkscape:export-xdpi="90"
       inkscape:export-ydpi="90" />
    <path
       style="fill:none;fill-rule:evenodd;stroke:#000000;stroke-width:0.99999994px;stroke-linecap:butt;stroke-linejoin:miter;stroke-opacity:1;display:inline"
       d="M 31.275701,190.22168 L 550.48081,190.22168"
       id="path3714"
       inkscape:export-filename="/home/juan/desarrollo/curso-pic/pic16-dibujos/Timers/Timer0-notas-musicales2.png"
       inkscape:export-xdpi="90"
       inkscape:export-ydpi="90" />
    <path
       style="fill:none;fill-rule:evenodd;stroke:#000000;stroke-width:0.99999994px;stroke-linecap:butt;stroke-linejoin:miter;stroke-opacity:1;display:inline"
       d="M 31.275701,235.16373 L 550.48081,235.16373"
       id="path3716"
       inkscape:export-filename="/home/juan/desarrollo/curso-pic/pic16-dibujos/Timers/Timer0-notas-musicales2.png"
       inkscape:export-xdpi="90"
       inkscape:export-ydpi="90" />
    <path
       style="fill:none;fill-rule:evenodd;stroke:#000000;stroke-width:0.99999994px;stroke-linecap:butt;stroke-linejoin:miter;stroke-opacity:1;display:inline"
       d="M 31.275701,277.53766 L 550.48081,277.53766"
       id="path3718"
       inkscape:export-filename="/home/juan/desarrollo/curso-pic/pic16-dibujos/Timers/Timer0-notas-musicales2.png"
       inkscape:export-xdpi="90"
       inkscape:export-ydpi="90" />
    <path
       style="fill:none;fill-rule:evenodd;stroke:#000000;stroke-width:0.99999994px;stroke-linecap:butt;stroke-linejoin:miter;stroke-opacity:1;display:inline"
       d="M 31.275701,322.47972 L 550.48081,322.47972"
       id="path3720"
       inkscape:export-filename="/home/juan/desarrollo/curso-pic/pic16-dibujos/Timers/Timer0-notas-musicales2.png"
       inkscape:export-xdpi="90"
       inkscape:export-ydpi="90" />
    <path
       style="fill:none;fill-rule:evenodd;stroke:#000000;stroke-width:0.99999994px;stroke-linecap:butt;stroke-linejoin:miter;stroke-opacity:1;display:inline"
       d="M 31.275701,363.56959 L 550.48081,363.56959"
       id="path3722"
       inkscape:export-filename="/home/juan/desarrollo/curso-pic/pic16-dibujos/Timers/Timer0-notas-musicales2.png"
       inkscape:export-xdpi="90"
       inkscape:export-ydpi="90" />
    <path
       style="fill:none;fill-rule:evenodd;stroke:#000000;stroke-width:0.99999994px;stroke-linecap:butt;stroke-linejoin:miter;stroke-opacity:1;display:inline"
       d="M 31.275701,408.51165 L 550.48081,408.51165"
       id="path3724"
       inkscape:export-filename="/home/juan/desarrollo/curso-pic/pic16-dibujos/Timers/Timer0-notas-musicales2.png"
       inkscape:export-xdpi="90"
       inkscape:export-ydpi="90" />
    <path
       style="fill:none;fill-rule:evenodd;stroke:#000000;stroke-width:1px;stroke-linecap:butt;stroke-linejoin:miter;stroke-opacity:1"
       d="M 125.91373,58.099307 L 125.91373,449.97224"
       id="path3726"
       inkscape:export-filename="/home/juan/desarrollo/curso-pic/pic16-dibujos/Timers/Timer0-notas-musicales2.png"
       inkscape:export-xdpi="90"
       inkscape:export-ydpi="90" />
    <text
       xml:space="preserve"
       style="font-size:22.29422759999999926px;font-style:normal;font-variant:normal;font-weight:normal;font-stretch:normal;text-align:start;line-height:125%;writing-mode:lr-tb;text-anchor:start;fill:#0000ff;fill-opacity:1;stroke:none;stroke-width:1px;stroke-linecap:butt;stroke-linejoin:miter;stroke-opacity:1;display:inline;font-family:Bitstream Vera Sans;-inkscape-font-specification:Bitstream Vera Sans"
       x="64.682922"
       y="175.18704"
       id="text2552"
       sodipodi:linespacing="125%"
       inkscape:export-filename="/home/juan/desarrollo/curso-pic/pic16-dibujos/Timers/Timer0-notas-musicales2.png"
       inkscape:export-xdpi="90"
       inkscape:export-ydpi="90"
       transform="scale(0.9999271,1.0000729)"><tspan
         sodipodi:role="line"
         id="tspan2554"
         x="64.682922"
         y="175.18704">RE</tspan></text>
    <text
       xml:space="preserve"
       style="font-size:22.29422759999999926px;font-style:normal;font-variant:normal;font-weight:normal;font-stretch:normal;text-align:start;line-height:125%;writing-mode:lr-tb;text-anchor:start;fill:#0000ff;fill-opacity:1;stroke:none;stroke-width:1px;stroke-linecap:butt;stroke-linejoin:miter;stroke-opacity:1;display:inline;font-family:Bitstream Vera Sans;-inkscape-font-specification:Bitstream Vera Sans"
       x="64.682922"
       y="221.25714"
       id="text2556"
       sodipodi:linespacing="125%"
       inkscape:export-filename="/home/juan/desarrollo/curso-pic/pic16-dibujos/Timers/Timer0-notas-musicales2.png"
       inkscape:export-xdpi="90"
       inkscape:export-ydpi="90"
       transform="scale(0.9999271,1.0000729)"><tspan
         sodipodi:role="line"
         id="tspan2558"
         x="64.682922"
         y="221.25714">MI</tspan></text>
    <text
       xml:space="preserve"
       style="font-size:22.29422759999999926px;font-style:normal;font-variant:normal;font-weight:normal;font-stretch:normal;text-align:start;line-height:125%;writing-mode:lr-tb;text-anchor:start;fill:#0000ff;fill-opacity:1;stroke:none;stroke-width:1px;stroke-linecap:butt;stroke-linejoin:miter;stroke-opacity:1;display:inline;font-family:Bitstream Vera Sans;-inkscape-font-specification:Bitstream Vera Sans"
       x="64.682922"
       y="263.64163"
       id="text2560"
       sodipodi:linespacing="125%"
       inkscape:export-filename="/home/juan/desarrollo/curso-pic/pic16-dibujos/Timers/Timer0-notas-musicales2.png"
       inkscape:export-xdpi="90"
       inkscape:export-ydpi="90"
       transform="scale(0.9999271,1.0000729)"><tspan
         sodipodi:role="line"
         id="tspan2562"
         x="64.682922"
         y="263.64163">FA</tspan></text>
    <text
       xml:space="preserve"
       style="font-size:22.29422759999999926px;font-style:normal;font-variant:normal;font-weight:normal;font-stretch:normal;text-align:start;line-height:125%;writing-mode:lr-tb;text-anchor:start;fill:#0000ff;fill-opacity:1;stroke:none;stroke-width:1px;stroke-linecap:butt;stroke-linejoin:miter;stroke-opacity:1;display:inline;font-family:Bitstream Vera Sans;-inkscape-font-specification:Bitstream Vera Sans"
       x="64.682922"
       y="306.94754"
       id="text2564"
       sodipodi:linespacing="125%"
       inkscape:export-filename="/home/juan/desarrollo/curso-pic/pic16-dibujos/Timers/Timer0-notas-musicales2.png"
       inkscape:export-xdpi="90"
       inkscape:export-ydpi="90"
       transform="scale(0.9999271,1.0000729)"><tspan
         sodipodi:role="line"
         id="tspan2566"
         x="64.682922"
         y="306.94754">SOL</tspan></text>
    <text
       xml:space="preserve"
       style="font-size:22.29422759999999926px;font-style:normal;font-variant:normal;font-weight:normal;font-stretch:normal;text-align:start;line-height:125%;writing-mode:lr-tb;text-anchor:start;fill:#0000ff;fill-opacity:1;stroke:none;stroke-width:1px;stroke-linecap:butt;stroke-linejoin:miter;stroke-opacity:1;display:inline;font-family:Bitstream Vera Sans;-inkscape-font-specification:Bitstream Vera Sans"
       x="64.682922"
       y="351.17484"
       id="text2568"
       sodipodi:linespacing="125%"
       inkscape:export-filename="/home/juan/desarrollo/curso-pic/pic16-dibujos/Timers/Timer0-notas-musicales2.png"
       inkscape:export-xdpi="90"
       inkscape:export-ydpi="90"
       transform="scale(0.9999271,1.0000729)"><tspan
         sodipodi:role="line"
         id="tspan2570"
         x="64.682922"
         y="351.17484">LA</tspan></text>
    <text
       xml:space="preserve"
       style="font-size:22.29422759999999926px;font-style:normal;font-variant:normal;font-weight:normal;font-stretch:normal;text-align:start;line-height:125%;writing-mode:lr-tb;text-anchor:start;fill:#0000ff;fill-opacity:1;stroke:none;stroke-width:1px;stroke-linecap:butt;stroke-linejoin:miter;stroke-opacity:1;display:inline;font-family:Bitstream Vera Sans;-inkscape-font-specification:Bitstream Vera Sans"
       x="64.682922"
       y="393.55933"
       id="text2572"
       sodipodi:linespacing="125%"
       inkscape:export-filename="/home/juan/desarrollo/curso-pic/pic16-dibujos/Timers/Timer0-notas-musicales2.png"
       inkscape:export-xdpi="90"
       inkscape:export-ydpi="90"
       transform="scale(0.9999271,1.0000729)"><tspan
         sodipodi:role="line"
         id="tspan2574"
         x="64.682922"
         y="393.55933">SI</tspan></text>
    <text
       xml:space="preserve"
       style="font-size:22.29422759999999926px;font-style:normal;font-variant:normal;font-weight:normal;font-stretch:normal;text-align:start;line-height:125%;writing-mode:lr-tb;text-anchor:start;fill:#0000ff;fill-opacity:1;stroke:none;stroke-width:1px;stroke-linecap:butt;stroke-linejoin:miter;stroke-opacity:1;display:inline;font-family:Bitstream Vera Sans;-inkscape-font-specification:Bitstream Vera Sans"
       x="64.682922"
       y="437.78662"
       id="text2576"
       sodipodi:linespacing="125%"
       inkscape:export-filename="/home/juan/desarrollo/curso-pic/pic16-dibujos/Timers/Timer0-notas-musicales2.png"
       inkscape:export-xdpi="90"
       inkscape:export-ydpi="90"
       transform="scale(0.9999271,1.0000729)"><tspan
         sodipodi:role="line"
         id="tspan2578"
         x="64.682922"
         y="437.78662">DO</tspan></text>
    <text
       xml:space="preserve"
       style="font-size:22.2942276px;font-style:normal;font-variant:normal;font-weight:normal;font-stretch:normal;text-align:start;line-height:125%;writing-mode:lr-tb;text-anchor:start;fill:#000000;fill-opacity:1;stroke:none;stroke-width:1px;stroke-linecap:butt;stroke-linejoin:miter;stroke-opacity:1;display:inline;font-family:Bitstream Vera Sans;-inkscape-font-specification:Bitstream Vera Sans"
       x="206.5811"
       y="130.57846"
       id="text2584"
       sodipodi:linespacing="125%"
       inkscape:export-filename="/home/juan/desarrollo/curso-pic/pic16-dibujos/Timers/Timer0-notas-musicales2.png"
       inkscape:export-xdpi="90"
       inkscape:export-ydpi="90"
       transform="scale(0.9999271,1.0000729)"><tspan
         sodipodi:role="line"
         id="tspan2586"
         x="206.5811"
         y="130.57846">261</tspan></text>
    <text
       xml:space="preserve"
       style="font-size:22.2942276px;font-style:normal;font-variant:normal;font-weight:normal;font-stretch:normal;text-align:start;line-height:125%;writing-mode:lr-tb;text-anchor:start;fill:#000000;fill-opacity:1;stroke:none;stroke-width:1px;stroke-linecap:butt;stroke-linejoin:miter;stroke-opacity:1;display:inline;font-family:Bitstream Vera Sans;-inkscape-font-specification:Bitstream Vera Sans"
       x="206.5811"
       y="175.72716"
       id="text2592"
       sodipodi:linespacing="125%"
       inkscape:export-filename="/home/juan/desarrollo/curso-pic/pic16-dibujos/Timers/Timer0-notas-musicales2.png"
       inkscape:export-xdpi="90"
       inkscape:export-ydpi="90"
       transform="scale(0.9999271,1.0000729)"><tspan
         sodipodi:role="line"
         id="tspan2594"
         x="206.5811"
         y="175.72716">294</tspan></text>
    <text
       xml:space="preserve"
       style="font-size:22.2942276px;font-style:normal;font-variant:normal;font-weight:normal;font-stretch:normal;text-align:start;line-height:125%;writing-mode:lr-tb;text-anchor:start;fill:#000000;fill-opacity:1;stroke:none;stroke-width:1px;stroke-linecap:butt;stroke-linejoin:miter;stroke-opacity:1;display:inline;font-family:Bitstream Vera Sans;-inkscape-font-specification:Bitstream Vera Sans"
       x="206.5811"
       y="218.11165"
       id="text2596"
       sodipodi:linespacing="125%"
       inkscape:export-filename="/home/juan/desarrollo/curso-pic/pic16-dibujos/Timers/Timer0-notas-musicales2.png"
       inkscape:export-xdpi="90"
       inkscape:export-ydpi="90"
       transform="scale(0.9999271,1.0000729)"><tspan
         sodipodi:role="line"
         id="tspan2598"
         x="206.5811"
         y="218.11165">330</tspan></text>
    <text
       xml:space="preserve"
       style="font-size:22.2942276px;font-style:normal;font-variant:normal;font-weight:normal;font-stretch:normal;text-align:start;line-height:125%;writing-mode:lr-tb;text-anchor:start;fill:#000000;fill-opacity:1;stroke:none;stroke-width:1px;stroke-linecap:butt;stroke-linejoin:miter;stroke-opacity:1;display:inline;font-family:Bitstream Vera Sans;-inkscape-font-specification:Bitstream Vera Sans"
       x="206.5811"
       y="261.41754"
       id="text2600"
       sodipodi:linespacing="125%"
       inkscape:export-filename="/home/juan/desarrollo/curso-pic/pic16-dibujos/Timers/Timer0-notas-musicales2.png"
       inkscape:export-xdpi="90"
       inkscape:export-ydpi="90"
       transform="scale(0.9999271,1.0000729)"><tspan
         sodipodi:role="line"
         id="tspan2602"
         x="206.5811"
         y="261.41754">349</tspan></text>
    <text
       xml:space="preserve"
       style="font-size:22.2942276px;font-style:normal;font-variant:normal;font-weight:normal;font-stretch:normal;text-align:start;line-height:125%;writing-mode:lr-tb;text-anchor:start;fill:#000000;fill-opacity:1;stroke:none;stroke-width:1px;stroke-linecap:butt;stroke-linejoin:miter;stroke-opacity:1;display:inline;font-family:Bitstream Vera Sans;-inkscape-font-specification:Bitstream Vera Sans"
       x="206.5811"
       y="308.40906"
       id="text2604"
       sodipodi:linespacing="125%"
       inkscape:export-filename="/home/juan/desarrollo/curso-pic/pic16-dibujos/Timers/Timer0-notas-musicales2.png"
       inkscape:export-xdpi="90"
       inkscape:export-ydpi="90"
       transform="scale(0.9999271,1.0000729)"><tspan
         sodipodi:role="line"
         id="tspan2606"
         x="206.5811"
         y="308.40906">392</tspan></text>
    <text
       xml:space="preserve"
       style="font-size:22.2942276px;font-style:normal;font-variant:normal;font-weight:normal;font-stretch:normal;text-align:start;line-height:125%;writing-mode:lr-tb;text-anchor:start;fill:#000000;fill-opacity:1;stroke:none;stroke-width:1px;stroke-linecap:butt;stroke-linejoin:miter;stroke-opacity:1;display:inline;font-family:Bitstream Vera Sans;-inkscape-font-specification:Bitstream Vera Sans"
       x="206.5811"
       y="348.02936"
       id="text2608"
       sodipodi:linespacing="125%"
       inkscape:export-filename="/home/juan/desarrollo/curso-pic/pic16-dibujos/Timers/Timer0-notas-musicales2.png"
       inkscape:export-xdpi="90"
       inkscape:export-ydpi="90"
       transform="scale(0.9999271,1.0000729)"><tspan
         sodipodi:role="line"
         id="tspan2610"
         x="206.5811"
         y="348.02936">440</tspan></text>
    <text
       xml:space="preserve"
       style="font-size:22.2942276px;font-style:normal;font-variant:normal;font-weight:normal;font-stretch:normal;text-align:start;line-height:125%;writing-mode:lr-tb;text-anchor:start;fill:#000000;fill-opacity:1;stroke:none;stroke-width:1px;stroke-linecap:butt;stroke-linejoin:miter;stroke-opacity:1;display:inline;font-family:Bitstream Vera Sans;-inkscape-font-specification:Bitstream Vera Sans"
       x="206.5811"
       y="392.25665"
       id="text2612"
       sodipodi:linespacing="125%"
       inkscape:export-filename="/home/juan/desarrollo/curso-pic/pic16-dibujos/Timers/Timer0-notas-musicales2.png"
       inkscape:export-xdpi="90"
       inkscape:export-ydpi="90"
       transform="scale(0.9999271,1.0000729)"><tspan
         sodipodi:role="line"
         id="tspan2614"
         x="206.5811"
         y="392.25665">494</tspan></text>
    <text
       xml:space="preserve"
       style="font-size:22.29422759999999926px;font-style:normal;font-variant:normal;font-weight:normal;font-stretch:normal;text-align:start;line-height:125%;writing-mode:lr-tb;text-anchor:start;fill:#000000;fill-opacity:1;stroke:none;stroke-width:1px;stroke-linecap:butt;stroke-linejoin:miter;stroke-opacity:1;display:inline;font-family:Bitstream Vera Sans;-inkscape-font-specification:Bitstream Vera Sans"
       x="206.5811"
       y="436.48395"
       id="text2616"
       sodipodi:linespacing="125%"
       inkscape:export-filename="/home/juan/desarrollo/curso-pic/pic16-dibujos/Timers/Timer0-notas-musicales2.png"
       inkscape:export-xdpi="90"
       inkscape:export-ydpi="90"
       transform="scale(0.9999271,1.0000729)"><tspan
         sodipodi:role="line"
         id="tspan2618"
         x="206.5811"
         y="436.48395">261*2</tspan></text>
    <path
       style="fill:none;fill-rule:evenodd;stroke:#000000;stroke-width:1px;stroke-linecap:butt;stroke-linejoin:miter;stroke-opacity:1;display:inline"
       d="M 31.275702,449.65336 L 348.67908,449.65336"
       id="path2626"
       inkscape:export-filename="/home/juan/desarrollo/curso-pic/pic16-dibujos/Timers/Timer0-notas-musicales2.png"
       inkscape:export-xdpi="90"
       inkscape:export-ydpi="90" />
    <rect
       style="fill:none;fill-opacity:1;stroke:#000000;stroke-width:2;stroke-linecap:round;stroke-linejoin:round;stroke-miterlimit:4;stroke-dasharray:none;stroke-dashoffset:0;stroke-opacity:1"
       id="rect2468"
       width="520.69287"
       height="392.24942"
       x="31.275703"
       y="58.055534"
       inkscape:export-filename="/home/juan/desarrollo/curso-pic/pic16-dibujos/Timers/Timer0-notas-musicales2.png"
       inkscape:export-xdpi="90"
       inkscape:export-ydpi="90" />
    <text
       xml:space="preserve"
       style="font-size:22.2942276px;font-style:normal;font-variant:normal;font-weight:bold;font-stretch:normal;text-align:start;line-height:125%;writing-mode:lr-tb;text-anchor:start;fill:#000000;fill-opacity:1;stroke:none;stroke-width:1px;stroke-linecap:butt;stroke-linejoin:miter;stroke-opacity:1;display:inline;font-family:Bitstream Vera Sans;-inkscape-font-specification:Bitstream Vera Sans Bold"
       x="359.43042"
       y="89.63868"
       id="text3282"
       transform="scale(0.9999272,1.0000728)"
       sodipodi:linespacing="125%"
       inkscape:export-filename="/home/juan/desarrollo/curso-pic/pic16-dibujos/Timers/Timer0-notas-musicales2.png"
       inkscape:export-xdpi="90"
       inkscape:export-ydpi="90"><tspan
         sodipodi:role="line"
         id="tspan3284"
         x="359.43042"
         y="89.63868">Divisor</tspan></text>
    <text
       xml:space="preserve"
       style="font-size:22.2942276px;font-style:normal;font-variant:normal;font-weight:bold;font-stretch:normal;text-align:start;line-height:125%;writing-mode:lr-tb;text-anchor:start;fill:#000000;fill-opacity:1;stroke:none;stroke-width:1px;stroke-linecap:butt;stroke-linejoin:miter;stroke-opacity:1;display:inline;font-family:Bitstream Vera Sans;-inkscape-font-specification:Bitstream Vera Sans Bold"
       x="471.85785"
       y="89.63868"
       id="text3286"
       transform="scale(0.9999272,1.0000728)"
       sodipodi:linespacing="125%"
       inkscape:export-filename="/home/juan/desarrollo/curso-pic/pic16-dibujos/Timers/Timer0-notas-musicales2.png"
       inkscape:export-xdpi="90"
       inkscape:export-ydpi="90"><tspan
         sodipodi:role="line"
         id="tspan3288"
         x="471.85785"
         y="89.63868">T0INI</tspan></text>
    <text
       xml:space="preserve"
       style="font-size:22.29422759999999926px;font-style:normal;font-variant:normal;font-weight:normal;font-stretch:normal;text-align:start;line-height:125%;writing-mode:lr-tb;text-anchor:start;fill:#0000ff;fill-opacity:1;stroke:none;stroke-width:1px;stroke-linecap:butt;stroke-linejoin:miter;stroke-opacity:1;display:inline;font-family:Bitstream Vera Sans;-inkscape-font-specification:Bitstream Vera Sans"
       x="475.66971"
       y="130.57846"
       id="text3294"
       sodipodi:linespacing="125%"
       inkscape:export-filename="/home/juan/desarrollo/curso-pic/pic16-dibujos/Timers/Timer0-notas-musicales2.png"
       inkscape:export-xdpi="90"
       inkscape:export-ydpi="90"
       transform="scale(0.9999271,1.0000729)"><tspan
         sodipodi:role="line"
         id="tspan3296"
         x="475.66971"
         y="130.57846">106</tspan></text>
    <text
       xml:space="preserve"
       style="font-size:22.29422759999999926px;font-style:normal;font-variant:normal;font-weight:normal;font-stretch:normal;text-align:start;line-height:125%;writing-mode:lr-tb;text-anchor:start;fill:#0000ff;fill-opacity:1;stroke:none;stroke-width:1px;stroke-linecap:butt;stroke-linejoin:miter;stroke-opacity:1;display:inline;font-family:Bitstream Vera Sans;-inkscape-font-specification:Bitstream Vera Sans"
       x="475.66971"
       y="175.72716"
       id="text3298"
       sodipodi:linespacing="125%"
       inkscape:export-filename="/home/juan/desarrollo/curso-pic/pic16-dibujos/Timers/Timer0-notas-musicales2.png"
       inkscape:export-xdpi="90"
       inkscape:export-ydpi="90"
       transform="scale(0.9999271,1.0000729)"><tspan
         sodipodi:role="line"
         id="tspan3300"
         x="475.66971"
         y="175.72716">123</tspan></text>
    <text
       xml:space="preserve"
       style="font-size:22.29422759999999926px;font-style:normal;font-variant:normal;font-weight:normal;font-stretch:normal;text-align:start;line-height:125%;writing-mode:lr-tb;text-anchor:start;fill:#0000ff;fill-opacity:1;stroke:none;stroke-width:1px;stroke-linecap:butt;stroke-linejoin:miter;stroke-opacity:1;display:inline;font-family:Bitstream Vera Sans;-inkscape-font-specification:Bitstream Vera Sans"
       x="475.66971"
       y="218.11165"
       id="text3302"
       sodipodi:linespacing="125%"
       inkscape:export-filename="/home/juan/desarrollo/curso-pic/pic16-dibujos/Timers/Timer0-notas-musicales2.png"
       inkscape:export-xdpi="90"
       inkscape:export-ydpi="90"
       transform="scale(0.9999271,1.0000729)"><tspan
         sodipodi:role="line"
         id="tspan3304"
         x="475.66971"
         y="218.11165">138</tspan></text>
    <text
       xml:space="preserve"
       style="font-size:22.29422759999999926px;font-style:normal;font-variant:normal;font-weight:normal;font-stretch:normal;text-align:start;line-height:125%;writing-mode:lr-tb;text-anchor:start;fill:#0000ff;fill-opacity:1;stroke:none;stroke-width:1px;stroke-linecap:butt;stroke-linejoin:miter;stroke-opacity:1;display:inline;font-family:Bitstream Vera Sans;-inkscape-font-specification:Bitstream Vera Sans"
       x="475.66971"
       y="261.41754"
       id="text3306"
       sodipodi:linespacing="125%"
       inkscape:export-filename="/home/juan/desarrollo/curso-pic/pic16-dibujos/Timers/Timer0-notas-musicales2.png"
       inkscape:export-xdpi="90"
       inkscape:export-ydpi="90"
       transform="scale(0.9999271,1.0000729)"><tspan
         sodipodi:role="line"
         id="tspan3308"
         x="475.66971"
         y="261.41754">144</tspan></text>
    <text
       xml:space="preserve"
       style="font-size:22.29422759999999926px;font-style:normal;font-variant:normal;font-weight:normal;font-stretch:normal;text-align:start;line-height:125%;writing-mode:lr-tb;text-anchor:start;fill:#0000ff;fill-opacity:1;stroke:none;stroke-width:1px;stroke-linecap:butt;stroke-linejoin:miter;stroke-opacity:1;display:inline;font-family:Bitstream Vera Sans;-inkscape-font-specification:Bitstream Vera Sans"
       x="475.66971"
       y="308.40906"
       id="text3310"
       sodipodi:linespacing="125%"
       inkscape:export-filename="/home/juan/desarrollo/curso-pic/pic16-dibujos/Timers/Timer0-notas-musicales2.png"
       inkscape:export-xdpi="90"
       inkscape:export-ydpi="90"
       transform="scale(0.9999271,1.0000729)"><tspan
         sodipodi:role="line"
         id="tspan3312"
         x="475.66971"
         y="308.40906">156</tspan></text>
    <text
       xml:space="preserve"
       style="font-size:22.29422759999999926px;font-style:normal;font-variant:normal;font-weight:normal;font-stretch:normal;text-align:start;line-height:125%;writing-mode:lr-tb;text-anchor:start;fill:#0000ff;fill-opacity:1;stroke:none;stroke-width:1px;stroke-linecap:butt;stroke-linejoin:miter;stroke-opacity:1;display:inline;font-family:Bitstream Vera Sans;-inkscape-font-specification:Bitstream Vera Sans"
       x="475.66971"
       y="348.02936"
       id="text3314"
       sodipodi:linespacing="125%"
       inkscape:export-filename="/home/juan/desarrollo/curso-pic/pic16-dibujos/Timers/Timer0-notas-musicales2.png"
       inkscape:export-xdpi="90"
       inkscape:export-ydpi="90"
       transform="scale(0.9999271,1.0000729)"><tspan
         sodipodi:role="line"
         id="tspan3316"
         x="475.66971"
         y="348.02936">167</tspan></text>
    <text
       xml:space="preserve"
       style="font-size:22.29422759999999926px;font-style:normal;font-variant:normal;font-weight:normal;font-stretch:normal;text-align:start;line-height:125%;writing-mode:lr-tb;text-anchor:start;fill:#0000ff;fill-opacity:1;stroke:none;stroke-width:1px;stroke-linecap:butt;stroke-linejoin:miter;stroke-opacity:1;display:inline;font-family:Bitstream Vera Sans;-inkscape-font-specification:Bitstream Vera Sans"
       x="475.66971"
       y="392.25665"
       id="text3318"
       sodipodi:linespacing="125%"
       inkscape:export-filename="/home/juan/desarrollo/curso-pic/pic16-dibujos/Timers/Timer0-notas-musicales2.png"
       inkscape:export-xdpi="90"
       inkscape:export-ydpi="90"
       transform="scale(0.9999271,1.0000729)"><tspan
         sodipodi:role="line"
         id="tspan3320"
         x="475.66971"
         y="392.25665">177</tspan></text>
    <text
       xml:space="preserve"
       style="font-size:22.29422759999999926px;font-style:normal;font-variant:normal;font-weight:normal;font-stretch:normal;text-align:start;line-height:125%;writing-mode:lr-tb;text-anchor:start;fill:#0000ff;fill-opacity:1;stroke:none;stroke-width:1px;stroke-linecap:butt;stroke-linejoin:miter;stroke-opacity:1;display:inline;font-family:Bitstream Vera Sans;-inkscape-font-specification:Bitstream Vera Sans"
       x="475.66971"
       y="436.48395"
       id="text3322"
       sodipodi:linespacing="125%"
       inkscape:export-filename="/home/juan/desarrollo/curso-pic/pic16-dibujos/Timers/Timer0-notas-musicales2.png"
       inkscape:export-xdpi="90"
       inkscape:export-ydpi="90"
       transform="scale(0.9999271,1.0000729)"><tspan
         sodipodi:role="line"
         id="tspan3324"
         x="475.66971"
         y="436.48395">181</tspan></text>
    <path
       style="fill:none;fill-rule:evenodd;stroke:#000000;stroke-width:1px;stroke-linecap:butt;stroke-linejoin:miter;stroke-opacity:1;display:inline"
       d="M 350.15828,58.099307 L 350.15828,449.97224"
       id="path3326"
       inkscape:export-filename="/home/juan/desarrollo/curso-pic/pic16-dibujos/Timers/Timer0-notas-musicales2.png"
       inkscape:export-xdpi="90"
       inkscape:export-ydpi="90" />
    <path
       style="fill:none;fill-rule:evenodd;stroke:#000000;stroke-width:1px;stroke-linecap:butt;stroke-linejoin:miter;stroke-opacity:1;display:inline"
       d="M 455.20577,58.099307 L 455.20577,449.97224"
       id="path3328"
       inkscape:export-filename="/home/juan/desarrollo/curso-pic/pic16-dibujos/Timers/Timer0-notas-musicales2.png"
       inkscape:export-xdpi="90"
       inkscape:export-ydpi="90" />
    <text
       xml:space="preserve"
       style="font-size:22.29422759999999926px;font-style:normal;font-variant:normal;font-weight:normal;font-stretch:normal;text-align:start;line-height:125%;writing-mode:lr-tb;text-anchor:start;fill:#0000ff;fill-opacity:1;stroke:none;stroke-width:1px;stroke-linecap:butt;stroke-linejoin:miter;stroke-opacity:1;display:inline;font-family:Bitstream Vera Sans;-inkscape-font-specification:Bitstream Vera Sans"
       x="381.673"
       y="130.57846"
       id="text3330"
       sodipodi:linespacing="125%"
       inkscape:export-filename="/home/juan/desarrollo/curso-pic/pic16-dibujos/Timers/Timer0-notas-musicales2.png"
       inkscape:export-xdpi="90"
       inkscape:export-ydpi="90"
       transform="scale(0.9999271,1.0000729)"><tspan
         sodipodi:role="line"
         id="tspan3332"
         x="381.673"
         y="130.57846">64</tspan></text>
    <text
       xml:space="preserve"
       style="font-size:22.29422759999999926px;font-style:normal;font-variant:normal;font-weight:normal;font-stretch:normal;text-align:start;line-height:125%;writing-mode:lr-tb;text-anchor:start;fill:#0000ff;fill-opacity:1;stroke:none;stroke-width:1px;stroke-linecap:butt;stroke-linejoin:miter;stroke-opacity:1;display:inline;font-family:Bitstream Vera Sans;-inkscape-font-specification:Bitstream Vera Sans"
       x="381.673"
       y="174.80576"
       id="text3334"
       sodipodi:linespacing="125%"
       inkscape:export-filename="/home/juan/desarrollo/curso-pic/pic16-dibujos/Timers/Timer0-notas-musicales2.png"
       inkscape:export-xdpi="90"
       inkscape:export-ydpi="90"
       transform="scale(0.9999271,1.0000729)"><tspan
         sodipodi:role="line"
         id="tspan3336"
         x="381.673"
         y="174.80576">64</tspan></text>
    <text
       xml:space="preserve"
       style="font-size:22.29422759999999926px;font-style:normal;font-variant:normal;font-weight:normal;font-stretch:normal;text-align:start;line-height:125%;writing-mode:lr-tb;text-anchor:start;fill:#0000ff;fill-opacity:1;stroke:none;stroke-width:1px;stroke-linecap:butt;stroke-linejoin:miter;stroke-opacity:1;display:inline;font-family:Bitstream Vera Sans;-inkscape-font-specification:Bitstream Vera Sans"
       x="381.673"
       y="218.11165"
       id="text3338"
       sodipodi:linespacing="125%"
       inkscape:export-filename="/home/juan/desarrollo/curso-pic/pic16-dibujos/Timers/Timer0-notas-musicales2.png"
       inkscape:export-xdpi="90"
       inkscape:export-ydpi="90"
       transform="scale(0.9999271,1.0000729)"><tspan
         sodipodi:role="line"
         id="tspan3340"
         x="381.673"
         y="218.11165">64</tspan></text>
    <text
       xml:space="preserve"
       style="font-size:22.29422759999999926px;font-style:normal;font-variant:normal;font-weight:normal;font-stretch:normal;text-align:start;line-height:125%;writing-mode:lr-tb;text-anchor:start;fill:#0000ff;fill-opacity:1;stroke:none;stroke-width:1px;stroke-linecap:butt;stroke-linejoin:miter;stroke-opacity:1;display:inline;font-family:Bitstream Vera Sans;-inkscape-font-specification:Bitstream Vera Sans"
       x="381.673"
       y="262.33896"
       id="text3342"
       sodipodi:linespacing="125%"
       inkscape:export-filename="/home/juan/desarrollo/curso-pic/pic16-dibujos/Timers/Timer0-notas-musicales2.png"
       inkscape:export-xdpi="90"
       inkscape:export-ydpi="90"
       transform="scale(0.9999271,1.0000729)"><tspan
         sodipodi:role="line"
         id="tspan3344"
         x="381.673"
         y="262.33896">64</tspan></text>
    <text
       xml:space="preserve"
       style="font-size:22.29422759999999926px;font-style:normal;font-variant:normal;font-weight:normal;font-stretch:normal;text-align:start;line-height:125%;writing-mode:lr-tb;text-anchor:start;fill:#0000ff;fill-opacity:1;stroke:none;stroke-width:1px;stroke-linecap:butt;stroke-linejoin:miter;stroke-opacity:1;display:inline;font-family:Bitstream Vera Sans;-inkscape-font-specification:Bitstream Vera Sans"
       x="381.673"
       y="310.25186"
       id="text3346"
       sodipodi:linespacing="125%"
       inkscape:export-filename="/home/juan/desarrollo/curso-pic/pic16-dibujos/Timers/Timer0-notas-musicales2.png"
       inkscape:export-xdpi="90"
       inkscape:export-ydpi="90"
       transform="scale(0.9999271,1.0000729)"><tspan
         sodipodi:role="line"
         id="tspan3348"
         x="381.673"
         y="310.25186">64</tspan></text>
    <text
       xml:space="preserve"
       style="font-size:22.29422759999999926px;font-style:normal;font-variant:normal;font-weight:normal;font-stretch:normal;text-align:start;line-height:125%;writing-mode:lr-tb;text-anchor:start;fill:#0000ff;fill-opacity:1;stroke:none;stroke-width:1px;stroke-linecap:butt;stroke-linejoin:miter;stroke-opacity:1;display:inline;font-family:Bitstream Vera Sans;-inkscape-font-specification:Bitstream Vera Sans"
       x="381.673"
       y="349.87213"
       id="text3350"
       sodipodi:linespacing="125%"
       inkscape:export-filename="/home/juan/desarrollo/curso-pic/pic16-dibujos/Timers/Timer0-notas-musicales2.png"
       inkscape:export-xdpi="90"
       inkscape:export-ydpi="90"
       transform="scale(0.9999271,1.0000729)"><tspan
         sodipodi:role="line"
         id="tspan3352"
         x="381.673"
         y="349.87213">64</tspan></text>
    <text
       xml:space="preserve"
       style="font-size:22.29422759999999926px;font-style:normal;font-variant:normal;font-weight:normal;font-stretch:normal;text-align:start;line-height:125%;writing-mode:lr-tb;text-anchor:start;fill:#0000ff;fill-opacity:1;stroke:none;stroke-width:1px;stroke-linecap:butt;stroke-linejoin:miter;stroke-opacity:1;display:inline;font-family:Bitstream Vera Sans;-inkscape-font-specification:Bitstream Vera Sans"
       x="381.673"
       y="391.33521"
       id="text3354"
       sodipodi:linespacing="125%"
       inkscape:export-filename="/home/juan/desarrollo/curso-pic/pic16-dibujos/Timers/Timer0-notas-musicales2.png"
       inkscape:export-xdpi="90"
       inkscape:export-ydpi="90"
       transform="scale(0.9999271,1.0000729)"><tspan
         sodipodi:role="line"
         id="tspan3356"
         x="381.673"
         y="391.33521">64</tspan></text>
    <text
       xml:space="preserve"
       style="font-size:22.29422759999999926px;font-style:normal;font-variant:normal;font-weight:normal;font-stretch:normal;text-align:start;line-height:125%;writing-mode:lr-tb;text-anchor:start;fill:#0000ff;fill-opacity:1;stroke:none;stroke-width:1px;stroke-linecap:butt;stroke-linejoin:miter;stroke-opacity:1;display:inline;font-family:Bitstream Vera Sans;-inkscape-font-specification:Bitstream Vera Sans"
       x="381.673"
       y="433.7197"
       id="text3358"
       sodipodi:linespacing="125%"
       inkscape:export-filename="/home/juan/desarrollo/curso-pic/pic16-dibujos/Timers/Timer0-notas-musicales2.png"
       inkscape:export-xdpi="90"
       inkscape:export-ydpi="90"
       transform="scale(0.9999271,1.0000729)"><tspan
         sodipodi:role="line"
         id="tspan3360"
         x="381.673"
         y="433.7197">64</tspan></text>
  </g>
</svg>
